".record.id"	"Sample.type.Drug.Before"	"visit"	"feature"	"abundance"
"SM1"	"patient TRUE ."	1	"Bacteroidetes"	0.783790804398649
"SM10"	"patient TRUE ."	3	"Bacteroidetes"	0.239690448425739
"SM100"	"patient TRUE ."	4	"Bacteroidetes"	0.548342435197293
"SM11"	"patient TRUE ."	2	"Bacteroidetes"	0.908560611913776
"SM12"	"patient TRUE ."	1	"Bacteroidetes"	0.929753895184136
"SM13"	"patient FALSE ."	1	"Bacteroidetes"	0.754910714285714
"SM14"	"patient FALSE ."	1	"Bacteroidetes"	0.0643695569859902
"SM15"	"1"	1	"Bacteroidetes"	0.478734696765976
"SM16"	"patient FALSE ."	4	"Bacteroidetes"	0.390965225869353
"SM17"	"patient TRUE ."	1	"Bacteroidetes"	0.819197352089367
"SM18"	"patient FALSE ."	2	"Bacteroidetes"	0.719657545744502
"SM19"	"patient FALSE ."	2	"Bacteroidetes"	0.225358630263767
"SM2"	"patient FALSE ."	1	"Bacteroidetes"	0.886987787489926
"SM20"	"1"	1	"Bacteroidetes"	0.505237711522965
"SM21"	"patient FALSE ."	1	"Bacteroidetes"	0.568017487808979
"SM22"	"patient TRUE ."	1	"Bacteroidetes"	0.611516314779271
"SM23"	"patient TRUE ."	2	"Bacteroidetes"	0.281625881377022
"SM24"	"patient FALSE ."	1	"Bacteroidetes"	0.866752411575563
"SM25"	"patient FALSE ."	4	"Bacteroidetes"	0.453965612867443
"SM26"	"1"	1	"Bacteroidetes"	0.533990623276338
"SM28"	"1"	1	"Bacteroidetes"	0.266187050359712
"SM29"	"patient TRUE ."	3	"Bacteroidetes"	0.931913116123642
"SM3"	"patient TRUE ."	2	"Bacteroidetes"	0.306595768752121
"SM30"	"patient TRUE ."	4	"Bacteroidetes"	0.0706857328566786
"SM31"	"1"	2	"Bacteroidetes"	0.58252427184466
"SM33"	"patient TRUE ."	1	"Bacteroidetes"	0.690401258851298
"SM35"	"1"	1	"Bacteroidetes"	0.684701068424642
"SM36"	"patient FALSE ."	4	"Bacteroidetes"	0.000321853878339234
"SM37"	"1"	1	"Bacteroidetes"	0.411673633689426
"SM38"	"patient TRUE ."	2	"Bacteroidetes"	0.984482581440756
"SM39"	"patient FALSE ."	1	"Bacteroidetes"	0.934438171553451
"SM40"	"patient FALSE ."	4	"Bacteroidetes"	0.728517250948108
"SM41"	"patient TRUE ."	1	"Bacteroidetes"	0.556199677938808
"SM42"	"patient FALSE ."	4	"Bacteroidetes"	0.711360799001248
"SM43"	"patient TRUE ."	4	"Bacteroidetes"	0.722930173634399
"SM44"	"1"	1	"Bacteroidetes"	0.368940016433854
"SM45"	"patient FALSE ."	2	"Bacteroidetes"	0
"SM48"	"1"	1	"Bacteroidetes"	0.719879518072289
"SM49"	"patient TRUE ."	1	"Bacteroidetes"	0.932167621344589
"SM5"	"patient TRUE ."	3	"Bacteroidetes"	0.837684353280217
"SM50"	"patient FALSE ."	3	"Bacteroidetes"	0
"SM51"	"patient TRUE ."	4	"Bacteroidetes"	0.714699977693509
"SM52"	"patient FALSE ."	1	"Bacteroidetes"	0.0982677851617823
"SM53"	"patient TRUE ."	2	"Bacteroidetes"	0.802934407364787
"SM54"	"patient TRUE ."	3	"Bacteroidetes"	0.809007232084155
"SM55"	"1"	1	"Bacteroidetes"	0.7867457452295
"SM56"	"patient TRUE ."	2	"Bacteroidetes"	0.731723237597911
"SM57"	"patient TRUE ."	1	"Bacteroidetes"	0.904607631389489
"SM58"	"patient FALSE ."	2	"Bacteroidetes"	0.773404599935212
"SM59"	"patient FALSE ."	3	"Bacteroidetes"	0.0576779026217228
"SM60"	"patient TRUE ."	3	"Bacteroidetes"	0.849557522123894
"SM62"	"patient TRUE ."	1	"Bacteroidetes"	0.971497390606182
"SM63"	"1"	1	"Bacteroidetes"	0.652252252252252
"SM64"	"patient TRUE ."	2	"Bacteroidetes"	0.868277474668745
"SM65"	"patient TRUE ."	3	"Bacteroidetes"	0.374089847506526
"SM66"	"1"	1	"Bacteroidetes"	0.646227106227106
"SM67"	"patient TRUE ."	4	"Bacteroidetes"	0.913828598317746
"SM68"	"patient FALSE ."	4	"Bacteroidetes"	0.170458086631349
"SM69"	"patient TRUE ."	4	"Bacteroidetes"	0.837426173453528
"SM7"	"1"	1	"Bacteroidetes"	0.220070422535211
"SM70"	"1"	1	"Bacteroidetes"	0.563654943370519
"SM71"	"patient TRUE ."	3	"Bacteroidetes"	0.918135526831179
"SM72"	"1"	1	"Bacteroidetes"	0.278042328042328
"SM73"	"patient FALSE ."	1	"Bacteroidetes"	0.856349687058348
"SM74"	"1"	2	"Bacteroidetes"	0.0926350245499182
"SM75"	"patient FALSE ."	3	"Bacteroidetes"	0.00237691001697793
"SM76"	"1"	1	"Bacteroidetes"	0.822671413804985
"SM77"	"patient TRUE ."	2	"Bacteroidetes"	0.763546243100146
"SM79"	"patient FALSE ."	2	"Bacteroidetes"	0.849579174006655
"SM8"	"patient FALSE ."	1	"Bacteroidetes"	0.824990730441231
"SM81"	"1"	1	"Bacteroidetes"	0
"SM82"	"patient TRUE ."	4	"Bacteroidetes"	0.955721362607792
"SM83"	"patient TRUE ."	1	"Bacteroidetes"	0.825370675453048
"SM84"	"patient TRUE ."	1	"Bacteroidetes"	0.886138613861386
"SM86"	"patient TRUE ."	2	"Bacteroidetes"	0.00341296928327645
"SM87"	"patient TRUE ."	1	"Bacteroidetes"	0.866818873668189
"SM88"	"patient TRUE ."	2	"Bacteroidetes"	0.838704177323103
"SM89"	"1"	1	"Bacteroidetes"	0.886039132734003
"SM9"	"patient FALSE ."	2	"Bacteroidetes"	0.663512957630605
"SM90"	"patient FALSE ."	2	"Bacteroidetes"	0.617574257425743
"SM91"	"patient TRUE ."	3	"Bacteroidetes"	0.7223532881156
"SM92"	"patient FALSE ."	3	"Bacteroidetes"	0.886416318961521
"SM93"	"patient TRUE ."	1	"Bacteroidetes"	0.77810650887574
"SM95"	"1"	1	"Bacteroidetes"	0.537665119600143
"SM96"	"patient FALSE ."	1	"Bacteroidetes"	0.638152396870014
"SM98"	"patient FALSE ."	3	"Bacteroidetes"	0.837823222888605
"SM99"	"patient FALSE ."	3	"Bacteroidetes"	0.695088595552384
"SM1"	"patient TRUE ."	1	"Firmicutes"	0.192657372932721
"SM10"	"patient TRUE ."	3	"Firmicutes"	0.72670412382063
"SM100"	"patient TRUE ."	4	"Firmicutes"	0.410660718406276
"SM11"	"patient TRUE ."	2	"Firmicutes"	0.0832882639264467
"SM12"	"patient TRUE ."	1	"Firmicutes"	0.0667050283286119
"SM13"	"patient FALSE ."	1	"Firmicutes"	0.200446428571429
"SM14"	"patient FALSE ."	1	"Firmicutes"	0.898523286633851
"SM15"	"1"	1	"Firmicutes"	0.502158375203453
"SM16"	"patient FALSE ."	4	"Firmicutes"	0.590185245368866
"SM17"	"patient TRUE ."	1	"Firmicutes"	0.141911460488209
"SM18"	"patient FALSE ."	2	"Firmicutes"	0.261373174416653
"SM19"	"patient FALSE ."	2	"Firmicutes"	0.737621471540953
"SM2"	"patient FALSE ."	1	"Firmicutes"	0.103527369660901
"SM20"	"1"	1	"Firmicutes"	0.470051034112275
"SM21"	"patient FALSE ."	1	"Firmicutes"	0.412476879098705
"SM22"	"patient TRUE ."	1	"Firmicutes"	0.361996161228407
"SM23"	"patient TRUE ."	2	"Firmicutes"	0.718374118622978
"SM24"	"patient FALSE ."	1	"Firmicutes"	0.0873311897106109
"SM25"	"patient FALSE ."	4	"Firmicutes"	0.534664448141986
"SM26"	"1"	1	"Firmicutes"	0.437672366243795
"SM28"	"1"	1	"Firmicutes"	0.670263788968825
"SM29"	"patient TRUE ."	3	"Firmicutes"	0.0659983291562239
"SM3"	"patient TRUE ."	2	"Firmicutes"	0.683674623826225
"SM30"	"patient TRUE ."	4	"Firmicutes"	0.63015924601885
"SM31"	"1"	2	"Firmicutes"	0.368527508090615
"SM33"	"patient TRUE ."	1	"Firmicutes"	0.0664830841856806
"SM35"	"1"	1	"Firmicutes"	0.177767674471471
"SM36"	"patient FALSE ."	4	"Firmicutes"	0.99163179916318
"SM37"	"1"	1	"Firmicutes"	0.538008979718223
"SM38"	"patient TRUE ."	2	"Firmicutes"	0.0149522145719864
"SM39"	"patient FALSE ."	1	"Firmicutes"	0.0457111637224549
"SM40"	"patient FALSE ."	4	"Firmicutes"	0.185089260937934
"SM41"	"patient TRUE ."	1	"Firmicutes"	0.222222222222222
"SM42"	"patient FALSE ."	4	"Firmicutes"	0.268081564710778
"SM43"	"patient TRUE ."	4	"Firmicutes"	0.21708025933378
"SM44"	"1"	1	"Firmicutes"	0.548069022185703
"SM45"	"patient FALSE ."	2	"Firmicutes"	0.999807987711213
"SM48"	"1"	1	"Firmicutes"	0.230636833046472
"SM49"	"patient TRUE ."	1	"Firmicutes"	0.0630087428399156
"SM5"	"patient TRUE ."	3	"Firmicutes"	0.104254958467537
"SM50"	"patient FALSE ."	3	"Firmicutes"	0.907178543255325
"SM51"	"patient TRUE ."	4	"Firmicutes"	0.201427615436092
"SM52"	"patient FALSE ."	1	"Firmicutes"	0.73504739078331
"SM53"	"patient TRUE ."	2	"Firmicutes"	0.15671749136939
"SM54"	"patient TRUE ."	3	"Firmicutes"	0.186719263642341
"SM55"	"1"	1	"Firmicutes"	0.196493037648272
"SM56"	"patient TRUE ."	2	"Firmicutes"	0.245757180156658
"SM57"	"patient TRUE ."	1	"Firmicutes"	0.0910727141828654
"SM58"	"patient FALSE ."	2	"Firmicutes"	0.216391318432135
"SM59"	"patient FALSE ."	3	"Firmicutes"	0.913857677902622
"SM60"	"patient TRUE ."	3	"Firmicutes"	0.066712049012934
"SM62"	"patient TRUE ."	1	"Firmicutes"	0.0272982737856283
"SM63"	"1"	1	"Firmicutes"	0.314414414414414
"SM64"	"patient TRUE ."	2	"Firmicutes"	0.0731544371450841
"SM65"	"patient TRUE ."	3	"Firmicutes"	0.59870861382058
"SM66"	"1"	1	"Firmicutes"	0.332967032967033
"SM67"	"patient TRUE ."	4	"Firmicutes"	0.0858184812658079
"SM68"	"patient FALSE ."	4	"Firmicutes"	0.706762231224681
"SM69"	"patient TRUE ."	4	"Firmicutes"	0.13941560460056
"SM7"	"1"	1	"Firmicutes"	0.68705985915493
"SM70"	"1"	1	"Firmicutes"	0.369070935876692
"SM71"	"patient TRUE ."	3	"Firmicutes"	0.0709753231492362
"SM72"	"1"	1	"Firmicutes"	0.653703703703704
"SM73"	"patient FALSE ."	1	"Firmicutes"	0.112961841308298
"SM74"	"1"	2	"Firmicutes"	0.823567921440262
"SM75"	"patient FALSE ."	3	"Firmicutes"	0.992529711375212
"SM76"	"1"	1	"Firmicutes"	0.165671298954864
"SM77"	"patient TRUE ."	2	"Firmicutes"	0.200180241072434
"SM79"	"patient FALSE ."	2	"Firmicutes"	0.142982971227246
"SM8"	"patient FALSE ."	1	"Firmicutes"	0.134593993325918
"SM81"	"1"	1	"Firmicutes"	0.465568458007021
"SM82"	"patient TRUE ."	4	"Firmicutes"	0.0404868203779585
"SM83"	"patient TRUE ."	1	"Firmicutes"	0.163920922570016
"SM84"	"patient TRUE ."	1	"Firmicutes"	0.0789167152009319
"SM86"	"patient TRUE ."	2	"Firmicutes"	0.974868135277692
"SM87"	"patient TRUE ."	1	"Firmicutes"	0.0711567732115677
"SM88"	"patient TRUE ."	2	"Firmicutes"	0.129326513213981
"SM89"	"1"	1	"Firmicutes"	0.0789705623127093
"SM9"	"patient FALSE ."	2	"Firmicutes"	0.290004113533525
"SM90"	"patient FALSE ."	2	"Firmicutes"	0.349422442244224
"SM91"	"patient TRUE ."	3	"Firmicutes"	0.223901503981127
"SM92"	"patient FALSE ."	3	"Firmicutes"	0.0989800649049606
"SM93"	"patient TRUE ."	1	"Firmicutes"	0.216917697686928
"SM95"	"1"	1	"Firmicutes"	0.398072117101035
"SM96"	"patient FALSE ."	1	"Firmicutes"	0.248955405302743
"SM98"	"patient FALSE ."	3	"Firmicutes"	0.0793432307541048
"SM99"	"patient FALSE ."	3	"Firmicutes"	0.278986799857296
"SM1"	"patient TRUE ."	1	"Proteobacteria"	0.0219066585851589
"SM10"	"patient TRUE ."	3	"Proteobacteria"	0.00636064878617619
"SM100"	"patient TRUE ."	4	"Proteobacteria"	0.0290746865625721
"SM11"	"patient TRUE ."	2	"Proteobacteria"	0.00320636637564707
"SM12"	"patient TRUE ."	1	"Proteobacteria"	0.00119511331444759
"SM13"	"patient FALSE ."	1	"Proteobacteria"	0.00491071428571429
"SM14"	"patient FALSE ."	1	"Proteobacteria"	0.00643695569859902
"SM15"	"1"	1	"Proteobacteria"	0.0124548864199278
"SM16"	"patient FALSE ."	4	"Proteobacteria"	0.00536236594085148
"SM17"	"patient TRUE ."	1	"Proteobacteria"	0.0223417459660736
"SM18"	"patient FALSE ."	2	"Proteobacteria"	0.0167869733087124
"SM19"	"patient FALSE ."	2	"Proteobacteria"	0.035631652012957
"SM2"	"patient FALSE ."	1	"Proteobacteria"	0.00564131175996528
"SM20"	"1"	1	"Proteobacteria"	0.0021488047273704
"SM21"	"patient FALSE ."	1	"Proteobacteria"	0.013115856734488
"SM22"	"patient TRUE ."	1	"Proteobacteria"	0.0122840690978887
"SM23"	"patient TRUE ."	2	"Proteobacteria"	0
"SM24"	"patient FALSE ."	1	"Proteobacteria"	0.0415434083601286
"SM25"	"patient FALSE ."	4	"Proteobacteria"	0.00305047143649473
"SM26"	"1"	1	"Proteobacteria"	0.00537782680639824
"SM28"	"1"	1	"Proteobacteria"	0.0171862509992006
"SM29"	"patient TRUE ."	3	"Proteobacteria"	0
"SM3"	"patient TRUE ."	2	"Proteobacteria"	0.00690123317117321
"SM30"	"patient TRUE ."	4	"Proteobacteria"	0.257556061098473
"SM31"	"1"	2	"Proteobacteria"	0.00242718446601942
"SM33"	"patient TRUE ."	1	"Proteobacteria"	0.242328874901652
"SM35"	"1"	1	"Proteobacteria"	0.121163900886565
"SM36"	"patient FALSE ."	4	"Proteobacteria"	0.00740263920180238
"SM37"	"1"	1	"Proteobacteria"	0.0410280229137637
"SM38"	"patient TRUE ."	2	"Proteobacteria"	0.000256910903298736
"SM39"	"patient FALSE ."	1	"Proteobacteria"	0.0151156437807321
"SM40"	"patient FALSE ."	4	"Proteobacteria"	0.0847285172509481
"SM41"	"patient TRUE ."	1	"Proteobacteria"	0.0186795491143317
"SM42"	"patient FALSE ."	4	"Proteobacteria"	0.0184769038701623
"SM43"	"patient TRUE ."	4	"Proteobacteria"	0.0508979804754453
"SM44"	"1"	1	"Proteobacteria"	0.0180772391125719
"SM45"	"patient FALSE ."	2	"Proteobacteria"	0.000192012288786482
"SM48"	"1"	1	"Proteobacteria"	0.0196500286861733
"SM49"	"patient TRUE ."	1	"Proteobacteria"	0.00211034066927947
"SM5"	"patient TRUE ."	3	"Proteobacteria"	0.0567892863197152
"SM50"	"patient FALSE ."	3	"Proteobacteria"	0.08125164343939
"SM51"	"patient TRUE ."	4	"Proteobacteria"	0.0818648226633951
"SM52"	"patient FALSE ."	1	"Proteobacteria"	0.158078222028543
"SM53"	"patient TRUE ."	2	"Proteobacteria"	0.0384062140391254
"SM54"	"patient TRUE ."	3	"Proteobacteria"	0.00164365548980934
"SM55"	"1"	1	"Proteobacteria"	0.0110881897885508
"SM56"	"patient TRUE ."	2	"Proteobacteria"	0.0205613577023499
"SM57"	"patient TRUE ."	1	"Proteobacteria"	0.000359971202303816
"SM58"	"patient FALSE ."	2	"Proteobacteria"	0.00988014253320376
"SM59"	"patient FALSE ."	3	"Proteobacteria"	0.00561797752808989
"SM60"	"patient TRUE ."	3	"Proteobacteria"	0.0139550714771954
"SM62"	"patient TRUE ."	1	"Proteobacteria"	0
"SM63"	"1"	1	"Proteobacteria"	0.0207207207207207
"SM64"	"patient TRUE ."	2	"Proteobacteria"	0.0561184723304754
"SM65"	"patient TRUE ."	3	"Proteobacteria"	0.00783074598159088
"SM66"	"1"	1	"Proteobacteria"	0.00937728937728938
"SM67"	"patient TRUE ."	4	"Proteobacteria"	0
"SM68"	"patient FALSE ."	4	"Proteobacteria"	0.107198504206918
"SM69"	"patient TRUE ."	4	"Proteobacteria"	0.0217594031706559
"SM7"	"1"	1	"Proteobacteria"	0.0642605633802817
"SM70"	"1"	1	"Proteobacteria"	0.0544153964063698
"SM71"	"patient TRUE ."	3	"Proteobacteria"	0.00133176654915785
"SM72"	"1"	1	"Proteobacteria"	0.0103174603174603
"SM73"	"patient FALSE ."	1	"Proteobacteria"	0.000252372299616394
"SM74"	"1"	2	"Proteobacteria"	0.0206219312602291
"SM75"	"patient FALSE ."	3	"Proteobacteria"	0.00033955857385399
"SM76"	"1"	1	"Proteobacteria"	0.00815435856207649
"SM77"	"patient TRUE ."	2	"Proteobacteria"	0.0332882730652247
"SM79"	"patient FALSE ."	2	"Proteobacteria"	0.00244666275200626
"SM8"	"patient FALSE ."	1	"Proteobacteria"	0.010752688172043
"SM81"	"1"	1	"Proteobacteria"	0.313529570618418
"SM82"	"patient TRUE ."	4	"Proteobacteria"	0.00229343771023179
"SM83"	"patient TRUE ."	1	"Proteobacteria"	0.0013728720483251
"SM84"	"patient TRUE ."	1	"Proteobacteria"	0.0329062317996506
"SM86"	"patient TRUE ."	2	"Proteobacteria"	0.00713620850139622
"SM87"	"patient TRUE ."	1	"Proteobacteria"	0.0605022831050228
"SM88"	"patient TRUE ."	2	"Proteobacteria"	0.0277919863597613
"SM89"	"1"	1	"Proteobacteria"	0.0130442446677243
"SM9"	"patient FALSE ."	2	"Proteobacteria"	0.0436034553681613
"SM90"	"patient FALSE ."	2	"Proteobacteria"	0.021039603960396
"SM91"	"patient TRUE ."	3	"Proteobacteria"	0.0462253022707166
"SM92"	"patient FALSE ."	3	"Proteobacteria"	0.0104311543810848
"SM93"	"patient TRUE ."	1	"Proteobacteria"	0.00215169445938677
"SM95"	"1"	1	"Proteobacteria"	0.0232059978579079
"SM96"	"patient FALSE ."	1	"Proteobacteria"	0.0173972498670516
"SM98"	"patient FALSE ."	3	"Proteobacteria"	0.0571723527676728
"SM99"	"patient FALSE ."	3	"Proteobacteria"	0.0129623022951599
"SM1"	"patient TRUE ."	1	"Unclassified_Bacteria"	0.00086587583340549
"SM10"	"patient TRUE ."	3	"Unclassified_Bacteria"	0.0043464433372204
"SM100"	"patient TRUE ."	4	"Unclassified_Bacteria"	0.00207676332589801
"SM11"	"patient TRUE ."	2	"Unclassified_Bacteria"	0.00112029668546705
"SM12"	"patient TRUE ."	1	"Unclassified_Bacteria"	0.00225743626062323
"SM13"	"patient FALSE ."	1	"Unclassified_Bacteria"	0.00803571428571428
"SM14"	"patient FALSE ."	1	"Unclassified_Bacteria"	0.00567966679288148
"SM15"	"1"	1	"Unclassified_Bacteria"	0.00629820961007714
"SM16"	"patient FALSE ."	4	"Unclassified_Bacteria"	0.00259993500162496
"SM17"	"patient TRUE ."	1	"Unclassified_Bacteria"	0.0148944973107158
"SM18"	"patient FALSE ."	2	"Unclassified_Bacteria"	0.00100721839852275
"SM19"	"patient FALSE ."	2	"Unclassified_Bacteria"	0.001388246182323
"SM2"	"patient FALSE ."	1	"Unclassified_Bacteria"	0.00365755377843903
"SM20"	"1"	1	"Unclassified_Bacteria"	0.0163846360461993
"SM21"	"patient FALSE ."	1	"Unclassified_Bacteria"	0.00470825626366235
"SM22"	"patient TRUE ."	1	"Unclassified_Bacteria"	0.00690978886756238
"SM23"	"patient TRUE ."	2	"Unclassified_Bacteria"	0
"SM24"	"patient FALSE ."	1	"Unclassified_Bacteria"	0.00385852090032154
"SM25"	"patient FALSE ."	4	"Unclassified_Bacteria"	0.00831946755407654
"SM26"	"1"	1	"Unclassified_Bacteria"	0.0168918918918919
"SM28"	"1"	1	"Unclassified_Bacteria"	0.0335731414868106
"SM29"	"patient TRUE ."	3	"Unclassified_Bacteria"	0.00167084377610693
"SM3"	"patient TRUE ."	2	"Unclassified_Bacteria"	0.00214956443036543
"SM30"	"patient TRUE ."	4	"Unclassified_Bacteria"	0.0232369190770231
"SM31"	"1"	2	"Unclassified_Bacteria"	0.00323624595469256
"SM33"	"patient TRUE ."	1	"Unclassified_Bacteria"	0.000786782061369001
"SM35"	"1"	1	"Unclassified_Bacteria"	0.0136394635144351
"SM36"	"patient FALSE ."	4	"Unclassified_Bacteria"	0.000643707756678468
"SM37"	"1"	1	"Unclassified_Bacteria"	0.00696702275894101
"SM38"	"patient TRUE ."	2	"Unclassified_Bacteria"	0.000205528722638989
"SM39"	"patient FALSE ."	1	"Unclassified_Bacteria"	0.00418867237297396
"SM40"	"patient FALSE ."	4	"Unclassified_Bacteria"	0.00110998057533993
"SM41"	"patient TRUE ."	1	"Unclassified_Bacteria"	0.00611916264090177
"SM42"	"patient FALSE ."	4	"Unclassified_Bacteria"	0.00141489804411153
"SM43"	"patient TRUE ."	4	"Unclassified_Bacteria"	0.00797376853714882
"SM44"	"1"	1	"Unclassified_Bacteria"	0.0427280197206245
"SM45"	"patient FALSE ."	2	"Unclassified_Bacteria"	0
"SM48"	"1"	1	"Unclassified_Bacteria"	0.0174985656913368
"SM49"	"patient TRUE ."	1	"Unclassified_Bacteria"	0.00180886343081097
"SM5"	"patient TRUE ."	3	"Unclassified_Bacteria"	0.00101712154602475
"SM50"	"patient FALSE ."	3	"Unclassified_Bacteria"	0.0115698133052853
"SM51"	"patient TRUE ."	4	"Unclassified_Bacteria"	0.000669194735668079
"SM52"	"patient FALSE ."	1	"Unclassified_Bacteria"	0.00326832988342957
"SM53"	"patient TRUE ."	2	"Unclassified_Bacteria"	0.00172612197928654
"SM54"	"patient TRUE ."	3	"Unclassified_Bacteria"	0.000986193293885602
"SM55"	"1"	1	"Unclassified_Bacteria"	0.00283651366683858
"SM56"	"patient TRUE ."	2	"Unclassified_Bacteria"	0.00195822454308094
"SM57"	"patient TRUE ."	1	"Unclassified_Bacteria"	0.00251979841612671
"SM58"	"patient FALSE ."	2	"Unclassified_Bacteria"	0.000161969549724652
"SM59"	"patient FALSE ."	3	"Unclassified_Bacteria"	0.00262172284644195
"SM60"	"patient TRUE ."	3	"Unclassified_Bacteria"	0.000340367597004765
"SM62"	"patient TRUE ."	1	"Unclassified_Bacteria"	0
"SM63"	"1"	1	"Unclassified_Bacteria"	0.00675675675675676
"SM64"	"patient TRUE ."	2	"Unclassified_Bacteria"	0.0022269235051776
"SM65"	"patient TRUE ."	3	"Unclassified_Bacteria"	0.0021981041351834
"SM66"	"1"	1	"Unclassified_Bacteria"	0.00373626373626374
"SM67"	"patient TRUE ."	4	"Unclassified_Bacteria"	0.000352920416446091
"SM68"	"patient FALSE ."	4	"Unclassified_Bacteria"	0.0105952009971954
"SM69"	"patient TRUE ."	4	"Unclassified_Bacteria"	0.00139881877525645
"SM7"	"1"	1	"Unclassified_Bacteria"	0.0118838028169014
"SM70"	"1"	1	"Unclassified_Bacteria"	0.00919696840671038
"SM71"	"patient TRUE ."	3	"Unclassified_Bacteria"	0.00101840971406189
"SM72"	"1"	1	"Unclassified_Bacteria"	0.00555555555555556
"SM73"	"patient FALSE ."	1	"Unclassified_Bacteria"	0.00232182515647083
"SM74"	"1"	2	"Unclassified_Bacteria"	0.0490998363338789
"SM75"	"patient FALSE ."	3	"Unclassified_Bacteria"	0.00271646859083192
"SM76"	"1"	1	"Unclassified_Bacteria"	0.00212472723096359
"SM77"	"patient TRUE ."	2	"Unclassified_Bacteria"	0.00264729075137997
"SM79"	"patient FALSE ."	2	"Unclassified_Bacteria"	0.00450185946369152
"SM8"	"patient FALSE ."	1	"Unclassified_Bacteria"	0.0218761586948461
"SM81"	"1"	1	"Unclassified_Bacteria"	0.0305157980016203
"SM82"	"patient TRUE ."	4	"Unclassified_Bacteria"	0.000825637575683444
"SM83"	"patient TRUE ."	1	"Unclassified_Bacteria"	0.00796265788028556
"SM84"	"patient TRUE ."	1	"Unclassified_Bacteria"	0.0015530964861192
"SM86"	"patient TRUE ."	2	"Unclassified_Bacteria"	0.00651566863170959
"SM87"	"patient TRUE ."	1	"Unclassified_Bacteria"	0.0015220700152207
"SM88"	"patient TRUE ."	2	"Unclassified_Bacteria"	0.00289855072463768
"SM89"	"1"	1	"Unclassified_Bacteria"	0.00528820729772607
"SM9"	"patient FALSE ."	2	"Unclassified_Bacteria"	0.00246812011517894
"SM90"	"patient FALSE ."	2	"Unclassified_Bacteria"	0.00577557755775578
"SM91"	"patient TRUE ."	3	"Unclassified_Bacteria"	0.00427602477145385
"SM92"	"patient FALSE ."	3	"Unclassified_Bacteria"	0.00417246175243394
"SM93"	"patient TRUE ."	1	"Unclassified_Bacteria"	0.00228617536309844
"SM95"	"1"	1	"Unclassified_Bacteria"	0.0135665833630846
"SM96"	"patient FALSE ."	1	"Unclassified_Bacteria"	0.0904049228899187
"SM98"	"patient FALSE ."	3	"Unclassified_Bacteria"	0.00221217186117393
"SM99"	"patient FALSE ."	3	"Unclassified_Bacteria"	0.00832441431799263
"SM1"	"patient TRUE ."	1	"Actinobacteria"	0.000692700666724392
"SM10"	"patient TRUE ."	3	"Actinobacteria"	0.0228983356302343
"SM100"	"patient TRUE ."	4	"Actinobacteria"	0.00984539650796093
"SM11"	"patient TRUE ."	2	"Actinobacteria"	3.86309201885189e-05
"SM12"	"patient TRUE ."	1	"Actinobacteria"	0
"SM13"	"patient FALSE ."	1	"Actinobacteria"	0.000892857142857143
"SM14"	"patient FALSE ."	1	"Actinobacteria"	0.0249905338886785
"SM15"	"1"	1	"Actinobacteria"	0.000353832000566131
"SM16"	"patient FALSE ."	4	"Actinobacteria"	0.0108872278193045
"SM17"	"patient TRUE ."	1	"Actinobacteria"	0.00165494414563508
"SM18"	"patient FALSE ."	2	"Actinobacteria"	0.00100721839852275
"SM19"	"patient FALSE ."	2	"Actinobacteria"	0
"SM2"	"patient FALSE ."	1	"Actinobacteria"	0.000185977310768086
"SM20"	"1"	1	"Actinobacteria"	0.0056406124093473
"SM21"	"patient FALSE ."	1	"Actinobacteria"	0.0013452160753321
"SM22"	"patient TRUE ."	1	"Actinobacteria"	0.0072936660268714
"SM23"	"patient TRUE ."	2	"Actinobacteria"	0
"SM24"	"patient FALSE ."	1	"Actinobacteria"	0.000514469453376206
"SM25"	"patient FALSE ."	4	"Actinobacteria"	0
"SM26"	"1"	1	"Actinobacteria"	0.00234418091560949
"SM28"	"1"	1	"Actinobacteria"	0.00159872102318145
"SM29"	"patient TRUE ."	3	"Actinobacteria"	0.000417710944026733
"SM3"	"patient TRUE ."	2	"Actinobacteria"	0.000678809820115398
"SM30"	"patient TRUE ."	4	"Actinobacteria"	0.0159246018849529
"SM31"	"1"	2	"Actinobacteria"	0.00121359223300971
"SM33"	"patient TRUE ."	1	"Actinobacteria"	0
"SM35"	"1"	1	"Actinobacteria"	0.00272789270288702
"SM36"	"patient FALSE ."	4	"Actinobacteria"	0
"SM37"	"1"	1	"Actinobacteria"	0.0013934045517882
"SM38"	"patient TRUE ."	2	"Actinobacteria"	0.000102764361319494
"SM39"	"patient FALSE ."	1	"Actinobacteria"	0.000424937776968372
"SM40"	"patient FALSE ."	4	"Actinobacteria"	0.000184996762556655
"SM41"	"patient TRUE ."	1	"Actinobacteria"	0.0215780998389694
"SM42"	"patient FALSE ."	4	"Actinobacteria"	0.000665834373699542
"SM43"	"patient TRUE ."	4	"Actinobacteria"	0.000894254415381176
"SM44"	"1"	1	"Actinobacteria"	0.0221857025472473
"SM45"	"patient FALSE ."	2	"Actinobacteria"	0
"SM48"	"1"	1	"Actinobacteria"	0.00487664945496271
"SM49"	"patient TRUE ."	1	"Actinobacteria"	0.000904431715405487
"SM5"	"patient TRUE ."	3	"Actinobacteria"	0.000254280386506187
"SM50"	"patient FALSE ."	3	"Actinobacteria"	0
"SM51"	"patient TRUE ."	4	"Actinobacteria"	0.000669194735668079
"SM52"	"patient FALSE ."	1	"Actinobacteria"	0.00206994225950539
"SM53"	"patient TRUE ."	2	"Actinobacteria"	0.000215765247410817
"SM54"	"patient TRUE ."	3	"Actinobacteria"	0.00164365548980934
"SM55"	"1"	1	"Actinobacteria"	0.00244971634863332
"SM56"	"patient TRUE ."	2	"Actinobacteria"	0
"SM57"	"patient TRUE ."	1	"Actinobacteria"	0.00143988480921526
"SM58"	"patient FALSE ."	2	"Actinobacteria"	0.000161969549724652
"SM59"	"patient FALSE ."	3	"Actinobacteria"	0.0187265917602996
"SM60"	"patient TRUE ."	3	"Actinobacteria"	0
"SM62"	"patient TRUE ."	1	"Actinobacteria"	0.000401445202729827
"SM63"	"1"	1	"Actinobacteria"	0.00540540540540541
"SM64"	"patient TRUE ."	2	"Actinobacteria"	0.00022269235051776
"SM65"	"patient TRUE ."	3	"Actinobacteria"	0.0170353070476714
"SM66"	"1"	1	"Actinobacteria"	0.00761904761904762
"SM67"	"patient TRUE ."	4	"Actinobacteria"	0
"SM68"	"patient FALSE ."	4	"Actinobacteria"	0.00311623558741041
"SM69"	"patient TRUE ."	4	"Actinobacteria"	0
"SM7"	"1"	1	"Actinobacteria"	0.00792253521126761
"SM70"	"1"	1	"Actinobacteria"	0.00272502767606234
"SM71"	"patient TRUE ."	3	"Actinobacteria"	0
"SM72"	"1"	1	"Actinobacteria"	0.0523809523809524
"SM73"	"patient FALSE ."	1	"Actinobacteria"	0.000201897839693115
"SM74"	"1"	2	"Actinobacteria"	0.0134206219312602
"SM75"	"patient FALSE ."	3	"Actinobacteria"	0.00203735144312394
"SM76"	"1"	1	"Actinobacteria"	0.00132077638681521
"SM77"	"patient TRUE ."	2	"Actinobacteria"	0.000337952010814464
"SM79"	"patient FALSE ."	2	"Actinobacteria"	0.000293599530240752
"SM8"	"patient FALSE ."	1	"Actinobacteria"	0.000741564701520208
"SM81"	"1"	1	"Actinobacteria"	0.190386173372941
"SM82"	"patient TRUE ."	4	"Actinobacteria"	0.000642162558864901
"SM83"	"patient TRUE ."	1	"Actinobacteria"	0.0013728720483251
"SM84"	"patient TRUE ."	1	"Actinobacteria"	0.00029120559114735
"SM86"	"patient TRUE ."	2	"Actinobacteria"	0.00806701830592616
"SM87"	"patient TRUE ."	1	"Actinobacteria"	0
"SM88"	"patient TRUE ."	2	"Actinobacteria"	0.00127877237851662
"SM89"	"1"	1	"Actinobacteria"	0
"SM9"	"patient FALSE ."	2	"Actinobacteria"	0.000411353352529823
"SM90"	"patient FALSE ."	2	"Actinobacteria"	0.0033003300330033
"SM91"	"patient TRUE ."	3	"Actinobacteria"	0.00317015629607785
"SM92"	"patient FALSE ."	3	"Actinobacteria"	0
"SM93"	"patient TRUE ."	1	"Actinobacteria"	0.000537923614846692
"SM95"	"1"	1	"Actinobacteria"	0.000714030703320243
"SM96"	"patient FALSE ."	1	"Actinobacteria"	0.00334270303122389
"SM98"	"patient FALSE ."	3	"Actinobacteria"	0.000589912496313047
"SM99"	"patient FALSE ."	3	"Actinobacteria"	0.000832441431799263
"SM1"	"patient TRUE ."	1	"Verrucomicrobia"	0
"SM10"	"patient TRUE ."	3	"Verrucomicrobia"	0
"SM100"	"patient TRUE ."	4	"Verrucomicrobia"	0
"SM11"	"patient TRUE ."	2	"Verrucomicrobia"	0.00374719925828633
"SM12"	"patient TRUE ."	1	"Verrucomicrobia"	8.85269121813031e-05
"SM13"	"patient FALSE ."	1	"Verrucomicrobia"	0.0303571428571429
"SM14"	"patient FALSE ."	1	"Verrucomicrobia"	0
"SM15"	"1"	1	"Verrucomicrobia"	0
"SM16"	"patient FALSE ."	4	"Verrucomicrobia"	0
"SM17"	"patient TRUE ."	1	"Verrucomicrobia"	0
"SM18"	"patient FALSE ."	2	"Verrucomicrobia"	0
"SM19"	"patient FALSE ."	2	"Verrucomicrobia"	0
"SM2"	"patient FALSE ."	1	"Verrucomicrobia"	0
"SM20"	"1"	1	"Verrucomicrobia"	0.0002686005909213
"SM21"	"patient FALSE ."	1	"Verrucomicrobia"	0
"SM22"	"patient TRUE ."	1	"Verrucomicrobia"	0
"SM23"	"patient TRUE ."	2	"Verrucomicrobia"	0
"SM24"	"patient FALSE ."	1	"Verrucomicrobia"	0
"SM25"	"patient FALSE ."	4	"Verrucomicrobia"	0
"SM26"	"1"	1	"Verrucomicrobia"	0
"SM28"	"1"	1	"Verrucomicrobia"	0.0111910471622702
"SM29"	"patient TRUE ."	3	"Verrucomicrobia"	0
"SM3"	"patient TRUE ."	2	"Verrucomicrobia"	0
"SM30"	"patient TRUE ."	4	"Verrucomicrobia"	0
"SM31"	"1"	2	"Verrucomicrobia"	0.0420711974110032
"SM33"	"patient TRUE ."	1	"Verrucomicrobia"	0
"SM35"	"1"	1	"Verrucomicrobia"	0
"SM36"	"patient FALSE ."	4	"Verrucomicrobia"	0
"SM37"	"1"	1	"Verrucomicrobia"	0
"SM38"	"patient TRUE ."	2	"Verrucomicrobia"	0
"SM39"	"patient FALSE ."	1	"Verrucomicrobia"	0
"SM40"	"patient FALSE ."	4	"Verrucomicrobia"	0.000369993525113311
"SM41"	"patient TRUE ."	1	"Verrucomicrobia"	0.175201288244766
"SM42"	"patient FALSE ."	4	"Verrucomicrobia"	0
"SM43"	"patient TRUE ."	4	"Verrucomicrobia"	0
"SM44"	"1"	1	"Verrucomicrobia"	0
"SM45"	"patient FALSE ."	2	"Verrucomicrobia"	0
"SM48"	"1"	1	"Verrucomicrobia"	0.00731497418244406
"SM49"	"patient TRUE ."	1	"Verrucomicrobia"	0
"SM5"	"patient TRUE ."	3	"Verrucomicrobia"	0
"SM50"	"patient FALSE ."	3	"Verrucomicrobia"	0
"SM51"	"patient TRUE ."	4	"Verrucomicrobia"	0
"SM52"	"patient FALSE ."	1	"Verrucomicrobia"	0
"SM53"	"patient TRUE ."	2	"Verrucomicrobia"	0
"SM54"	"patient TRUE ."	3	"Verrucomicrobia"	0
"SM55"	"1"	1	"Verrucomicrobia"	0.00038679731820526
"SM56"	"patient TRUE ."	2	"Verrucomicrobia"	0
"SM57"	"patient TRUE ."	1	"Verrucomicrobia"	0
"SM58"	"patient FALSE ."	2	"Verrucomicrobia"	0
"SM59"	"patient FALSE ."	3	"Verrucomicrobia"	0.00112359550561798
"SM60"	"patient TRUE ."	3	"Verrucomicrobia"	0
"SM62"	"patient TRUE ."	1	"Verrucomicrobia"	0.000802890405459655
"SM63"	"1"	1	"Verrucomicrobia"	0.00045045045045045
"SM64"	"patient TRUE ."	2	"Verrucomicrobia"	0
"SM65"	"patient TRUE ."	3	"Verrucomicrobia"	0
"SM66"	"1"	1	"Verrucomicrobia"	0
"SM67"	"patient TRUE ."	4	"Verrucomicrobia"	0
"SM68"	"patient FALSE ."	4	"Verrucomicrobia"	0
"SM69"	"patient TRUE ."	4	"Verrucomicrobia"	0
"SM7"	"1"	1	"Verrucomicrobia"	0.00880281690140845
"SM70"	"1"	1	"Verrucomicrobia"	0
"SM71"	"patient TRUE ."	3	"Verrucomicrobia"	0.00689385037211124
"SM72"	"1"	1	"Verrucomicrobia"	0
"SM73"	"patient FALSE ."	1	"Verrucomicrobia"	0.0279123763375732
"SM74"	"1"	2	"Verrucomicrobia"	0.000654664484451719
"SM75"	"patient FALSE ."	3	"Verrucomicrobia"	0
"SM76"	"1"	1	"Verrucomicrobia"	0
"SM77"	"patient TRUE ."	2	"Verrucomicrobia"	0
"SM79"	"patient FALSE ."	2	"Verrucomicrobia"	0
"SM8"	"patient FALSE ."	1	"Verrucomicrobia"	0.00667408231368187
"SM81"	"1"	1	"Verrucomicrobia"	0
"SM82"	"patient TRUE ."	4	"Verrucomicrobia"	0
"SM83"	"patient TRUE ."	1	"Verrucomicrobia"	0
"SM84"	"patient TRUE ."	1	"Verrucomicrobia"	9.706853038245e-05
"SM86"	"patient TRUE ."	2	"Verrucomicrobia"	0
"SM87"	"patient TRUE ."	1	"Verrucomicrobia"	0
"SM88"	"patient TRUE ."	2	"Verrucomicrobia"	0
"SM89"	"1"	1	"Verrucomicrobia"	0
"SM9"	"patient FALSE ."	2	"Verrucomicrobia"	0
"SM90"	"patient FALSE ."	2	"Verrucomicrobia"	0.00288778877887789
"SM91"	"patient TRUE ."	3	"Verrucomicrobia"	0
"SM92"	"patient FALSE ."	3	"Verrucomicrobia"	0
"SM93"	"patient TRUE ."	1	"Verrucomicrobia"	0
"SM95"	"1"	1	"Verrucomicrobia"	0.0174937522313459
"SM96"	"patient FALSE ."	1	"Verrucomicrobia"	0.00167135151561194
"SM98"	"patient FALSE ."	3	"Verrucomicrobia"	0
"SM99"	"patient FALSE ."	3	"Verrucomicrobia"	0
