"feature"	"Sample.type.Drug.Before"	"visit"	"mean"	"sd"	"median"	"incidence"
"N1"	"1"	1	7.69953640973426	3.16798829883049	7.93977568297365	1
"N1"	"1"	2	11.2767521232738	3.82083248300603	11.2767521232738	1
"N1"	"patient FALSE ."	1	5.77709517552014	3.60369134082241	4.36442759302474	1
"N1"	"patient FALSE ."	2	4.9421318834532	2.98802929047803	4.12090984592984	1
"N1"	"patient FALSE ."	3	7.22201702924942	4.08408121644108	6.25175324222282	1
"N1"	"patient FALSE ."	4	7.26678384944297	3.04895853732275	7.23831277251397	1
"N1"	"patient TRUE ."	1	3.60144595741969	1.86612583042997	3.11641602364754	1
"N1"	"patient TRUE ."	2	3.90379315229328	2.44634908844293	3.2704348690336	1
"N1"	"patient TRUE ."	3	4.71206371784616	2.78602403041581	4.36919417842914	1
"N1"	"patient TRUE ."	4	4.36097319253138	2.58316416364146	3.60399863921057	1
"N2"	"1"	1	4.51644681999035	2.27665243120815	4.10976776226486	1
"N2"	"1"	2	7.27287136303464	3.62429461994493	7.27287136303464	1
"N2"	"patient FALSE ."	1	3.42175129570809	2.40149901437758	2.64678981482535	1
"N2"	"patient FALSE ."	2	2.82908281049873	1.51050248956075	2.22917867544937	1
"N2"	"patient FALSE ."	3	4.55622240158776	2.88482277192512	3.85195015371269	1
"N2"	"patient FALSE ."	4	4.74927246235527	2.63997000214642	4.35313363777624	1
"N2"	"patient TRUE ."	1	2.11192175277698	0.896350901243821	1.66032920920686	1
"N2"	"patient TRUE ."	2	2.60985471489137	1.79065503494699	1.94063158632084	1
"N2"	"patient TRUE ."	3	2.88916312277479	1.83457068925491	2.31362690823134	1
"N2"	"patient TRUE ."	4	2.62751356618354	1.61419048087042	2.24251148684558	1
