"feature"	"Drug.Before.Diet"	"Sample.type.1"	"mean"	"sd"	"median"	"incidence"
"N1"	FALSE	"control"	45.5076118602276	22.0727142714458	46.5442549794302	1
"N1"	FALSE	"patient.after.diet"	25.2462087752013	13.1081407366894	25.5195355899506	1
"N1"	FALSE	"patient.before.diet"	27.3278593219862	18.2918382161636	20.3847011392842	1
"N1"	TRUE	"control"	46.1028288580042	NA	46.1028288580042	1
"N1"	TRUE	"patient.after.diet"	26.6818457130986	14.7415846956081	24.4789786062394	1
"N1"	TRUE	"patient.before.diet"	26.3516605456595	15.4930592998015	26.6656491064444	1
"N2"	FALSE	"control"	18.712609495201	10.1431491930144	19.0757026336509	1
"N2"	FALSE	"patient.after.diet"	10.7071932952235	5.9696315268999	9.96443256184139	1
"N2"	FALSE	"patient.before.diet"	11.1888364388402	8.67158486575769	8.64513685780211	1
"N2"	TRUE	"control"	16.4073663689713	NA	16.4073663689713	1
"N2"	TRUE	"patient.after.diet"	11.7042861708916	7.23827417814886	9.8578872524297	1
"N2"	TRUE	"patient.before.diet"	11.2769124312243	6.35442483042891	9.48763268940016	1
