"MatchedGroupID"	"SubjectID"	"SampleID"	"Sample.type"	"Sample.type.1"	"DietStatus"	"Drug"	"Complaints"	"age"	"age.quant"	"visit"	"Drug.Before.Diet"	"Sample.type.Drug.Before"	"visit.max"	"visit.min"	"visit.1"	"visit.2"	"has.matched.subject"
"MG14"	"SB34"	"SM1"	"patient"	"patient.before.diet"	"before.diet"	TRUE	FALSE	16.5985524884884	"(15.3,26.4]"	1	TRUE	"patient TRUE ."	2	1	TRUE	TRUE	TRUE
"MG20"	"SB44"	"SM10"	"patient"	"patient.after.diet"	"after.diet"	FALSE	FALSE	6.32600343796258	"(6.27,8.71]"	3	TRUE	"patient TRUE ."	5	1	TRUE	TRUE	FALSE
"MG20"	"SB44"	"SM100"	"patient"	"patient.after.diet"	"after.diet"	FALSE	FALSE	7.66888450816695	"(6.27,8.71]"	4	TRUE	"patient TRUE ."	5	1	TRUE	TRUE	FALSE
"MG3"	"SB41"	"SM11"	"patient"	"patient.after.diet"	"after.diet"	FALSE	FALSE	9.49941286715322	"(8.71,15.3]"	2	TRUE	"patient TRUE ."	4	1	TRUE	TRUE	TRUE
"MG3"	"SB41"	"SM12"	"patient"	"patient.before.diet"	"before.diet"	TRUE	FALSE	8.6348181327907	"(6.27,8.71]"	1	TRUE	"patient TRUE ."	4	1	TRUE	TRUE	TRUE
"MG6"	"SB11"	"SM13"	"patient"	"patient.before.diet"	"before.diet"	FALSE	FALSE	12.6182191120582	"(8.71,15.3]"	1	FALSE	"patient FALSE ."	4	1	TRUE	TRUE	TRUE
"MG2"	"SB9"	"SM14"	"patient"	"patient.before.diet"	"before.diet"	FALSE	TRUE	15.3070150405978	"(8.71,15.3]"	1	FALSE	"patient FALSE ."	4	1	TRUE	TRUE	TRUE
"MG14"	"SB7"	"SM15"	"control"	"control"	"before.diet"	TRUE	FALSE	19.4236786919639	"(15.3,26.4]"	1	TRUE	"1"	1	1	TRUE	FALSE	TRUE
"MG23"	"SB6"	"SM16"	"patient"	"patient.after.diet"	"after.diet"	TRUE	FALSE	8.30478097608963	"(6.27,8.71]"	4	FALSE	"patient FALSE ."	5	1	TRUE	TRUE	TRUE
"MG9"	"SB16"	"SM17"	"patient"	"patient.before.diet"	"before.diet"	TRUE	FALSE	23.6861407428201	"(15.3,26.4]"	1	TRUE	"patient TRUE ."	2	1	TRUE	TRUE	FALSE
"MG4"	"SB27"	"SM18"	"patient"	"patient.after.diet"	"after.diet"	FALSE	FALSE	5.90844592082391	"[3.18,6.27]"	2	FALSE	"patient FALSE ."	2	2	FALSE	TRUE	TRUE
"MG1"	"SB18"	"SM19"	"patient"	"patient.after.diet"	"after.diet"	TRUE	FALSE	20.3122352957726	"(15.3,26.4]"	2	FALSE	"patient FALSE ."	4	1	TRUE	TRUE	TRUE
"MG1"	"SB18"	"SM2"	"patient"	"patient.before.diet"	"before.diet"	FALSE	FALSE	19.5886028851663	"(15.3,26.4]"	1	FALSE	"patient FALSE ."	4	1	TRUE	TRUE	TRUE
"MG19"	"SB26"	"SM20"	"control"	"control"	"before.diet"	FALSE	FALSE	8.6592464104735	"(6.27,8.71]"	1	FALSE	"1"	1	1	TRUE	FALSE	TRUE
"MG16"	"SB8"	"SM21"	"patient"	"patient.before.diet"	"before.diet"	FALSE	TRUE	18.2481184773511	"(15.3,26.4]"	1	FALSE	"patient FALSE ."	1	1	TRUE	FALSE	TRUE
"MG4"	"SB22"	"SM22"	"patient"	"patient.before.diet"	"before.diet"	TRUE	FALSE	6.43029547299144	"(6.27,8.71]"	1	TRUE	"patient TRUE ."	4	1	TRUE	FALSE	TRUE
"MG19"	"SB29"	"SM23"	"patient"	"patient.after.diet"	"after.diet"	TRUE	FALSE	8.5174831854052	"(6.27,8.71]"	2	TRUE	"patient TRUE ."	7	1	TRUE	TRUE	TRUE
"MG26"	"SB17"	"SM24"	"patient"	"patient.before.diet"	"before.diet"	FALSE	FALSE	19.8299601099148	"(15.3,26.4]"	1	FALSE	"patient FALSE ."	1	1	TRUE	FALSE	FALSE
"MG2"	"SB9"	"SM25"	"patient"	"patient.after.diet"	"after.diet"	FALSE	FALSE	16.0878534811026	"(15.3,26.4]"	4	FALSE	"patient FALSE ."	4	1	TRUE	TRUE	TRUE
"MG4"	"SB15"	"SM26"	"control"	"control"	"before.diet"	FALSE	FALSE	9.60545736693854	"(8.71,15.3]"	1	FALSE	"1"	1	1	TRUE	FALSE	TRUE
"MG18"	"SB21"	"SM28"	"control"	"control"	"before.diet"	FALSE	FALSE	4.4086612259867	"[3.18,6.27]"	1	FALSE	"1"	2	1	TRUE	TRUE	TRUE
"MG19"	"SB29"	"SM29"	"patient"	"patient.after.diet"	"after.diet"	FALSE	FALSE	6.89299364910104	"(6.27,8.71]"	3	TRUE	"patient TRUE ."	7	1	TRUE	TRUE	TRUE
"MG21"	"SB43"	"SM3"	"patient"	"patient.after.diet"	"after.diet"	TRUE	FALSE	23.1802488010728	"(15.3,26.4]"	2	TRUE	"patient TRUE ."	2	1	TRUE	TRUE	TRUE
"MG10"	"SB35"	"SM30"	"patient"	"patient.after.diet"	"after.diet"	FALSE	FALSE	9.00345325350493	"(8.71,15.3]"	4	TRUE	"patient TRUE ."	6	1	TRUE	TRUE	TRUE
"MG6"	"SB25"	"SM31"	"control"	"control"	"before.diet"	FALSE	FALSE	12.555024929358	"(8.71,15.3]"	2	FALSE	"1"	2	1	TRUE	TRUE	TRUE
"MG11"	"SB28"	"SM33"	"patient"	"patient.before.diet"	"before.diet"	TRUE	FALSE	7.09668589014662	"(6.27,8.71]"	1	TRUE	"patient TRUE ."	6	1	TRUE	TRUE	FALSE
"MG10"	"SB1"	"SM35"	"control"	"control"	"before.diet"	FALSE	FALSE	9.69920509517869	"(8.71,15.3]"	1	FALSE	"1"	1	1	TRUE	FALSE	TRUE
"MG7"	"SB20"	"SM36"	"patient"	"patient.after.diet"	"after.diet"	TRUE	FALSE	6.76234633297634	"(6.27,8.71]"	4	FALSE	"patient FALSE ."	4	1	TRUE	TRUE	FALSE
"MG16"	"SB32"	"SM37"	"control"	"control"	"before.diet"	FALSE	FALSE	24.9648998543869	"(15.3,26.4]"	1	FALSE	"1"	1	1	TRUE	FALSE	TRUE
"MG8"	"SB4"	"SM38"	"patient"	"patient.after.diet"	"after.diet"	TRUE	TRUE	4.59597834232965	"[3.18,6.27]"	2	TRUE	"patient TRUE ."	5	1	TRUE	TRUE	TRUE
"MG13"	"SB38"	"SM39"	"patient"	"patient.before.diet"	"before.diet"	FALSE	FALSE	19.0481813237868	"(15.3,26.4]"	1	FALSE	"patient FALSE ."	1	1	TRUE	FALSE	TRUE
"MG15"	"SB37"	"SM40"	"patient"	"patient.after.diet"	"after.diet"	FALSE	FALSE	6.6570486910201	"(6.27,8.71]"	4	FALSE	"patient FALSE ."	4	1	TRUE	TRUE	TRUE
"MG22"	"SB39"	"SM41"	"patient"	"patient.before.diet"	"before.diet"	TRUE	FALSE	9.60912673361345	"(8.71,15.3]"	1	TRUE	"patient TRUE ."	4	1	TRUE	TRUE	TRUE
"MG18"	"SB2"	"SM42"	"patient"	"patient.after.diet"	"after.diet"	TRUE	FALSE	8.53661880783149	"(6.27,8.71]"	4	FALSE	"patient FALSE ."	4	1	TRUE	TRUE	TRUE
"MG22"	"SB39"	"SM43"	"patient"	"patient.after.diet"	"after.diet"	FALSE	FALSE	10.867525710827	"(8.71,15.3]"	4	TRUE	"patient TRUE ."	4	1	TRUE	TRUE	TRUE
"MG2"	"SB3"	"SM44"	"control"	"control"	"before.diet"	FALSE	FALSE	5.8036840550627	"[3.18,6.27]"	1	FALSE	"1"	2	1	TRUE	TRUE	TRUE
"MG7"	"SB20"	"SM45"	"patient"	"patient.after.diet"	"after.diet"	TRUE	TRUE	7.22304378350278	"(6.27,8.71]"	2	FALSE	"patient FALSE ."	4	1	TRUE	TRUE	FALSE
"MG21"	"SB24"	"SM48"	"control"	"control"	"before.diet"	FALSE	FALSE	10.8231644056367	"(8.71,15.3]"	1	FALSE	"1"	1	1	TRUE	FALSE	TRUE
"MG8"	"SB4"	"SM49"	"patient"	"patient.before.diet"	"before.diet"	TRUE	FALSE	3.97310367578462	"[3.18,6.27]"	1	TRUE	"patient TRUE ."	5	1	TRUE	TRUE	TRUE
"MG25"	"SB36"	"SM5"	"patient"	"patient.after.diet"	"after.diet"	FALSE	FALSE	4.37631235099972	"[3.18,6.27]"	3	TRUE	"patient TRUE ."	3	1	TRUE	TRUE	TRUE
"MG7"	"SB20"	"SM50"	"patient"	"patient.after.diet"	"after.diet"	TRUE	FALSE	4.76279894346435	"[3.18,6.27]"	3	FALSE	"patient FALSE ."	4	1	TRUE	TRUE	FALSE
"MG8"	"SB4"	"SM51"	"patient"	"patient.after.diet"	"after.diet"	TRUE	TRUE	5.34523979267489	"[3.18,6.27]"	4	TRUE	"patient TRUE ."	5	1	TRUE	TRUE	TRUE
"MG17"	"SB5"	"SM52"	"patient"	"patient.before.diet"	"before.diet"	FALSE	FALSE	21.5616391252835	"(15.3,26.4]"	1	FALSE	"patient FALSE ."	3	1	TRUE	TRUE	TRUE
"MG25"	"SB36"	"SM53"	"patient"	"patient.after.diet"	"after.diet"	TRUE	FALSE	5.16941182543715	"[3.18,6.27]"	2	TRUE	"patient TRUE ."	3	1	TRUE	TRUE	TRUE
"MG11"	"SB28"	"SM54"	"patient"	"patient.after.diet"	"after.diet"	FALSE	FALSE	7.63889924774125	"(6.27,8.71]"	3	TRUE	"patient TRUE ."	6	1	TRUE	TRUE	FALSE
"MG25"	"SB14"	"SM55"	"control"	"control"	"before.diet"	FALSE	FALSE	9.51582936690674	"(8.71,15.3]"	1	FALSE	"1"	1	1	TRUE	FALSE	TRUE
"MG11"	"SB28"	"SM56"	"patient"	"patient.after.diet"	"after.diet"	FALSE	FALSE	7.40148808841708	"(6.27,8.71]"	2	TRUE	"patient TRUE ."	6	1	TRUE	TRUE	FALSE
"MG19"	"SB29"	"SM57"	"patient"	"patient.before.diet"	"before.diet"	TRUE	FALSE	7.57788439199252	"(6.27,8.71]"	1	TRUE	"patient TRUE ."	7	1	TRUE	TRUE	TRUE
"MG2"	"SB9"	"SM58"	"patient"	"patient.after.diet"	"after.diet"	FALSE	FALSE	14.724788506516	"(8.71,15.3]"	2	FALSE	"patient FALSE ."	4	1	TRUE	TRUE	TRUE
"MG15"	"SB37"	"SM59"	"patient"	"patient.after.diet"	"after.diet"	TRUE	FALSE	5.17566691371612	"[3.18,6.27]"	3	FALSE	"patient FALSE ."	4	1	TRUE	TRUE	TRUE
"MG10"	"SB35"	"SM60"	"patient"	"patient.after.diet"	"after.diet"	TRUE	FALSE	9.09916167147203	"(8.71,15.3]"	3	TRUE	"patient TRUE ."	6	1	TRUE	TRUE	TRUE
"MG10"	"SB35"	"SM62"	"patient"	"patient.before.diet"	"before.diet"	TRUE	TRUE	10.5594439775836	"(8.71,15.3]"	1	TRUE	"patient TRUE ."	6	1	TRUE	TRUE	TRUE
"MG6"	"SB25"	"SM63"	"control"	"control"	"before.diet"	FALSE	FALSE	11.6611304384982	"(8.71,15.3]"	1	FALSE	"1"	2	1	TRUE	TRUE	TRUE
"MG9"	"SB16"	"SM64"	"patient"	"patient.after.diet"	"after.diet"	TRUE	FALSE	24.4999669283999	"(15.3,26.4]"	2	TRUE	"patient TRUE ."	2	1	TRUE	TRUE	FALSE
"MG8"	"SB4"	"SM65"	"patient"	"patient.after.diet"	"after.diet"	TRUE	FALSE	6.00361382032885	"[3.18,6.27]"	3	TRUE	"patient TRUE ."	5	1	TRUE	TRUE	TRUE
"MG8"	"SB31"	"SM66"	"control"	"control"	"before.diet"	FALSE	FALSE	8.77948261979163	"(8.71,15.3]"	1	FALSE	"1"	1	1	TRUE	FALSE	TRUE
"MG19"	"SB29"	"SM67"	"patient"	"patient.after.diet"	"after.diet"	TRUE	FALSE	7.53109986425109	"(6.27,8.71]"	4	TRUE	"patient TRUE ."	7	1	TRUE	TRUE	TRUE
"MG1"	"SB18"	"SM68"	"patient"	"patient.after.diet"	"after.diet"	TRUE	FALSE	18.8428909690075	"(15.3,26.4]"	4	FALSE	"patient FALSE ."	4	1	TRUE	TRUE	TRUE
"MG3"	"SB41"	"SM69"	"patient"	"patient.after.diet"	"after.diet"	FALSE	FALSE	8.6657724164707	"(6.27,8.71]"	4	TRUE	"patient TRUE ."	4	1	TRUE	TRUE	TRUE
"MG23"	"SB13"	"SM7"	"control"	"control"	"before.diet"	FALSE	FALSE	6.30200485003002	"(6.27,8.71]"	1	FALSE	"1"	1	1	TRUE	FALSE	TRUE
"MG17"	"SB10"	"SM70"	"control"	"control"	"before.diet"	FALSE	FALSE	21.1118155031293	"(15.3,26.4]"	1	FALSE	"1"	1	1	TRUE	FALSE	TRUE
"MG3"	"SB41"	"SM71"	"patient"	"patient.after.diet"	"after.diet"	FALSE	FALSE	10.8593009261102	"(8.71,15.3]"	3	TRUE	"patient TRUE ."	4	1	TRUE	TRUE	TRUE
"MG1"	"SB19"	"SM72"	"control"	"control"	"before.diet"	FALSE	FALSE	26.3655668683631	"(15.3,26.4]"	1	FALSE	"1"	2	1	TRUE	TRUE	TRUE
"MG12"	"SB30"	"SM73"	"patient"	"patient.before.diet"	"before.diet"	FALSE	FALSE	6.61891416949347	"(6.27,8.71]"	1	FALSE	"patient FALSE ."	1	1	TRUE	FALSE	FALSE
"MG18"	"SB21"	"SM74"	"control"	"control"	"before.diet"	TRUE	FALSE	4.34307638899461	"[3.18,6.27]"	2	FALSE	"1"	2	1	TRUE	TRUE	TRUE
"MG24"	"SB42"	"SM75"	"patient"	"patient.after.diet"	"after.diet"	TRUE	FALSE	3.84394943678675	"[3.18,6.27]"	3	FALSE	"patient FALSE ."	3	1	TRUE	TRUE	FALSE
"MG3"	"SB33"	"SM76"	"control"	"control"	"before.diet"	FALSE	FALSE	13.7056910782555	"(8.71,15.3]"	1	FALSE	"1"	1	1	TRUE	FALSE	TRUE
"MG22"	"SB39"	"SM77"	"patient"	"patient.after.diet"	"after.diet"	TRUE	FALSE	11.6844222494388	"(8.71,15.3]"	2	TRUE	"patient TRUE ."	4	1	TRUE	TRUE	TRUE
"MG17"	"SB5"	"SM79"	"patient"	"patient.after.diet"	"after.diet"	TRUE	FALSE	21.8602139160796	"(15.3,26.4]"	2	FALSE	"patient FALSE ."	3	1	TRUE	TRUE	TRUE
"MG23"	"SB6"	"SM8"	"patient"	"patient.before.diet"	"before.diet"	FALSE	FALSE	7.99000850447505	"(6.27,8.71]"	1	FALSE	"patient FALSE ."	5	1	TRUE	TRUE	TRUE
"MG15"	"SB12"	"SM81"	"control"	"control"	"before.diet"	FALSE	FALSE	3.18229945518	"[3.18,6.27]"	1	FALSE	"1"	1	1	TRUE	FALSE	TRUE
"MG4"	"SB22"	"SM82"	"patient"	"patient.after.diet"	"after.diet"	TRUE	FALSE	6.173870296539	"[3.18,6.27]"	4	TRUE	"patient TRUE ."	4	1	TRUE	FALSE	TRUE
"MG20"	"SB44"	"SM83"	"patient"	"patient.before.diet"	"before.diet"	TRUE	FALSE	4.95750049341228	"[3.18,6.27]"	1	TRUE	"patient TRUE ."	5	1	TRUE	TRUE	FALSE
"MG21"	"SB43"	"SM84"	"patient"	"patient.before.diet"	"before.diet"	TRUE	FALSE	25.649674444254	"(15.3,26.4]"	1	TRUE	"patient TRUE ."	2	1	TRUE	TRUE	TRUE
"MG20"	"SB44"	"SM86"	"patient"	"patient.after.diet"	"after.diet"	FALSE	FALSE	5.93614846412411	"[3.18,6.27]"	2	TRUE	"patient TRUE ."	5	1	TRUE	TRUE	FALSE
"MG25"	"SB36"	"SM87"	"patient"	"patient.before.diet"	"before.diet"	TRUE	FALSE	5.49948329356027	"[3.18,6.27]"	1	TRUE	"patient TRUE ."	3	1	TRUE	TRUE	TRUE
"MG14"	"SB34"	"SM88"	"patient"	"patient.after.diet"	"after.diet"	TRUE	FALSE	17.7970204736783	"(15.3,26.4]"	2	TRUE	"patient TRUE ."	2	1	TRUE	TRUE	TRUE
"MG13"	"SB45"	"SM89"	"control"	"control"	"before.diet"	FALSE	FALSE	18.7413661233742	"(15.3,26.4]"	1	FALSE	"1"	1	1	TRUE	FALSE	TRUE
"MG15"	"SB37"	"SM9"	"patient"	"patient.after.diet"	"after.diet"	TRUE	FALSE	5.68003274001729	"[3.18,6.27]"	2	FALSE	"patient FALSE ."	4	1	TRUE	TRUE	TRUE
"MG6"	"SB11"	"SM90"	"patient"	"patient.after.diet"	"after.diet"	FALSE	FALSE	10.966427034479	"(8.71,15.3]"	2	FALSE	"patient FALSE ."	4	1	TRUE	TRUE	TRUE
"MG22"	"SB39"	"SM91"	"patient"	"patient.after.diet"	"after.diet"	FALSE	FALSE	11.1920276822057	"(8.71,15.3]"	3	TRUE	"patient TRUE ."	4	1	TRUE	TRUE	TRUE
"MG1"	"SB18"	"SM92"	"patient"	"patient.after.diet"	"after.diet"	FALSE	FALSE	20.8240968138751	"(15.3,26.4]"	3	FALSE	"patient FALSE ."	4	1	TRUE	TRUE	TRUE
"MG5"	"SB23"	"SM93"	"patient"	"patient.before.diet"	"before.diet"	TRUE	FALSE	20.4891022617246	"(15.3,26.4]"	1	TRUE	"patient TRUE ."	1	1	TRUE	FALSE	FALSE
"MG22"	"SB40"	"SM95"	"control"	"control"	"before.diet"	FALSE	FALSE	6.0307895343553	"[3.18,6.27]"	1	FALSE	"1"	1	1	TRUE	FALSE	TRUE
"MG24"	"SB42"	"SM96"	"patient"	"patient.before.diet"	"before.diet"	FALSE	TRUE	5.29354446703593	"[3.18,6.27]"	1	FALSE	"patient FALSE ."	3	1	TRUE	TRUE	FALSE
"MG17"	"SB5"	"SM98"	"patient"	"patient.after.diet"	"after.diet"	FALSE	FALSE	21.3501044946627	"(15.3,26.4]"	3	FALSE	"patient FALSE ."	3	1	TRUE	TRUE	TRUE
"MG23"	"SB6"	"SM99"	"patient"	"patient.after.diet"	"after.diet"	TRUE	FALSE	5.92479522571236	"[3.18,6.27]"	3	FALSE	"patient FALSE ."	5	1	TRUE	TRUE	TRUE
