".record.id"	"Sample.type.Drug.Before"	"visit"	"feature"	"Richness.Estimate"
"SM1"	"patient TRUE ."	1	"S.obs"	31.585
"SM10"	"patient TRUE ."	3	"S.obs"	34.045
"SM100"	"patient TRUE ."	4	"S.obs"	28.5075
"SM11"	"patient TRUE ."	2	"S.obs"	30.06
"SM12"	"patient TRUE ."	1	"S.obs"	25.0125
"SM13"	"patient FALSE ."	1	"S.obs"	43.5625
"SM14"	"patient FALSE ."	1	"S.obs"	41.385
"SM15"	"1"	1	"S.obs"	29.215
"SM16"	"patient FALSE ."	4	"S.obs"	32.0775
"SM17"	"patient TRUE ."	1	"S.obs"	34.1775
"SM18"	"patient FALSE ."	2	"S.obs"	37.625
"SM19"	"patient FALSE ."	2	"S.obs"	34
"SM2"	"patient FALSE ."	1	"S.obs"	23.435
"SM20"	"1"	1	"S.obs"	36.19
"SM21"	"patient FALSE ."	1	"S.obs"	42.82
"SM22"	"patient TRUE ."	1	"S.obs"	41.7175
"SM23"	"patient TRUE ."	2	"S.obs"	8.6175
"SM24"	"patient FALSE ."	1	"S.obs"	37.9875
"SM25"	"patient FALSE ."	4	"S.obs"	30.21
"SM26"	"1"	1	"S.obs"	34.61
"SM28"	"1"	1	"S.obs"	39.7675
"SM29"	"patient TRUE ."	3	"S.obs"	21.3525
"SM3"	"patient TRUE ."	2	"S.obs"	35.3425
"SM30"	"patient TRUE ."	4	"S.obs"	36.1425
"SM31"	"1"	2	"S.obs"	43.4475
"SM33"	"patient TRUE ."	1	"S.obs"	20.8075
"SM35"	"1"	1	"S.obs"	34.4825
"SM36"	"patient FALSE ."	4	"S.obs"	31.815
"SM37"	"1"	1	"S.obs"	48.07
"SM38"	"patient TRUE ."	2	"S.obs"	13.9675
"SM39"	"patient FALSE ."	1	"S.obs"	33.3525
"SM40"	"patient FALSE ."	4	"S.obs"	29.3775
"SM41"	"patient TRUE ."	1	"S.obs"	43.7575
"SM42"	"patient FALSE ."	4	"S.obs"	35.2675
"SM43"	"patient TRUE ."	4	"S.obs"	33.685
"SM44"	"1"	1	"S.obs"	35.9225
"SM45"	"patient FALSE ."	2	"S.obs"	2.41
"SM48"	"1"	1	"S.obs"	45.015
"SM49"	"patient TRUE ."	1	"S.obs"	25.68
"SM5"	"patient TRUE ."	3	"S.obs"	33.4125
"SM50"	"patient FALSE ."	3	"S.obs"	28.5575
"SM51"	"patient TRUE ."	4	"S.obs"	34.3775
"SM52"	"patient FALSE ."	1	"S.obs"	48.53
"SM53"	"patient TRUE ."	2	"S.obs"	27.4575
"SM54"	"patient TRUE ."	3	"S.obs"	25.0675
"SM55"	"1"	1	"S.obs"	36.1025
"SM56"	"patient TRUE ."	2	"S.obs"	24.42
"SM57"	"patient TRUE ."	1	"S.obs"	27.1375
"SM58"	"patient FALSE ."	2	"S.obs"	28.1
"SM59"	"patient FALSE ."	3	"S.obs"	42.2225
"SM60"	"patient TRUE ."	3	"S.obs"	24.4975
"SM62"	"patient TRUE ."	1	"S.obs"	16.655
"SM63"	"1"	1	"S.obs"	48.6725
"SM64"	"patient TRUE ."	2	"S.obs"	26.715
"SM65"	"patient TRUE ."	3	"S.obs"	30.955
"SM66"	"1"	1	"S.obs"	38.6775
"SM67"	"patient TRUE ."	4	"S.obs"	16.615
"SM68"	"patient FALSE ."	4	"S.obs"	46.3825
"SM69"	"patient TRUE ."	4	"S.obs"	25.0925
"SM7"	"1"	1	"S.obs"	41.345
"SM70"	"1"	1	"S.obs"	52.0775
"SM71"	"patient TRUE ."	3	"S.obs"	32.7025
"SM72"	"1"	1	"S.obs"	45.19
"SM73"	"patient FALSE ."	1	"S.obs"	25.685
"SM74"	"1"	2	"S.obs"	43.1575
"SM75"	"patient FALSE ."	3	"S.obs"	31.6925
"SM76"	"1"	1	"S.obs"	30.4275
"SM77"	"patient TRUE ."	2	"S.obs"	30.1625
"SM79"	"patient FALSE ."	2	"S.obs"	31.7225
"SM8"	"patient FALSE ."	1	"S.obs"	33.775
"SM81"	"1"	1	"S.obs"	19.17
"SM82"	"patient TRUE ."	4	"S.obs"	26.205
"SM83"	"patient TRUE ."	1	"S.obs"	28.17
"SM84"	"patient TRUE ."	1	"S.obs"	33.785
"SM86"	"patient TRUE ."	2	"S.obs"	33.16
"SM87"	"patient TRUE ."	1	"S.obs"	21.59
"SM88"	"patient TRUE ."	2	"S.obs"	28.125
"SM89"	"1"	1	"S.obs"	38.41
"SM9"	"patient FALSE ."	2	"S.obs"	23.295
"SM90"	"patient FALSE ."	2	"S.obs"	43.8025
"SM91"	"patient TRUE ."	3	"S.obs"	41.6825
"SM92"	"patient FALSE ."	3	"S.obs"	23.67
"SM93"	"patient TRUE ."	1	"S.obs"	25.7125
"SM95"	"1"	1	"S.obs"	47.95
"SM96"	"patient FALSE ."	1	"S.obs"	33.19
"SM98"	"patient FALSE ."	3	"S.obs"	37.915
"SM99"	"patient FALSE ."	3	"S.obs"	38.395
