".record.id"	"Sample.type.Drug.Before"	"visit"	"feature"	"index"
"SM1"	"patient TRUE ."	1	"N1"	3.11641602364754
"SM10"	"patient TRUE ."	3	"N1"	8.6785327337164
"SM100"	"patient TRUE ."	4	"N1"	5.52407070393339
"SM11"	"patient TRUE ."	2	"N1"	2.05363316963421
"SM12"	"patient TRUE ."	1	"N1"	1.94855987813129
"SM13"	"patient FALSE ."	1	"N1"	7.71899330851066
"SM14"	"patient FALSE ."	1	"N1"	8.85624562751759
"SM15"	"1"	1	"N1"	7.49354197265792
"SM16"	"patient FALSE ."	4	"N1"	6.9316042357877
"SM17"	"patient TRUE ."	1	"N1"	2.65987774399047
"SM18"	"patient FALSE ."	2	"N1"	4.15078068667109
"SM19"	"patient FALSE ."	2	"N1"	7.58357487607403
"SM2"	"patient FALSE ."	1	"N1"	1.9031159921203
"SM20"	"1"	1	"N1"	6.12442255776608
"SM21"	"patient FALSE ."	1	"N1"	8.08528530487843
"SM22"	"patient TRUE ."	1	"N1"	5.90951859594125
"SM23"	"patient TRUE ."	2	"N1"	1.93034374923861
"SM24"	"patient FALSE ."	1	"N1"	3.61830281160585
"SM25"	"patient FALSE ."	4	"N1"	7.54502130924024
"SM26"	"1"	1	"N1"	5.9829367760221
"SM28"	"1"	1	"N1"	11.8488305071567
"SM29"	"patient TRUE ."	3	"N1"	1.76617268033305
"SM3"	"patient TRUE ."	2	"N1"	8.84972759613338
"SM30"	"patient TRUE ."	4	"N1"	9.35691794172213
"SM31"	"1"	2	"N1"	8.57501556476244
"SM33"	"patient TRUE ."	1	"N1"	4.19747488444617
"SM35"	"1"	1	"N1"	4.95101163727316
"SM36"	"patient FALSE ."	4	"N1"	10.2162995343036
"SM37"	"1"	1	"N1"	12.595362513104
"SM38"	"patient TRUE ."	2	"N1"	1.13256656131633
"SM39"	"patient FALSE ."	1	"N1"	4.24711247092343
"SM40"	"patient FALSE ."	4	"N1"	3.71552295575769
"SM41"	"patient TRUE ."	1	"N1"	7.40014880191686
"SM42"	"patient FALSE ."	4	"N1"	4.0773956482032
"SM43"	"patient TRUE ."	4	"N1"	5.00491005095105
"SM44"	"1"	1	"N1"	11.0149442379944
"SM45"	"patient FALSE ."	2	"N1"	1.02038833987024
"SM48"	"1"	1	"N1"	8.72557261373387
"SM49"	"patient TRUE ."	1	"N1"	1.56589334169711
"SM5"	"patient TRUE ."	3	"N1"	5.63661913075256
"SM50"	"patient FALSE ."	3	"N1"	12.9557070680893
"SM51"	"patient TRUE ."	4	"N1"	3.60399863921057
"SM52"	"patient FALSE ."	1	"N1"	13.2946574346937
"SM53"	"patient TRUE ."	2	"N1"	4.63001179712991
"SM54"	"patient TRUE ."	3	"N1"	3.79444848762483
"SM55"	"1"	1	"N1"	4.24475471984113
"SM56"	"patient TRUE ."	2	"N1"	3.52022704652508
"SM57"	"patient TRUE ."	1	"N1"	1.98268075019898
"SM58"	"patient FALSE ."	2	"N1"	4.12090984592984
"SM59"	"patient FALSE ."	3	"N1"	11.0183694187696
"SM60"	"patient TRUE ."	3	"N1"	2.07601766373365
"SM62"	"patient TRUE ."	1	"N1"	1.23205924256242
"SM63"	"1"	1	"N1"	7.98965446590274
"SM64"	"patient TRUE ."	2	"N1"	3.02064269154212
"SM65"	"patient TRUE ."	3	"N1"	8.58436886370104
"SM66"	"1"	1	"N1"	5.63753913119953
"SM67"	"patient TRUE ."	4	"N1"	2.90494893977693
"SM68"	"patient FALSE ."	4	"N1"	11.1148594133654
"SM69"	"patient TRUE ."	4	"N1"	2.26912265152635
"SM7"	"1"	1	"N1"	12.630725114041
"SM70"	"1"	1	"N1"	9.51391956870332
"SM71"	"patient TRUE ."	3	"N1"	2.21641031367433
"SM72"	"1"	1	"N1"	7.88989690004455
"SM73"	"patient FALSE ."	1	"N1"	2.49414110942554
"SM74"	"1"	2	"N1"	13.9784886817852
"SM75"	"patient FALSE ."	3	"N1"	7.57456630818511
"SM76"	"1"	1	"N1"	2.55161692676777
"SM77"	"patient TRUE ."	2	"N1"	3.83895150044304
"SM79"	"patient FALSE ."	2	"N1"	3.83364672685314
"SM8"	"patient FALSE ."	1	"N1"	3.07135498039991
"SM81"	"1"	1	"N1"	9.29038616467552
"SM82"	"patient TRUE ."	4	"N1"	1.86284342059922
"SM83"	"patient TRUE ."	1	"N1"	2.53563285283875
"SM84"	"patient TRUE ."	1	"N1"	5.19313348707033
"SM86"	"patient TRUE ."	2	"N1"	7.31154725528888
"SM87"	"patient TRUE ."	1	"N1"	4.63484666836026
"SM88"	"patient TRUE ."	2	"N1"	2.75028015568126
"SM89"	"1"	1	"N1"	2.10319366476434
"SM9"	"patient FALSE ."	2	"N1"	3.72739517954821
"SM90"	"patient FALSE ."	2	"N1"	10.1582275292259
"SM91"	"patient TRUE ."	3	"N1"	4.94393986923346
"SM92"	"patient FALSE ."	3	"N1"	2.44536254133486
"SM93"	"patient TRUE ."	1	"N1"	4.44255517565459
"SM95"	"1"	1	"N1"	8.00334590356854
"SM96"	"patient FALSE ."	1	"N1"	4.48174271512604
"SM98"	"patient FALSE ."	3	"N1"	4.4091566628571
"SM99"	"patient FALSE ."	3	"N1"	4.92894017626054
"SM1"	"patient TRUE ."	1	"N2"	1.66032920920686
"SM10"	"patient TRUE ."	3	"N2"	6.0511080952354
"SM100"	"patient TRUE ."	4	"N2"	3.05386833130022
"SM11"	"patient TRUE ."	2	"N2"	1.35363909424637
"SM12"	"patient TRUE ."	1	"N2"	1.3218831112632
"SM13"	"patient FALSE ."	1	"N2"	3.95838459145688
"SM14"	"patient FALSE ."	1	"N2"	4.94555105067067
"SM15"	"1"	1	"N2"	4.35830264486266
"SM16"	"patient FALSE ."	4	"N2"	4.52042412697535
"SM17"	"patient TRUE ."	1	"N2"	1.50578233019813
"SM18"	"patient FALSE ."	2	"N2"	2.22556180714347
"SM19"	"patient FALSE ."	2	"N2"	4.8934385946896
"SM2"	"patient FALSE ."	1	"N2"	1.33701205711202
"SM20"	"1"	1	"N2"	3.86123287966707
"SM21"	"patient FALSE ."	1	"N2"	4.19113680109539
"SM22"	"patient TRUE ."	1	"N2"	2.77923727183815
"SM23"	"patient TRUE ."	2	"N2"	1.71534207736374
"SM24"	"patient FALSE ."	1	"N2"	2.03954168121487
"SM25"	"patient FALSE ."	4	"N2"	4.18584314857714
"SM26"	"1"	1	"N2"	3.24948240820406
"SM28"	"1"	1	"N2"	8.02191720982839
"SM29"	"patient TRUE ."	3	"N2"	1.23244266344112
"SM3"	"patient TRUE ."	2	"N2"	6.66343473273779
"SM30"	"patient TRUE ."	4	"N2"	6.05720416693985
"SM31"	"1"	2	"N2"	4.71010806025366
"SM33"	"patient TRUE ."	1	"N2"	3.05631518204103
"SM35"	"1"	1	"N2"	2.44143894347774
"SM36"	"patient FALSE ."	4	"N2"	7.30735818846198
"SM37"	"1"	1	"N2"	6.92425636171251
"SM38"	"patient TRUE ."	2	"N2"	1.03500755891016
"SM39"	"patient FALSE ."	1	"N2"	2.93309127295708
"SM40"	"patient FALSE ."	4	"N2"	2.03227156070646
"SM41"	"patient TRUE ."	1	"N2"	3.44618537062569
"SM42"	"patient FALSE ."	4	"N2"	2.05476607413388
"SM43"	"patient TRUE ."	4	"N2"	2.26393953118914
"SM44"	"1"	1	"N2"	6.7858818311662
"SM45"	"patient FALSE ."	2	"N2"	1.00580586732309
"SM48"	"1"	1	"N2"	4.78433932135465
"SM49"	"patient TRUE ."	1	"N2"	1.15737259227001
"SM5"	"patient TRUE ."	3	"N2"	3.12150465035175
"SM50"	"patient FALSE ."	3	"N2"	9.00339409431614
"SM51"	"patient TRUE ."	4	"N2"	1.93073105399622
"SM52"	"patient FALSE ."	1	"N2"	9.28080271742227
"SM53"	"patient TRUE ."	2	"N2"	3.05395344514622
"SM54"	"patient TRUE ."	3	"N2"	2.33732311581386
"SM55"	"1"	1	"N2"	2.13725827595294
"SM56"	"patient TRUE ."	2	"N2"	1.9524648631786
"SM57"	"patient TRUE ."	1	"N2"	1.32292389381821
"SM58"	"patient FALSE ."	2	"N2"	2.22917867544937
"SM59"	"patient FALSE ."	3	"N2"	6.75390720504581
"SM60"	"patient TRUE ."	3	"N2"	1.39507447916546
"SM62"	"patient TRUE ."	1	"N2"	1.0752599846495
"SM63"	"1"	1	"N2"	3.51765100299328
"SM64"	"patient TRUE ."	2	"N2"	1.92879830946308
"SM65"	"patient TRUE ."	3	"N2"	5.27365661268966
"SM66"	"1"	1	"N2"	2.51165674819366
"SM67"	"patient TRUE ."	4	"N2"	2.24251148684558
"SM68"	"patient FALSE ."	4	"N2"	8.39497167527685
"SM69"	"patient TRUE ."	4	"N2"	1.51567319535844
"SM7"	"1"	1	"N2"	8.75737014852094
"SM70"	"1"	1	"N2"	4.51582734667614
"SM71"	"patient TRUE ."	3	"N2"	1.41226466485228
"SM72"	"1"	1	"N2"	5.30183187809667
"SM73"	"patient FALSE ."	1	"N2"	1.51191106816828
"SM74"	"1"	2	"N2"	9.83563466581562
"SM75"	"patient FALSE ."	3	"N2"	4.8587404410647
"SM76"	"1"	1	"N2"	1.49445097885995
"SM77"	"patient TRUE ."	2	"N2"	1.97614915379134
"SM79"	"patient FALSE ."	2	"N2"	2.09159381303357
"SM8"	"patient FALSE ."	1	"N2"	1.65959336028983
"SM81"	"1"	1	"N2"	7.57188235255386
"SM82"	"patient TRUE ."	4	"N2"	1.32866719765531
"SM83"	"patient TRUE ."	1	"N2"	1.48061013858626
"SM84"	"patient TRUE ."	1	"N2"	3.37660717582843
"SM86"	"patient TRUE ."	2	"N2"	4.84591993610526
"SM87"	"patient TRUE ."	1	"N2"	2.92970078425522
"SM88"	"patient TRUE ."	2	"N2"	1.5738379779711
"SM89"	"1"	1	"N2"	1.34621218433291
"SM9"	"patient FALSE ."	2	"N2"	2.37687327488317
"SM90"	"patient FALSE ."	2	"N2"	4.98112764096883
"SM91"	"patient TRUE ."	3	"N2"	2.28993070064882
"SM92"	"patient FALSE ."	3	"N2"	1.56717307404321
"SM93"	"patient TRUE ."	1	"N2"	2.34277574152005
"SM95"	"1"	1	"N2"	3.71505024337267
"SM96"	"patient FALSE ."	1	"N2"	2.36048835669361
"SM98"	"patient FALSE ."	3	"N2"	2.84515986636068
"SM99"	"patient FALSE ."	3	"N2"	2.30895972869603
