"feature"	"Sample.type"	"visit"	"mean"	"sd"	"median"	"incidence"
"N1"	"control"	1	13.5143183198083	4.80284295225979	14.2702960358587	1
"N1"	"control"	2	10.694095756102	1.57329217918498	10.694095756102	1
"N1"	"patient"	1	12.4776618862764	4.4756240031438	12.7422986968629	1
"N1"	"patient"	2	11.8824446189254	6.00054444290957	12.6405407701669	1
"N1"	"patient"	3	13.3645800489033	6.02652790406443	13.5434135359276	1
"N1"	"patient"	4	13.9574118450127	4.36949421493456	12.9898763015278	1
"N2"	"control"	1	6.89260589468555	2.22777007882672	6.31350926196624	1
"N2"	"control"	2	4.91833550329214	1.30392374668476	4.91833550329214	1
"N2"	"patient"	1	6.9648761245085	2.56281903017858	6.79493806015775	1
"N2"	"patient"	2	6.6781518305918	3.25878501478669	6.36603264789016	1
"N2"	"patient"	3	7.6762854985157	3.38899260044338	7.41520464558587	1
"N2"	"patient"	4	8.31245829029954	2.91982223352973	7.85704837245356	1
