".record.id"	"Sample.type.Drug.Before"	"visit"	"feature"	"index"
"SM1"	"patient TRUE ."	1	"N1"	14.4730260741614
"SM10"	"patient TRUE ."	3	"N1"	16.5559594071584
"SM100"	"patient TRUE ."	4	"N1"	10.5741458126397
"SM11"	"patient TRUE ."	2	"N1"	17.8542146303164
"SM12"	"patient TRUE ."	1	"N1"	15.9899488696668
"SM13"	"patient FALSE ."	1	"N1"	10.9442191085982
"SM14"	"patient FALSE ."	1	"N1"	7.01098310423715
"SM15"	"1"	1	"N1"	14.074163401198
"SM16"	"patient FALSE ."	4	"N1"	12.8134461585144
"SM17"	"patient TRUE ."	1	"N1"	10.511488582057
"SM18"	"patient FALSE ."	2	"N1"	9.54007753066063
"SM19"	"patient FALSE ."	2	"N1"	12.4325036245445
"SM2"	"patient FALSE ."	1	"N1"	7.54257532964919
"SM20"	"1"	1	"N1"	8.20495463215882
"SM21"	"patient FALSE ."	1	"N1"	16.5633275354047
"SM22"	"patient TRUE ."	1	"N1"	15.3281423801633
"SM23"	"patient TRUE ."	2	"N1"	2.45088258385541
"SM24"	"patient FALSE ."	1	"N1"	10.6653557810927
"SM25"	"patient FALSE ."	4	"N1"	8.63367027622887
"SM26"	"1"	1	"N1"	22.2844530739515
"SM28"	"1"	1	"N1"	10.6479042229787
"SM29"	"patient TRUE ."	3	"N1"	6.1975222358691
"SM3"	"patient TRUE ."	2	"N1"	17.8962584594728
"SM30"	"patient TRUE ."	4	"N1"	13.6551297855338
"SM31"	"1"	2	"N1"	11.8065813247915
"SM33"	"patient TRUE ."	1	"N1"	5.25776219102779
"SM35"	"1"	1	"N1"	14.4664286705194
"SM36"	"patient FALSE ."	4	"N1"	7.32973039981264
"SM37"	"1"	1	"N1"	16.4786408914431
"SM38"	"patient TRUE ."	2	"N1"	12.6405407701669
"SM39"	"patient FALSE ."	1	"N1"	21.4984015064323
"SM40"	"patient FALSE ."	4	"N1"	19.6017018080564
"SM41"	"patient TRUE ."	1	"N1"	17.1384261547744
"SM42"	"patient FALSE ."	4	"N1"	14.7019474308585
"SM43"	"patient TRUE ."	4	"N1"	19.2631754305333
"SM44"	"1"	1	"N1"	10.0431532370365
"SM45"	"patient FALSE ."	2	"N1"	1.0201979643669
"SM48"	"1"	1	"N1"	15.6261155410275
"SM49"	"patient TRUE ."	1	"N1"	12.8574396868172
"SM5"	"patient TRUE ."	3	"N1"	17.3141174945478
"SM50"	"patient FALSE ."	3	"N1"	7.2893587042345
"SM51"	"patient TRUE ."	4	"N1"	16.7290392225302
"SM52"	"patient FALSE ."	1	"N1"	14.3456409073631
"SM53"	"patient TRUE ."	2	"N1"	16.6618015821087
"SM54"	"patient TRUE ."	3	"N1"	8.65243470743297
"SM55"	"1"	1	"N1"	16.3386488858253
"SM56"	"patient TRUE ."	2	"N1"	3.40132191540554
"SM57"	"patient TRUE ."	1	"N1"	8.37635546102898
"SM58"	"patient FALSE ."	2	"N1"	6.65562849668962
"SM59"	"patient FALSE ."	3	"N1"	14.0939953314112
"SM60"	"patient TRUE ."	3	"N1"	11.301284834589
"SM62"	"patient TRUE ."	1	"N1"	6.0473058180475
"SM63"	"1"	1	"N1"	17.7578134417961
"SM64"	"patient TRUE ."	2	"N1"	11.9122533095975
"SM65"	"patient TRUE ."	3	"N1"	20.2088486228586
"SM66"	"1"	1	"N1"	21.9370389700107
"SM67"	"patient TRUE ."	4	"N1"	12.9898763015278
"SM68"	"patient FALSE ."	4	"N1"	11.3328513252283
"SM69"	"patient TRUE ."	4	"N1"	21.9347517013541
"SM7"	"1"	1	"N1"	9.74721691579605
"SM70"	"1"	1	"N1"	15.0903721826049
"SM71"	"patient TRUE ."	3	"N1"	18.1281658961715
"SM72"	"1"	1	"N1"	8.09076030080963
"SM73"	"patient FALSE ."	1	"N1"	12.7422986968629
"SM74"	"1"	2	"N1"	9.58161018741253
"SM75"	"patient FALSE ."	3	"N1"	7.64596191507299
"SM76"	"1"	1	"N1"	13.2436791232937
"SM77"	"patient TRUE ."	2	"N1"	23.5037318307862
"SM79"	"patient FALSE ."	2	"N1"	13.5103817570324
"SM8"	"patient FALSE ."	1	"N1"	11.2520520855579
"SM81"	"1"	1	"N1"	5.15488726821158
"SM82"	"patient TRUE ."	4	"N1"	11.8868883323478
"SM83"	"patient TRUE ."	1	"N1"	8.98224845049369
"SM84"	"patient TRUE ."	1	"N1"	15.6325726433157
"SM86"	"patient TRUE ."	2	"N1"	8.85832292584497
"SM87"	"patient TRUE ."	1	"N1"	19.8518137929026
"SM88"	"patient TRUE ."	2	"N1"	14.0712065582552
"SM89"	"1"	1	"N1"	7.85451849091592
"SM9"	"patient FALSE ."	2	"N1"	14.4368356479186
"SM90"	"patient FALSE ."	2	"N1"	15.1553989347087
"SM91"	"patient TRUE ."	3	"N1"	26.0481099121191
"SM92"	"patient FALSE ."	3	"N1"	5.36164838844308
"SM93"	"patient TRUE ."	1	"N1"	16.4696166653049
"SM95"	"1"	1	"N1"	16.2169805069727
"SM96"	"patient FALSE ."	1	"N1"	7.50522255939731
"SM98"	"patient FALSE ."	3	"N1"	15.3138814942939
"SM99"	"patient FALSE ."	3	"N1"	12.992831740444
"SM1"	"patient TRUE ."	1	"N2"	9.39189969053733
"SM10"	"patient TRUE ."	3	"N2"	8.61205991814415
"SM100"	"patient TRUE ."	4	"N2"	5.19758122555514
"SM11"	"patient TRUE ."	2	"N2"	10.3226661350929
"SM12"	"patient TRUE ."	1	"N2"	9.21540276741921
"SM13"	"patient FALSE ."	1	"N2"	6.31177089663343
"SM14"	"patient FALSE ."	1	"N2"	3.72527600464276
"SM15"	"1"	1	"N2"	7.27922828833278
"SM16"	"patient FALSE ."	4	"N2"	7.28129741130992
"SM17"	"patient TRUE ."	1	"N2"	6.72486615770417
"SM18"	"patient FALSE ."	2	"N2"	5.57737084647969
"SM19"	"patient FALSE ."	2	"N2"	5.94027946498414
"SM2"	"patient FALSE ."	1	"N2"	4.40721354451094
"SM20"	"1"	1	"N2"	5.40678317080031
"SM21"	"patient FALSE ."	1	"N2"	6.68146037217853
"SM22"	"patient TRUE ."	1	"N2"	7.20930562701723
"SM23"	"patient TRUE ."	2	"N2"	1.80662665987501
"SM24"	"patient FALSE ."	1	"N2"	4.12199418627358
"SM25"	"patient FALSE ."	4	"N2"	5.00866785481035
"SM26"	"1"	1	"N2"	12.6156805200293
"SM28"	"1"	1	"N2"	5.48510982932834
"SM29"	"patient TRUE ."	3	"N2"	3.22191303397976
"SM3"	"patient TRUE ."	2	"N2"	10.1813452961966
"SM30"	"patient TRUE ."	4	"N2"	8.45001807543706
"SM31"	"1"	2	"N2"	5.8403488267231
"SM33"	"patient TRUE ."	1	"N2"	3.49495773026982
"SM35"	"1"	1	"N2"	8.11646287775494
"SM36"	"patient FALSE ."	4	"N2"	5.31083320051323
"SM37"	"1"	1	"N2"	5.70591503097058
"SM38"	"patient TRUE ."	2	"N2"	7.97597201284822
"SM39"	"patient FALSE ."	1	"N2"	12.5953352619436
"SM40"	"patient FALSE ."	4	"N2"	12.9696452074759
"SM41"	"patient TRUE ."	1	"N2"	8.72702733072658
"SM42"	"patient FALSE ."	4	"N2"	7.77821759729617
"SM43"	"patient TRUE ."	4	"N2"	10.0114085024183
"SM44"	"1"	1	"N2"	5.41716103598559
"SM45"	"patient FALSE ."	2	"N2"	1.00591429658447
"SM48"	"1"	1	"N2"	6.73678914710582
"SM49"	"patient TRUE ."	1	"N2"	8.98120515483314
"SM5"	"patient TRUE ."	3	"N2"	8.76865291991276
"SM50"	"patient FALSE ."	3	"N2"	5.10435266863661
"SM51"	"patient TRUE ."	4	"N2"	8.86126858434244
"SM52"	"patient FALSE ."	1	"N2"	9.59910318845732
"SM53"	"patient TRUE ."	2	"N2"	8.8817725510153
"SM54"	"patient TRUE ."	3	"N2"	5.68587727888171
"SM55"	"1"	1	"N2"	7.88766926196579
"SM56"	"patient TRUE ."	2	"N2"	2.05891477498571
"SM57"	"patient TRUE ."	1	"N2"	4.95660921309625
"SM58"	"patient FALSE ."	2	"N2"	3.80822259928753
"SM59"	"patient FALSE ."	3	"N2"	8.08288386683233
"SM60"	"patient TRUE ."	3	"N2"	6.74752542433941
"SM62"	"patient TRUE ."	1	"N2"	3.21563991107821
"SM63"	"1"	1	"N2"	9.06604761449645
"SM64"	"patient TRUE ."	2	"N2"	6.08067645310313
"SM65"	"patient TRUE ."	3	"N2"	11.945242051378
"SM66"	"1"	1	"N2"	11.2190606813437
"SM67"	"patient TRUE ."	4	"N2"	8.68824929286073
"SM68"	"patient FALSE ."	4	"N2"	7.85704837245356
"SM69"	"patient TRUE ."	4	"N2"	14.6823216891817
"SM7"	"1"	1	"N2"	4.65222981628494
"SM70"	"1"	1	"N2"	6.23267929284699
"SM71"	"patient TRUE ."	3	"N2"	9.24421953829861
"SM72"	"1"	1	"N2"	5.67178643828204
"SM73"	"patient FALSE ."	1	"N2"	7.94517747518643
"SM74"	"1"	2	"N2"	3.99632217986118
"SM75"	"patient FALSE ."	3	"N2"	5.08202141528062
"SM76"	"1"	1	"N2"	6.9074510213906
"SM77"	"patient TRUE ."	2	"N2"	12.5365935073701
"SM79"	"patient FALSE ."	2	"N2"	7.52405122316319
"SM8"	"patient FALSE ."	1	"N2"	6.79493806015775
"SM81"	"1"	1	"N2"	4.21014327991752
"SM82"	"patient TRUE ."	4	"N2"	5.96540076023956
"SM83"	"patient TRUE ."	1	"N2"	6.15165588987095
"SM84"	"patient TRUE ."	1	"N2"	6.93423631035245
"SM86"	"patient TRUE ."	2	"N2"	5.09705110401332
"SM87"	"patient TRUE ."	1	"N2"	11.4097682891669
"SM88"	"patient TRUE ."	2	"N2"	9.33835520262894
"SM89"	"1"	1	"N2"	5.06236956641869
"SM9"	"patient FALSE ."	2	"N2"	9.02673634454233
"SM90"	"patient FALSE ."	2	"N2"	6.36603264789016
"SM91"	"patient TRUE ."	3	"N2"	15.7369508321101
"SM92"	"patient FALSE ."	3	"N2"	3.44542243240412
"SM93"	"patient TRUE ."	1	"N2"	7.76425514304557
"SM95"	"1"	1	"N2"	6.39433923108548
"SM96"	"patient FALSE ."	1	"N2"	3.83305265859348
"SM98"	"patient FALSE ."	3	"N2"	9.5401975116794
"SM99"	"patient FALSE ."	3	"N2"	6.25067808734228
