".record.id"	"Drug.Before.Diet"	"Sample.type.1"	"feature"	"index"
"SM1"	TRUE	"patient.before.diet"	"N1"	29.0735522782772
"SM10"	TRUE	"patient.after.diet"	"N1"	59.394444354049
"SM100"	TRUE	"patient.after.diet"	"N1"	19.7330140395419
"SM11"	TRUE	"patient.after.diet"	"N1"	27.8200651633124
"SM12"	TRUE	"patient.before.diet"	"N1"	27.1924016662105
"SM13"	FALSE	"patient.before.diet"	"N1"	24.4376705255425
"SM14"	FALSE	"patient.before.diet"	"N1"	19.3735519858469
"SM15"	TRUE	"control"	"N1"	46.1028288580042
"SM16"	FALSE	"patient.after.diet"	"N1"	26.1119824056265
"SM17"	TRUE	"patient.before.diet"	"N1"	20.3868841845121
"SM18"	FALSE	"patient.after.diet"	"N1"	13.5753993332399
"SM19"	FALSE	"patient.after.diet"	"N1"	33.1403936580699
"SM2"	FALSE	"patient.before.diet"	"N1"	10.8205072786075
"SM20"	FALSE	"control"	"N1"	19.7985985281218
"SM21"	FALSE	"patient.before.diet"	"N1"	72.7933346706803
"SM22"	TRUE	"patient.before.diet"	"N1"	51.469739129923
"SM23"	TRUE	"patient.after.diet"	"N1"	2.53274022684777
"SM24"	FALSE	"patient.before.diet"	"N1"	16.7401412125719
"SM25"	FALSE	"patient.after.diet"	"N1"	26.7315332793321
"SM26"	FALSE	"control"	"N1"	46.5442549794302
"SM28"	FALSE	"control"	"N1"	55.659188818817
"SM29"	TRUE	"patient.after.diet"	"N1"	7.61216721108631
"SM3"	TRUE	"patient.after.diet"	"N1"	50.8180050606478
"SM30"	TRUE	"patient.after.diet"	"N1"	32.2861587977138
"SM31"	FALSE	"control"	"N1"	38.8996730391306
"SM33"	TRUE	"patient.before.diet"	"N1"	6.63008836110428
"SM35"	FALSE	"control"	"N1"	41.2577846291667
"SM36"	FALSE	"patient.after.diet"	"N1"	20.1084831786
"SM37"	FALSE	"control"	"N1"	91.0405451488059
"SM38"	TRUE	"patient.after.diet"	"N1"	15.3849959341347
"SM39"	FALSE	"patient.before.diet"	"N1"	38.3028246364825
"SM40"	FALSE	"patient.after.diet"	"N1"	34.219393866622
"SM41"	TRUE	"patient.before.diet"	"N1"	43.4957282235458
"SM42"	FALSE	"patient.after.diet"	"N1"	32.0110306633348
"SM43"	TRUE	"patient.after.diet"	"N1"	40.73408912894
"SM44"	FALSE	"control"	"N1"	38.4441406660789
"SM45"	FALSE	"patient.after.diet"	"N1"	1.0202312162992
"SM48"	FALSE	"control"	"N1"	66.3176413967304
"SM49"	TRUE	"patient.before.diet"	"N1"	17.2409979443128
"SM5"	TRUE	"patient.after.diet"	"N1"	27.3828978837625
"SM50"	FALSE	"patient.after.diet"	"N1"	19.12010851171
"SM51"	TRUE	"patient.after.diet"	"N1"	22.4118475997605
"SM52"	FALSE	"patient.before.diet"	"N1"	36.7555807180403
"SM53"	TRUE	"patient.after.diet"	"N1"	22.7541439704121
"SM54"	TRUE	"patient.after.diet"	"N1"	16.2484159234806
"SM55"	FALSE	"control"	"N1"	30.4826736825111
"SM56"	TRUE	"patient.after.diet"	"N1"	6.04281871759573
"SM57"	TRUE	"patient.before.diet"	"N1"	11.3665509095739
"SM58"	FALSE	"patient.after.diet"	"N1"	10.1528893503665
"SM59"	FALSE	"patient.after.diet"	"N1"	46.5336263627047
"SM60"	TRUE	"patient.after.diet"	"N1"	15.651001163038
"SM62"	TRUE	"patient.before.diet"	"N1"	7.01935062965024
"SM63"	FALSE	"control"	"N1"	60.3278086904579
"SM64"	TRUE	"patient.after.diet"	"N1"	16.1496251114013
"SM65"	TRUE	"patient.after.diet"	"N1"	47.1651560950242
"SM66"	FALSE	"control"	"N1"	55.5603224392875
"SM67"	TRUE	"patient.after.diet"	"N1"	17.7341181013859
"SM68"	FALSE	"patient.after.diet"	"N1"	22.7568353980117
"SM69"	TRUE	"patient.after.diet"	"N1"	33.5145402673806
"SM7"	FALSE	"control"	"N1"	51.1669085930646
"SM70"	FALSE	"control"	"N1"	68.0438278688937
"SM71"	TRUE	"patient.after.diet"	"N1"	27.700066726672
"SM72"	FALSE	"control"	"N1"	14.8785361761046
"SM73"	FALSE	"patient.before.diet"	"N1"	17.2100705842512
"SM74"	FALSE	"control"	"N1"	73.3881048295247
"SM75"	FALSE	"patient.after.diet"	"N1"	23.7713942561104
"SM76"	FALSE	"control"	"N1"	22.3322205647387
"SM77"	TRUE	"patient.after.diet"	"N1"	40.9901128462831
"SM79"	FALSE	"patient.after.diet"	"N1"	25.5195355899506
"SM8"	FALSE	"patient.before.diet"	"N1"	21.3958502927215
"SM81"	FALSE	"control"	"N1"	11.4256267304512
"SM82"	TRUE	"patient.after.diet"	"N1"	14.2864818530503
"SM83"	TRUE	"patient.before.diet"	"N1"	15.7749618047444
"SM84"	TRUE	"patient.before.diet"	"N1"	52.260356881225
"SM86"	TRUE	"patient.after.diet"	"N1"	29.3919579867934
"SM87"	TRUE	"patient.before.diet"	"N1"	33.9953259740502
"SM88"	TRUE	"patient.after.diet"	"N1"	24.4789786062394
"SM89"	FALSE	"control"	"N1"	19.3527476336724
"SM9"	FALSE	"patient.after.diet"	"N1"	28.3947727068234
"SM90"	FALSE	"patient.after.diet"	"N1"	58.4993987081909
"SM91"	TRUE	"patient.after.diet"	"N1"	48.8283000589108
"SM92"	FALSE	"patient.after.diet"	"N1"	7.78351965195427
"SM93"	TRUE	"patient.before.diet"	"N1"	26.6656491064444
"SM95"	FALSE	"control"	"N1"	59.7240209293376
"SM96"	FALSE	"patient.before.diet"	"N1"	15.4490613151172
"SM98"	FALSE	"patient.after.diet"	"N1"	23.6720948228678
"SM99"	FALSE	"patient.after.diet"	"N1"	26.55534376901
"SM1"	TRUE	"patient.before.diet"	"N2"	13.001582323996
"SM10"	TRUE	"patient.after.diet"	"N2"	29.1990738093257
"SM100"	TRUE	"patient.after.diet"	"N2"	5.85798174100992
"SM11"	TRUE	"patient.after.diet"	"N2"	11.7190699443207
"SM12"	TRUE	"patient.before.diet"	"N2"	10.8160023829378
"SM13"	FALSE	"patient.before.diet"	"N2"	8.85919007610732
"SM14"	FALSE	"patient.before.diet"	"N2"	5.6520909965619
"SM15"	TRUE	"control"	"N2"	16.4073663689713
"SM16"	FALSE	"patient.after.diet"	"N2"	9.42247645350289
"SM17"	TRUE	"patient.before.diet"	"N2"	8.51819405161878
"SM18"	FALSE	"patient.after.diet"	"N2"	5.87564080831848
"SM19"	FALSE	"patient.after.diet"	"N2"	9.96443256184139
"SM2"	FALSE	"patient.before.diet"	"N2"	4.65337592188184
"SM20"	FALSE	"control"	"N2"	7.94245066434171
"SM21"	FALSE	"patient.before.diet"	"N2"	31.5447547203789
"SM22"	TRUE	"patient.before.diet"	"N2"	18.7120260043654
"SM23"	TRUE	"patient.after.diet"	"N2"	1.80763750864801
"SM24"	FALSE	"patient.before.diet"	"N2"	4.36465211276811
"SM25"	FALSE	"patient.after.diet"	"N2"	8.75793667660582
"SM26"	FALSE	"control"	"N2"	22.3722877796822
"SM28"	FALSE	"control"	"N2"	19.2733897846209
"SM29"	TRUE	"patient.after.diet"	"N2"	3.27009925172348
"SM3"	TRUE	"patient.after.diet"	"N2"	23.1703748619261
"SM30"	TRUE	"patient.after.diet"	"N2"	14.8855312307335
"SM31"	FALSE	"control"	"N2"	18.3051114896796
"SM33"	TRUE	"patient.before.diet"	"N2"	3.63664124454709
"SM35"	FALSE	"control"	"N2"	18.2342531737838
"SM36"	FALSE	"patient.after.diet"	"N2"	9.92699265823179
"SM37"	FALSE	"control"	"N2"	46.6371365520871
"SM38"	TRUE	"patient.after.diet"	"N2"	8.15238673337025
"SM39"	FALSE	"patient.before.diet"	"N2"	17.8170287965125
"SM40"	FALSE	"patient.after.diet"	"N2"	17.7074524523119
"SM41"	TRUE	"patient.before.diet"	"N2"	16.0666695155965
"SM42"	FALSE	"patient.after.diet"	"N2"	11.0039782701775
"SM43"	TRUE	"patient.after.diet"	"N2"	14.7499991063782
"SM44"	FALSE	"control"	"N2"	14.1421247493354
"SM45"	FALSE	"patient.after.diet"	"N2"	1.00574542332375
"SM48"	FALSE	"control"	"N2"	23.9068998861129
"SM49"	TRUE	"patient.before.diet"	"N2"	9.48763268940016
"SM5"	TRUE	"patient.after.diet"	"N2"	9.94550271879459
"SM50"	FALSE	"patient.after.diet"	"N2"	10.4440882050432
"SM51"	TRUE	"patient.after.diet"	"N2"	9.39607402637801
"SM52"	FALSE	"patient.before.diet"	"N2"	17.1198287502178
"SM53"	TRUE	"patient.after.diet"	"N2"	9.48951205415637
"SM54"	TRUE	"patient.after.diet"	"N2"	6.82072028695621
"SM55"	FALSE	"control"	"N2"	9.40903561357086
"SM56"	TRUE	"patient.after.diet"	"N2"	2.2039021735675
"SM57"	TRUE	"patient.before.diet"	"N2"	5.11031460990387
"SM58"	FALSE	"patient.after.diet"	"N2"	4.10647361617197
"SM59"	FALSE	"patient.after.diet"	"N2"	20.4240506226984
"SM60"	TRUE	"patient.after.diet"	"N2"	7.37253630263227
"SM62"	TRUE	"patient.before.diet"	"N2"	3.2632134413659
"SM63"	FALSE	"control"	"N2"	25.7144152025154
"SM64"	TRUE	"patient.after.diet"	"N2"	6.29923051552874
"SM65"	TRUE	"patient.after.diet"	"N2"	25.7459173714513
"SM66"	FALSE	"control"	"N2"	20.5411435165759
"SM67"	TRUE	"patient.after.diet"	"N2"	9.28689312772552
"SM68"	FALSE	"patient.after.diet"	"N2"	11.1934748991176
"SM69"	TRUE	"patient.after.diet"	"N2"	17.7160959610274
"SM7"	FALSE	"control"	"N2"	24.8842226652288
"SM70"	FALSE	"control"	"N2"	19.0757026336509
"SM71"	TRUE	"patient.after.diet"	"N2"	10.224677831364
"SM72"	FALSE	"control"	"N2"	6.65318905811941
"SM73"	FALSE	"patient.before.diet"	"N2"	8.43108363949691
"SM74"	FALSE	"control"	"N2"	32.1687216641548
"SM75"	FALSE	"patient.after.diet"	"N2"	10.6791024989509
"SM76"	FALSE	"control"	"N2"	7.72864725697534
"SM77"	TRUE	"patient.after.diet"	"N2"	15.5594886726667
"SM79"	FALSE	"patient.after.diet"	"N2"	9.44283993025909
"SM8"	FALSE	"patient.before.diet"	"N2"	9.00796904758245
"SM81"	FALSE	"control"	"N2"	8.1568936027194
"SM82"	TRUE	"patient.after.diet"	"N2"	6.06421197195403
"SM83"	TRUE	"patient.before.diet"	"N2"	7.99696196943384
"SM84"	TRUE	"patient.before.diet"	"N2"	25.0366698674067
"SM86"	TRUE	"patient.after.diet"	"N2"	9.8578872524297
"SM87"	TRUE	"patient.before.diet"	"N2"	16.2673307235036
"SM88"	TRUE	"patient.after.diet"	"N2"	11.2644901645198
"SM89"	FALSE	"control"	"N2"	7.02011948258386
"SM9"	FALSE	"patient.after.diet"	"N2"	14.0553614742951
"SM90"	FALSE	"patient.after.diet"	"N2"	26.8070854869632
"SM91"	TRUE	"patient.after.diet"	"N2"	22.5478596537022
"SM92"	FALSE	"patient.after.diet"	"N2"	3.72075422206676
"SM93"	TRUE	"patient.before.diet"	"N2"	8.68662278184078
"SM95"	FALSE	"control"	"N2"	23.3738356330801
"SM96"	FALSE	"patient.before.diet"	"N2"	4.43839032689457
"SM98"	FALSE	"patient.after.diet"	"N2"	11.1828440591216
"SM99"	FALSE	"patient.after.diet"	"N2"	7.71594229024446
