"rownames"	"Df"	"SumsOfSqs"	"MeanSqs"	"F.Model"	"R2"	"Pr(>F)"
"Sample.type"	1	452.298153367375	452.298153367375	2.156582887667	0.0523994641040413	0.0129967508122969
"Residuals"	39	8179.43427178335	209.729083891881	NA	0.947600535895959	NA
"Total"	40	8631.73242515073	NA	NA	1	NA
