"feature"	"Sample.type"	"age.quant"	"mean"	"sd"	"median"	"incidence"
"S.obs"	"control"	"[3.18,6.27]"	25.079375	8.06155520950104	28.9175	1
"S.obs"	"control"	"(6.27,8.71]"	25.3575	0.565685424949239	25.3575	1
"S.obs"	"control"	"(8.71,15.3]"	28.2042857142857	2.66377931482607	28.4225	1
"S.obs"	"control"	"(15.3,26.4]"	28.786	3.54095882142111	28.795	1
"S.obs"	"patient"	"[3.18,6.27]"	21.364375	2.04941594830495	21.77375	1
"S.obs"	"patient"	"(6.27,8.71]"	22.4041666666667	3.5271906904315	21.95625	1
"S.obs"	"patient"	"(8.71,15.3]"	25.263125	7.96824200995217	28.83125	1
"S.obs"	"patient"	"(15.3,26.4]"	25.4591666666667	3.33360517120729	24.705	1
