"N1"	"N2"	"div.unb.simpson"	"S.obs"
4.99891906618539	2.43770996994684	0.590478777836222	34.775
10.6584676062313	4.58943449440131	0.781794226904212	52.565
7.96594809368193	3.96340548285838	0.748025665156514	44
9.44515513254469	7.59889716267088	0.868595600424972	19.33
13.3965037663093	8.87850311875947	0.887788310665401	41.82
4.33938501389198	2.13731821318033	0.531458850185203	36.34
6.11708305383842	3.24212232509196	0.69196210959486	34.93
2.76940225944032	1.50663526577942	0.336527343568132	34.415
3.68353129108164	2.04537769283161	0.510540585032201	38.375
1.91202088500998	1.33662249454482	0.252470513910457	23.7925
14.5583873973281	9.06653362123118	0.890207919571517	51.43
14.7060684604901	10.0225770579253	0.900411379002587	45.4625
6.05097191526941	2.77955813617727	0.640481055278956	42.1325
4.45263951055084	2.34373215109462	0.573100563499414	25.9
9.13721389650895	4.7930627910338	0.791410163884454	45.195
9.29416992199056	4.18586982831313	0.76172980383827	46.985
6.26586156101916	3.85918266122126	0.741165010681053	36.575
4.2805084048936	3.06026590787214	0.673641500477967	21.0075
1.99329111687387	1.32271322532657	0.243858777217783	27.4275
12.6048429086226	6.91813811577173	0.855772175392443	38.17
2.5039994938531	1.51059257418167	0.337393211395719	26.0275
5.72946618257331	2.51260911680645	0.601778122724831	39.025
13.4924980667451	6.96928149205557	0.85674606353991	48.57
2.56972302104479	1.49612515569235	0.331082003625701	30.5125
3.17620758766695	1.66047493667997	0.397061009875012	31.68
1.23588360118675	1.07475101387805	0.0697463478965585	17.1225
4.64177675297652	2.92802835763331	0.658854687216744	21.825
4.29534187978667	2.93065722630915	0.659289361516391	33.4375
7.57918053300972	3.44588755095071	0.710013156365666	44.15
1.57630955739821	1.15748642170836	0.136343353845149	25.8925
8.51276295450027	3.72215256987703	0.731785076758253	48.56
1.95561163655175	1.32140043135814	0.243745985703711	25.3125
4.56835750748002	2.35927970530451	0.575689908109845	33.4275
5.72641932341108	3.40004299589742	0.706574978038024	34.0075
2.55137319695863	1.48187633415038	0.324405178016381	28.39
2.30868533400398	1.35003470099499	0.258721381860472	38.8025
14.1857335403316	9.34321133420327	0.893388631819626	49.2675
3.14132392052962	1.66097992803352	0.397784547948093	34
7.52493836873934	4.36013543672404	0.770839855937137	29.52
8.33869226209125	4.19328028434805	0.761622836004295	43.3175
10.6703136412054	5.3474865992139	0.813348077518867	41.505
