"feature"	"Sample.type"	"age.quant"	"mean"	"sd"	"median"	"incidence"
"N1"	"control"	"[3.18,6.27]"	47.1982585787771	27.8430564544322	50.5304055568136	1
"N1"	"control"	"(6.27,8.71]"	35.5654455362565	22.2314728477566	35.5654455362565	1
"N1"	"control"	"(8.71,15.3]"	45.7034321436758	15.607988389401	46.6385463881689	1
"N1"	"control"	"(15.3,26.4]"	51.7802242098759	28.3874449201787	46.3487891993116	1
"N1"	"patient"	"[3.18,6.27]"	20.6277064812305	8.95567577261318	16.5271866639168	1
"N1"	"patient"	"(6.27,8.71]"	22.5802195921712	15.9674724658864	19.3050200202528	1
"N1"	"patient"	"(8.71,15.3]"	23.641659931838	15.2117445600996	21.959551734037	1
"N1"	"patient"	"(15.3,26.4]"	33.8478873045148	19.3314232958357	29.1689451574245	1
"N2"	"control"	"[3.18,6.27]"	18.8378374102811	9.4599173386264	18.8625062891951	1
"N2"	"control"	"(6.27,8.71]"	16.4191436332228	11.9929514153498	16.4191436332228	1
"N2"	"control"	"(8.71,15.3]"	18.2859184846139	7.10334653162933	20.5598007114294	1
"N2"	"control"	"(15.3,26.4]"	20.3245595997985	15.2891469396467	16.4226010541178	1
"N2"	"patient"	"[3.18,6.27]"	9.53606962245693	4.9406019477906	8.74638815466447	1
"N2"	"patient"	"(6.27,8.71]"	9.28921366737871	5.3271370342649	8.71786531002603	1
"N2"	"patient"	"(8.71,15.3]"	8.47060521123858	5.5820796548432	7.25743591356651	1
"N2"	"patient"	"(15.3,26.4]"	14.5298233240635	9.29579673568637	13.0109907291402	1
