"rownames"	"Df"	"SumsOfSqs"	"MeanSqs"	"F.Model"	"R2"	"Pr(>F)"
"age.quant"	3	0.334508593712443	0.111502864570814	1.230350485703	0.089526137820828	0.125718570357411
"Sample.type"	1	0.146542715878445	0.146542715878445	1.616988965721	0.039219929248365	0.0562359410147463
"age.quant:Sample.type"	3	0.264695599406109	0.088231866468703	0.973572474412	0.0708417516273709	0.513121719570107
"Residuals"	33	2.9906880792062	0.0906269114910968	NA	0.800412181303436	NA
"Total"	40	3.73643498820319	NA	NA	1	NA
