"feature"	"age.quant"	"mean"	"sd"	"median"	"incidence"
"Unclassified_Bacteria"	"[3.18,6.27]"	-0.0341130793211082	NA	-0.0341130793211082	0
"Unclassified_Bacteria"	"(6.27,8.71]"	-0.00193624087606394	0.0168695833095987	-0.00193624087606394	0.5
"Unclassified_Bacteria"	"(8.71,15.3]"	-0.00587372973652193	0.00691452361690222	-0.0046874105138178	0.25
"Unclassified_Bacteria"	"(15.3,26.4]"	-0.00531257298249591	0.0041869888343262	-0.00543233377667165	0
"Bacteroidetes"	"[3.18,6.27]"	-0.346822152858569	NA	-0.346822152858569	0
"Bacteroidetes"	"(6.27,8.71]"	0.502145113886272	0.145346073258254	0.502145113886272	1
"Bacteroidetes"	"(8.71,15.3]"	0.145200841938409	0.0975800008909983	0.123238712069432	1
"Bacteroidetes"	"(15.3,26.4]"	0.139882180682569	0.408539762790266	0.156343854119554	0.8
"Firmicutes"	"[3.18,6.27]"	0.3834973798981	NA	0.3834973798981	1
"Firmicutes"	"(6.27,8.71]"	-0.465722092879211	0.122674220157021	-0.465722092879211	0
"Firmicutes"	"(8.71,15.3]"	-0.148806767652055	0.0583625981875543	-0.146473549143311	0
"Firmicutes"	"(15.3,26.4]"	-0.13976125837009	0.355221303498706	-0.125532100619517	0.2
"Actinobacteria"	"[3.18,6.27]"	0.0073739535777977	NA	0.0073739535777977	1
"Actinobacteria"	"(6.27,8.71]"	-0.00569084905493972	0.00210734997097215	-0.00569084905493972	0
"Actinobacteria"	"(8.71,15.3]"	0.000764060055051682	0.00878078680414544	-0.0023152606517958	0.25
"Actinobacteria"	"(15.3,26.4]"	-0.00763081076342345	0.0171021570993405	-4.81884764561024e-05	0.4
"Proteobacteria"	"[3.18,6.27]"	-0.00993610129621963	NA	-0.00993610129621963	0
"Proteobacteria"	"(6.27,8.71]"	-0.0276483543666526	0.0365708850906407	-0.0276483543666526	0
"Proteobacteria"	"(8.71,15.3]"	-0.00956399806572127	0.0489517661099967	-0.00534921420250298	0.375
"Proteobacteria"	"(15.3,26.4]"	0.0157998683764388	0.0510856758057563	0.0020713991130078	0.6
"Verrucomicrobia"	"[3.18,6.27]"	0	NA	0	0
"Verrucomicrobia"	"(6.27,8.71]"	-0.00119866758932394	0.00131531336305665	-0.00119866758932394	0
"Verrucomicrobia"	"(8.71,15.3]"	0.0198716095742371	0.0558431204352353	4.42634560906516e-05	0.5
"Verrucomicrobia"	"(15.3,26.4]"	0	0	0	0
