".record.id"	"age.quant"	"feature"	"l2fc"
"MG1.patient"	"(15.3,26.4]"	"Bacteroidetes"	1.93485954201686
"MG10.patient"	"(8.71,15.3]"	"Bacteroidetes"	0.504735857159302
"MG13.patient"	"(15.3,26.4]"	"Bacteroidetes"	0.0767287909924403
"MG14.patient"	"(15.3,26.4]"	"Bacteroidetes"	0.711242276449748
"MG16.patient"	"(15.3,26.4]"	"Bacteroidetes"	0.464434295455883
"MG17.patient"	"(15.3,26.4]"	"Bacteroidetes"	-2.52002180330453
"MG19.patient"	"(6.27,8.71]"	"Bacteroidetes"	0.840329839227553
"MG2.patient"	"(8.71,15.3]"	"Bacteroidetes"	-2.67536073337304
"MG21.patient"	"(15.3,26.4]"	"Bacteroidetes"	0.29977691787863
"MG22.patient"	"(8.71,15.3]"	"Bacteroidetes"	0.0488950278236566
"MG23.patient"	"(6.27,8.71]"	"Bacteroidetes"	1.90641264934801
"MG25.patient"	"[3.18,6.27]"	"Bacteroidetes"	0.139833094913915
"MG3.patient"	"(6.27,8.71]"	"Bacteroidetes"	0.17653257339347
"MG4.patient"	"(6.27,8.71]"	"Bacteroidetes"	0.195576580426659
"MG6.patient"	"(8.71,15.3]"	"Bacteroidetes"	0.294510198606345
"MG8.patient"	"[3.18,6.27]"	"Bacteroidetes"	0.528548135792214
"MG1.patient"	"(15.3,26.4]"	"Firmicutes"	-2.75737900060974
"MG10.patient"	"(8.71,15.3]"	"Firmicutes"	-2.70311137638673
"MG13.patient"	"(15.3,26.4]"	"Firmicutes"	-0.788768415379884
"MG14.patient"	"(15.3,26.4]"	"Firmicutes"	-1.38210504751306
"MG16.patient"	"(15.3,26.4]"	"Firmicutes"	-0.383316999428426
"MG17.patient"	"(15.3,26.4]"	"Firmicutes"	0.993939137313564
"MG19.patient"	"(6.27,8.71]"	"Firmicutes"	-2.36772661515498
"MG2.patient"	"(8.71,15.3]"	"Firmicutes"	0.802910889619985
"MG21.patient"	"(15.3,26.4]"	"Firmicutes"	-1.54722011970124
"MG22.patient"	"(8.71,15.3]"	"Firmicutes"	-0.84102672817541
"MG23.patient"	"(6.27,8.71]"	"Firmicutes"	-2.35182177071289
"MG25.patient"	"[3.18,6.27]"	"Firmicutes"	-1.46540519982094
"MG3.patient"	"(6.27,8.71]"	"Firmicutes"	-1.31245626720289
"MG4.patient"	"(6.27,8.71]"	"Firmicutes"	-0.273876899581783
"MG6.patient"	"(8.71,15.3]"	"Firmicutes"	-0.774672694898691
"MG8.patient"	"[3.18,6.27]"	"Firmicutes"	-2.40175541309362
"MG1.patient"	"(15.3,26.4]"	"Proteobacteria"	-1.30262133869678
"MG10.patient"	"(8.71,15.3]"	"Proteobacteria"	-42.3111756470746
"MG13.patient"	"(15.3,26.4]"	"Proteobacteria"	0.212629018444291
"MG14.patient"	"(15.3,26.4]"	"Proteobacteria"	0.814657582102685
"MG16.patient"	"(15.3,26.4]"	"Proteobacteria"	-1.64529758607447
"MG17.patient"	"(15.3,26.4]"	"Proteobacteria"	1.53855181202767
"MG19.patient"	"(6.27,8.71]"	"Proteobacteria"	-2.5775809830558
"MG2.patient"	"(8.71,15.3]"	"Proteobacteria"	-1.34687326604803
"MG21.patient"	"(15.3,26.4]"	"Proteobacteria"	0.743829409577556
"MG22.patient"	"(8.71,15.3]"	"Proteobacteria"	-0.313038102933885
"MG23.patient"	"(6.27,8.71]"	"Proteobacteria"	-2.57923625048089
"MG25.patient"	"[3.18,6.27]"	"Proteobacteria"	2.44796572836436
"MG3.patient"	"(6.27,8.71]"	"Proteobacteria"	-2.77042398258649
"MG4.patient"	"(6.27,8.71]"	"Proteobacteria"	1.19169333371269
"MG6.patient"	"(8.71,15.3]"	"Proteobacteria"	-1.17430381841662
"MG8.patient"	"[3.18,6.27]"	"Proteobacteria"	-2.15169504402408
"MG1.patient"	"(15.3,26.4]"	"Actinobacteria"	-7.6898570546061
"MG10.patient"	"(8.71,15.3]"	"Actinobacteria"	-2.76451192098381
"MG13.patient"	"(15.3,26.4]"	"Actinobacteria"	34.1556830356928
"MG14.patient"	"(15.3,26.4]"	"Actinobacteria"	0.969167531115129
"MG16.patient"	"(15.3,26.4]"	"Actinobacteria"	-0.0507762569293035
"MG17.patient"	"(15.3,26.4]"	"Actinobacteria"	-0.396680357644387
"MG19.patient"	"(6.27,8.71]"	"Actinobacteria"	-1.96989840589207
"MG2.patient"	"(8.71,15.3]"	"Actinobacteria"	0.504447824095927
"MG21.patient"	"(15.3,26.4]"	"Actinobacteria"	-4.06578031102335
"MG22.patient"	"(8.71,15.3]"	"Actinobacteria"	4.91743790538106
"MG23.patient"	"(6.27,8.71]"	"Actinobacteria"	-3.41731768813408
"MG25.patient"	"[3.18,6.27]"	"Actinobacteria"	-36.6829742355751
"MG3.patient"	"(6.27,8.71]"	"Actinobacteria"	-35.7917457583035
"MG4.patient"	"(6.27,8.71]"	"Actinobacteria"	1.63756022476226
"MG6.patient"	"(8.71,15.3]"	"Actinobacteria"	-1.84018631449912
"MG8.patient"	"[3.18,6.27]"	"Actinobacteria"	-3.07452718348217
"MG1.patient"	"(15.3,26.4]"	"Unclassified_Bacteria"	-2.08342379999051
"MG10.patient"	"(8.71,15.3]"	"Unclassified_Bacteria"	-39.160074519926
"MG13.patient"	"(15.3,26.4]"	"Unclassified_Bacteria"	-0.336285686823262
"MG14.patient"	"(15.3,26.4]"	"Unclassified_Bacteria"	-2.86270971000034
"MG16.patient"	"(15.3,26.4]"	"Unclassified_Bacteria"	-0.565349429757679
"MG17.patient"	"(15.3,26.4]"	"Unclassified_Bacteria"	-1.49260477764032
"MG19.patient"	"(6.27,8.71]"	"Unclassified_Bacteria"	-2.7009633986244
"MG2.patient"	"(8.71,15.3]"	"Unclassified_Bacteria"	-2.80862726423209
"MG21.patient"	"(15.3,26.4]"	"Unclassified_Bacteria"	-3.4940173081417
"MG22.patient"	"(8.71,15.3]"	"Unclassified_Bacteria"	-1.14865128503046
"MG23.patient"	"(6.27,8.71]"	"Unclassified_Bacteria"	0.88036286046622
"MG25.patient"	"[3.18,6.27]"	"Unclassified_Bacteria"	-0.898084090843081
"MG3.patient"	"(6.27,8.71]"	"Unclassified_Bacteria"	0.0874076110735036
"MG4.patient"	"(6.27,8.71]"	"Unclassified_Bacteria"	-1.28961738497923
"MG6.patient"	"(8.71,15.3]"	"Unclassified_Bacteria"	0.713067326466293
"MG8.patient"	"[3.18,6.27]"	"Unclassified_Bacteria"	-1.04651280733465
"MG1.patient"	"(15.3,26.4]"	"Verrucomicrobia"	0
"MG10.patient"	"(8.71,15.3]"	"Verrucomicrobia"	35.0736345040243
"MG13.patient"	"(15.3,26.4]"	"Verrucomicrobia"	0
"MG14.patient"	"(15.3,26.4]"	"Verrucomicrobia"	0
"MG16.patient"	"(15.3,26.4]"	"Verrucomicrobia"	0
"MG17.patient"	"(15.3,26.4]"	"Verrucomicrobia"	0
"MG19.patient"	"(6.27,8.71]"	"Verrucomicrobia"	-33.493893909493
"MG2.patient"	"(8.71,15.3]"	"Verrucomicrobia"	0
"MG21.patient"	"(15.3,26.4]"	"Verrucomicrobia"	-6.23570531224346
"MG22.patient"	"(8.71,15.3]"	"Verrucomicrobia"	3.32410171210015
"MG23.patient"	"(6.27,8.71]"	"Verrucomicrobia"	-0.39939578017481
"MG25.patient"	"[3.18,6.27]"	"Verrucomicrobia"	-34.0200092229225
"MG3.patient"	"(6.27,8.71]"	"Verrucomicrobia"	31.892619437316
"MG4.patient"	"(6.27,8.71]"	"Verrucomicrobia"	0
"MG6.patient"	"(8.71,15.3]"	"Verrucomicrobia"	0.439921604667382
"MG8.patient"	"[3.18,6.27]"	"Verrucomicrobia"	0
