"feature"	"age.quant"	"mean"	"sd"	"median"	"incidence"
"Unclassified_Bacteria"	"[3.18,6.27]"	-0.972298449088865	0.104954951954003	-0.972298449088865	0
"Unclassified_Bacteria"	"(6.27,8.71]"	-0.755702578015978	1.57656267358572	-0.601104886952864	0.5
"Unclassified_Bacteria"	"(8.71,15.3]"	-10.6010714356806	19.0936012489753	-1.97863927463128	0.25
"Unclassified_Bacteria"	"(15.3,26.4]"	-1.8057317853923	1.25223735307319	-1.78801428881542	0
"Bacteroidetes"	"[3.18,6.27]"	0.334190615353065	0.274863041354252	0.334190615353065	1
"Bacteroidetes"	"(6.27,8.71]"	0.779712910598922	0.812028013628436	0.517953209827106	1
"Bacteroidetes"	"(8.71,15.3]"	-0.456804912445934	1.49072213013992	0.171702613215001	0.75
"Bacteroidetes"	"(15.3,26.4]"	0.161170003248173	1.46667344799357	0.382105606667256	0.833333333333333
"Firmicutes"	"[3.18,6.27]"	-1.93358030645728	0.662099585370585	-1.93358030645728	0
"Firmicutes"	"(6.27,8.71]"	-1.57647038816313	0.998951022445733	-1.83213901895789	0
"Firmicutes"	"(8.71,15.3]"	-0.878974977460212	1.43393778427844	-0.80784971153705	0.25
"Firmicutes"	"(15.3,26.4]"	-0.977475074219797	1.25948408752809	-1.08543673144647	0.166666666666667
"Actinobacteria"	"[3.18,6.27]"	-19.8787507095287	23.764760815684	-19.8787507095287	0
"Actinobacteria"	"(6.27,8.71]"	-9.88535040689185	17.401231921522	-2.69360804701307	0.25
"Actinobacteria"	"(8.71,15.3]"	0.204296873498512	3.43013732202079	-0.667869245201596	0.5
"Actinobacteria"	"(15.3,26.4]"	3.82029276443414	15.2039899572076	-0.223728307286845	0.333333333333333
"Proteobacteria"	"[3.18,6.27]"	0.148135342170141	3.25245132331362	0.148135342170141	0.5
"Proteobacteria"	"(6.27,8.71]"	-1.68388697060262	1.91918941968132	-2.57840861676834	0.25
"Proteobacteria"	"(8.71,15.3]"	-11.2863477086183	20.6881613178882	-1.26058854223233	0
"Proteobacteria"	"(15.3,26.4]"	0.0602914828968268	1.26580551947915	0.478229214010923	0.666666666666667
"Verrucomicrobia"	"[3.18,6.27]"	-17.0100046114612	24.0557792175574	-17.0100046114612	0
"Verrucomicrobia"	"(6.27,8.71]"	-0.500167563087969	26.6966848779544	-0.199697890087405	0.25
"Verrucomicrobia"	"(8.71,15.3]"	9.70941445519797	16.9736276252436	1.88201165838376	0.75
"Verrucomicrobia"	"(15.3,26.4]"	-1.03928421870724	2.54571603355982	0	0
