"feature"	"mean"	"sd"	"median"	"incidence"
"Unclassified_Bacteria"	-3.63788022908236	9.55868945751357	-1.21913433500485	0.1875
"Bacteroidetes"	0.182939577675445	1.22709340944382	0.297143558242487	0.875
"Firmicutes"	-1.22211203254542	1.15113937837906	-1.34728065735797	0.125
"Actinobacteria"	-3.47249743537661	15.7909036640355	-1.9050423601956	0.3125
"Proteobacteria"	-3.20143244594765	10.5533158797495	-1.2384625785567	0.375
"Verrucomicrobia"	-0.213670435420371	17.4662669331579	0	0.25
