"name"	"statistic"	"pval"	"pval.adjusted"	"common.lang.eff.size"	"rank.biserial.corr.eff.size"	"r.eff.size"	"l2fc.patient.by.control"	"mean.control"	"mean.patient"	"l2fc.paired.median"	"median.paired.control"	"median.paired.patient"
"Lachnospiracea_incertae_sedis.Otu0113"	3	0.000152587890625	0.0046539306640625	0.0625	-0.875	0.946704861980343	-2.40225275948581	0.00462820524692836	0.000875512745027947	-3.47521144629686	0.00431449672138875	0.000476702150229935
"Unclassified_Lachnospiraceae.Otu2512"	7	0.000579833984375	0.00785997178819444	0.125	-0.75	0.860219024359932	-3.83918208241382	0.00808853649619994	0.000565146423827584	-6.40056101729031	0.00610450660542155	0.000120867348859803
"Unclassified_Lachnospiraceae.Otu2222"	0	6.103515625e-05	0.00372314453125	0.03125	-0.9375	1.03506063306318	-2.77646120619005	0.00618022298517545	0.000901998966738956	-34.250104824066	0.00266929811509561	0
"Lachnospiracea_incertae_sedis.Otu2549"	0	6.103515625e-05	0.00372314453125	0.03125	-0.9375	1.03506063306318	-2.93601411575065	0.00334613425575294	0.000437235127054337	-19.0345834741436	0.00181950821452423	0
"Lachnospiracea_incertae_sedis.Otu1990"	14	0.00335693359375	0.0341288248697917	0.125	-0.75	0.733252435281608	-2.43270091024043	0.00353838598041032	0.000655374080147757	-36.0494328164923	0.00374404580586004	0
"Lachnospiracea_incertae_sedis.Otu2746"	16	0.005157470703125	0.04840087890625	0.125	-0.75	0.699257558158955	-2.53677624895614	0.00306131649639622	0.000527548616629673	-36.1713226595673	0.00219674006114857	0
"Unclassified_Lachnospiraceae.Otu0272"	1	0.000244140625	0.00496419270833333	0.125	-0.75	0.980402240485241	-2.3597675892837	0.00352367088388186	0.000686490466935162	-2.68672801642529	0.000610531408853518	0
"Ruminococcus.Otu1027"	0	0.0001220703125	0.0046539306640625	0.0625	-0.875	1.02679916634869	-6.80497044819234	0.00311983929303296	2.79017857142857e-05	-35.8384882711383	0.00136498569208648	0
"Gemmiger.Otu0907"	4	0.0008544921875	0.0104248046875	0.1875	-0.625	0.891185813661157	-1.44577307733988	0.00559371584460217	0.00205342732859329	-2.1340335788987	0.00492762045055599	0.000712524134762487
"Unclassified_Lachnospiraceae.Otu0220"	24	0.021392822265625	0.12428211030506	0.1875	-0.625	0.575244731620866	-1.67512185083112	0.00619707930237471	0.00194055130938255	-4.85158006180832	0.00459763417839867	0.000153207785538304
"Ruminococcus.Otu2545"	0	0.000244140625	0.00496419270833333	0.09375	-0.8125	1.01741148713778	-3.16025835795671	0.00203681987643202	0.000227834802466132	-32.5697157931869	0.000731027502218277	0
"Blautia.Otu2495"	16	0.01025390625	0.08935546875	0.21875	-0.5625	0.662834566564785	-2.13820540670282	0.00431059690556234	0.000979204607936387	-2.86598522922779	0.00209929473409749	0.000284553860046373
"Bacteroides.Otu2375"	103	0.012451171875	0.094940185546875	0.78125	0.5625	0.64526297320241	1.35935381735567	0.00134325801754907	0.00344640026634392	1.7126529227	0.000829158345887491	0.00310480931742789
"Blautia.Otu2475"	30	0.0506591796875	0.213117928340517	0.125	-0.75	0.488588895764675	-1.49902269231024	0.0188204455588256	0.00665854142863901	-0.95795278750584	0.00616984700017191	0.0018280281882905
"Ruminococcus.Otu1859"	0	0.00048828125	0.0074462890625	0.125	-0.75	1.00664024660136	-3.93937664598927	0.0326307909943573	0.00212694895279291	-4.60023338163394	0.00508857206946855	0
"Bacteroides.Otu0001"	107	0.0443115234375	0.207923302283654	0.6875	0.375	0.502782982277313	1.28467837982269	0.0500195273761099	0.121861441464458	0.749720044682947	0.0412399606399276	0.0971528196694996
"Unclassified_Lachnospiraceae.Otu2612"	18	0.01507568359375	0.100328947368421	0.28125	-0.4375	0.627566814476465	-1.98979795618058	0.0024870849100683	0.000626183676857793	-35.790833714296	0.00186747669636111	0
"Bacteroides.Otu1201"	108	0.03863525390625	0.204934825067935	0.75	0.5	0.517012680156087	1.4089690509764	0.00444188248313913	0.011795300559287	1.35925448540921	0.00288786857697747	0.00593014195853367
"Roseburia.Otu2637"	17	0.012451171875	0.094940185546875	0.34375	-0.3125	0.64526297320241	-1.60479018254115	0.00168687187336241	0.000554615643635132	-18.8364863175247	0.00091404926618501	0
"Ruminococcus.Otu1915"	0	0.00048828125	0.0074462890625	0.125	-0.75	1.00664024660136	-3.4081375871532	0.0021194203447096	0.000199648226111207	-32.385739223025	0.000697678147220805	0
"Bacteroides.Otu0863"	107	0.0443115234375	0.207923302283654	0.625	0.25	0.502782982277313	1.90890338285998	0.0104646229504603	0.039297123525498	2.03905027145692	0.00744412728510089	0.0138408095606531
"Bacteroides.Otu2038"	103	0.07391357421875	0.257601351351351	0.75	0.5	0.446786995358712	1.41556224356758	0.0128039628084638	0.0341563220725482	1.98795630397004	0.00241943426248226	0.00441451991826273
"Lachnospiracea_incertae_sedis.Otu1152"	29	0.0443115234375	0.207923302283654	0.3125	-0.375	0.502782982277313	-1.62870751388367	0.00455829786961229	0.00147405227583867	-34.8616886045396	0.00186937075069306	0
"Blautia.Otu0591"	23	0.03533935546875	0.195972789417614	0.21875	-0.5625	0.543366227840332	-0.674633536141464	0.0020898004224385	0.00130924185923434	-0.519565644856725	0.00135691354349974	0.000574289205751178
"Bacteroides.Otu0006"	95	0.04791259765625	0.208762032645089	0.78125	0.5625	0.510754278697225	1.10233764741835	0.00508855690180633	0.0109252487145097	1.1425217823399	0.00412683367814879	0.00726455987505765
"Bacteroides.Otu0848"	103	0.07391357421875	0.257601351351351	0.6875	0.375	0.446786995358712	1.25542757788395	0.0108943885413816	0.0260090337595353	0.899322699068056	0.00150416485159979	0.0083988108139217
"Unclassified_Lachnospiraceae.Otu0578"	0	0.0009765625	0.0108309659090909	0.15625	-0.6875	0.994141198992439	-2.22067074388034	0.00274281878435678	0.00058844870399717	-4.35732724923711	0.00112467945153503	0
"Roseburia.Otu1051"	33	0.07391357421875	0.257601351351351	0.25	-0.5	0.446786995358712	-0.0233781366386078	0.00258793564124699	0.00254633741459465	-1.47197392749999	0.00183982615723607	0.00090964006693268
"Unclassified_Lachnospiraceae.Otu0898"	95	0.04791259765625	0.208762032645089	0.78125	0.5625	0.510754278697225	-1.96688709068793	0.00557423129470502	0.00142591281716675	17.9958096370027	0	0.000466663294212869
"Coprococcus.Otu0802"	12	0.01708984375	0.104248046875	0.28125	-0.4375	0.66141594523857	-3.22353910038865	0.0033914304619242	0.000363078853403926	-2.36476268899519	0.00034719308265302	0
"Bacteroides.Otu0069"	91	0.083251953125	0.260429186698718	0.71875	0.4375	0.447231817437426	1.3348740525144	0.00603317382782702	0.0152188896706828	0.415169037404334	0.00487709237613754	0.0107804323358856
"Bacteroides.Otu2460"	100	0.104583740234375	0.303267045454545	0.6875	0.375	0.405756624833015	1.97637249059707	0.00074556288464465	0.0029338079579265	2.73392670072462	0.000275993186799997	0.00070053639909163
"Bacteroides.Otu2654"	98	0.129730224609375	0.323001783721301	0.5625	0.125	0.37879164453564	3.14008570280304	0.00532565178131188	0.0469496924931481	1.89645146604235	0.000766806521360165	0.008270465224009
"Oscillibacter.Otu1518"	6	0.013671875	0.0981158088235294	0.21875	-0.5625	0.743457898182167	-2.67664239690718	0.00264262688590329	0.000413319789964577	-2.64264737488377	0.000477382641581545	0
"Bacteroides.Otu2765"	88	0.12054443359375	0.323001783721301	0.59375	0.1875	0.400851831519948	1.54243936937926	0.00475749822881148	0.0138579551661012	1.18141891935371	0.00136247545071268	0.00583072426193002
"Bacteroides.Otu2104"	87	0.1353759765625	0.323840571384804	0.65625	0.3125	0.385551329851781	1.39602528940581	0.00244429512191045	0.00643278635447199	0.877277131869964	0.000692955986555193	0.00292269967446255
"Lachnospiracea_incertae_sedis.Otu0651"	28	0.13525390625	0.323840571384804	0.25	-0.5	0.399208262483405	-1.81299332795741	0.00231237574156674	0.00065810172781532	-2.15216221797495	0.00043416388446103	4.32937916702745e-05
"Erysipelotrichaceae_incertae_sedis.Otu0818"	71	0.080322265625	0.257876747532895	0.65625	0.3125	0.485035194719819	5.39877584044027	0.00065096411385305	0.0274631605256469	2.924901736431	7.07664001132262e-05	0.000847014059133123
"Dorea.Otu1142"	46	0.274444580078125	0.540036109185988	0.3125	-0.375	0.273221087692653	-0.33350170808159	0.00625614141592555	0.00496492324998068	-2.00188078790193	0.00398910209903713	0.000712795032632081
"Ruminococcus.Otu1429"	17	0.09228515625	0.278963414634146	0.25	-0.5	0.485974415498503	-1.55710960925854	0.00257100337329898	0.00087370726618936	-19.0871462526106	0.00173542827590096	0
"Faecalibacterium.Otu0751"	47	0.2978515625	0.568323692908654	0.375	-0.25	0.26026292060949	-0.280681356239418	0.00681991023056902	0.00561416471966248	-0.185844419064652	0.00437491040011518	0.00279284541990041
"Bacteroides.Otu2437"	41	0.30279541015625	0.568323692908654	0.34375	-0.3125	0.266062918007642	-1.36175505967435	0.0109888342855082	0.00427585042355211	-2.84538003819278	0.0019766726082635	3.03526983548837e-05
"Clostridium_IV.Otu1864"	19	0.12939453125	0.323001783721301	0.3125	-0.375	0.437774058252481	-1.63353697195985	0.00536601069482754	0.00172944958446877	-0.880360942037329	0.000535223885696754	0
"Unclassified_Ruminococcaceae.Otu2507"	21	0.17626953125	0.405752505896226	0.3125	-0.375	0.390384261630176	-2.63192647830757	0.00260353241041215	0.000420024063393715	-3.49422587102193	0.000178128415654503	0
"Faecalibacterium.Otu0067"	54	0.49542236328125	0.774891388721955	0.375	-0.25	0.170427491965498	-0.433344872409994	0.0256566175232895	0.0189998247403519	-0.546622736551191	0.0204006823386747	0.00878118992919011
"Bacteroides.Otu0929"	82	0.49542236328125	0.774891388721955	0.5	0	0.170427491965498	0.901544465047394	0.00769931519668504	0.0143828193489932	-0.334403805617756	0.00458295158592304	0.00545233964548113
"Bacteroides.Otu0877"	79	0.30279541015625	0.568323692908654	0.59375	0.1875	0.266062918007642	1.14219629787226	0.00232304835341336	0.00512735746361356	1.44054126931045	0.00101910676351296	0.00324352868627342
"Parabacteroides.Otu1378"	78	0.33026123046875	0.610482880563447	0.46875	-0.0625	0.251379297258001	1.73579053010167	0.00158386064746817	0.00527523710106789	-0.87375299228219	0.000325027822350207	0.000630872466983534
"Bacteroides.Otu1411"	34	0.267578125	0.540036109185988	0.375	-0.25	0.296301079811013	-0.343472456445754	0.00220427980194362	0.00173728555686016	-0.243821478601812	0.000217289138958807	3.03526983548837e-05
"Lachnospiracea_incertae_sedis.Otu0778"	29	0.2734375	0.540036109185988	0.34375	-0.3125	0.303748461494408	-0.194912946625427	0.00217400939410263	0.00189927028218938	-1.86706622308704	0.00164186898737245	2.21317280453258e-05
"Bacteroides.Otu1669"	43	0.359130859375	0.635416666666667	0.34375	-0.3125	0.236774186712643	-0.159319099501288	0.00164875982207206	0.00147637800994382	-0.795454999795278	0.000789133333610081	0.000444166593779279
"Clostridium_XI.Otu1804"	60	0.705718994140625	0.946128761375343	0.3125	-0.375	0.0944029511340575	0.7980513797588	0.00794142990314752	0.0138081695230084	-1.82078467134899	0.00690320049864149	0.00166768232437758
"Bacteroides.Otu2431"	61	0.743560791015625	0.948311237373737	0.4375	-0.125	0.0817853993496118	-0.33405508850919	0.0168031952699355	0.0133300344717055	-0.00377614965884465	0.0132696338472675	0.0152444915937907
"Unclassified_Lachnospiraceae.Otu0875"	56	0.5618896484375	0.836855233433735	0.4375	-0.125	0.145009256788627	0.383454133104989	0.00180101369276362	0.00234935264564253	-1.52701784409184	0.00171310011694568	0.000830362396404098
"Clostridium_XI.Otu2681"	38	0.3909912109375	0.662512885199653	0.3125	-0.375	0.229262354712031	2.67586532702191	0.0011084805978314	0.00708343354279678	-16.86938159133	0.000372227533926481	0
"Parabacteroides.Otu1736"	37	0.3575439453125	0.635416666666667	0.4375	-0.125	0.245895079341144	-0.583302143768854	0.00448497261592414	0.0029934248103263	-0.648170555152626	0.00389978894393941	0.000157453279200629
"Bacteroides.Otu2120"	67	0.3909912109375	0.662512885199653	0.5625	0.125	0.229262354712031	0.85329316389169	0.00166444230113333	0.00300701491410976	0.037498554503153	0.000856550058472839	0.00120528505651988
"Bacteroides.Otu0752"	82	0.49542236328125	0.774891388721955	0.625	0.25	0.170427491965498	0.229409344642152	0.00144512423093233	0.00169419843837209	1.10731782872019	0.000741173427982842	0.000687404142857859
"Unclassified_Clostridiales.Otu1597"	0	0.015625	0.100328947368421	0.28125	-0.4375	0.913751419540536	-4.31358353217763	0.00566426671960199	0.000284856191346111	0	0	0
"Unclassified_Lachnospiraceae.Otu1734"	59	0.668548583984375	0.937504910874641	0.3125	-0.375	0.107035210242973	0.901255116235407	0.00117989615194708	0.00220368039749396	-1.60947612743937	0.00100384277012568	0.00025199062669973
"Unclassified_Lachnospiraceae.Otu2599"	72	0.860260009765625	0.990110577277417	0.375	-0.25	0.0440107980696929	1.15267867682056	0.00144884366695069	0.00322116064105939	-0.479147992143016	0.000846197800575767	0.000466035872553356
"Bacteroides.Otu2520"	59	0.97796630859375	1	0.40625	-0.1875	0.0071311041823575	0.157531130002008	0.0475365696724749	0.0530211855627756	-0.777413311962304	0.0230738445194736	0.0149935302804381
"Clostridium_XlVa.Otu0236"	67	0.979949951171875	1	0.5	0	0.00628291373135269	-0.719243381550283	0.006075294380557	0.00369023050543688	-0.0523403228395596	0.00208457415128052	0.00210827481431997
"Bacteroides.Otu2625"	62	0.93408203125	1	0.46875	-0.0625	0.0213556632981995	1.95919577882878	0.0059411616390482	0.0231019194383324	-1.21288822341163	0.000925450461282413	0.000502031691320234
"Roseburia.Otu2084"	60	0.705718994140625	0.946128761375343	0.5	0	0.0944029511340575	-0.185742780951259	0.00208959908186993	0.00183716778006414	-0.162034234106402	0.0017017117203698	0.00101002750128252
"Unclassified_Lachnospiraceae.Otu0790"	52	0.67877197265625	0.941024780273438	0.40625	-0.1875	0.106930349773938	-0.199759780716794	0.00191962494958006	0.00167140885981403	-1.43919931031989	0.000940131584773003	0.000564035628238817
"Bacteroides.Otu2343"	47	0.240234375	0.516949152542373	0.59375	0.1875	0.354095277239176	1.7524213213273	0.000716496114404803	0.00241404422634704	0	3.66300366300366e-05	0.000348964716388283
"Prevotella.Otu1987"	3	0.078125	0.257601351351351	0.34375	-0.3125	0.665848828268825	-1.88320389537629	0.0577761758366136	0.0156620257032706	0	0	0
"Blautia.Otu0620"	54	0.76153564453125	0.948311237373737	0.40625	-0.1875	0.0783542827197901	0.0125699268600869	0.00137195938998483	0.00138396523698178	-0.153519028543591	0.00100881847797226	0.000544298825307566
"Escherichia_Shigella.Otu2393"	31	0.5693359375	0.836855233433735	0.3125	-0.375	0.16426474529464	-0.245312923346189	0.00990262814634581	0.00835418181835406	-1.75029714281284	0.000385347168383839	0
"Bacteroides.Otu0661"	55	0.9031982421875	1	0.4375	-0.125	0.0325048964243322	0.55911722299103	0.00723747360700434	0.0106634576431171	-0.234432303853731	0.0044187268787547	0.00496162413391046
"Bacteroides.Otu2383"	61	0.625732421875	0.898110064338235	0.5	0	0.130354599248869	0.647408447823867	0.00109491634799489	0.00171502439688398	0	0.000468600074383615	0.000283368713365411
"Alistipes.Otu2508"	40	0.7353515625	0.948311237373737	0.46875	-0.0625	0.0937486117502237	0.119685902347246	0.0202712383397744	0.0220246657683997	0	0.0111554381509021	0.000599502606360222
"Prevotella.Otu1803"	6	0.109375	0.303267045454545	0.375	-0.25	0.566042041839682	-1.89147368887478	0.00655038403778134	0.00176553546698714	0	0	0
"Enterococcus.Otu1019"	25	0.078125	0.257601351351351	0.65625	0.3125	0.665848828268825	0.54022722411794	0.00332808401369743	0.00483970488356701	0	0	0
"Bacteroides.Otu1565"	31	0.5693359375	0.836855233433735	0.375	-0.25	0.16426474529464	-2.00646919402123	0.00638280294105821	0.00158856146643205	-0.18778218263076	0.000107396436743263	0
"Bacteroides.Otu0775"	38	0.635498046875	0.901520485101744	0.46875	-0.0625	0.131464670059464	-0.132168680028073	0.00156723969604005	0.0014300416485144	0	0.000270810023090864	0.000134351886734926
"Prevotella.Otu2602"	4	0.109375	0.303267045454545	0.34375	-0.3125	0.605124396306872	-1.99327095072104	0.00817195121620406	0.00205253900891582	0	0	0
"Prevotella.Otu0634"	23	0.4130859375	0.690362799657534	0.34375	-0.3125	0.246779536854775	-0.750930491111631	0.00419549042026416	0.00249304507817931	-1.89516395524197	0.000423686856571204	0
"Alistipes.Otu1466"	34	0.9658203125	1	0.53125	0.0625	0.0129200613694106	-0.427242416142724	0.0162689704843501	0.0120989390402456	0	0.000366300366300366	0.00284134125262484
"Bacteroides.Otu2481"	0	0.0625	0.23828125	0.34375	-0.3125	0.833039015881987	-52	0.0152022245042111	0	0	0	0
"Unclassified_Bacteroidales.Otu1168"	31	0.359375	0.635416666666667	0.53125	0.0625	0.305518889177704	3.59943542110122	0.000402283983098836	0.0048760794208382	0	0	0
"Unclassified_Ruminococcaceae.Otu0064"	1	0.0625	0.23828125	0.375	-0.25	0.760457100467448	-6.91070949082838	0.00383276900195581	3.18553071843334e-05	0	0	0
"Prevotella.Otu1563"	2	0.09375	0.278963414634146	0.375	-0.25	0.684199526742739	-1.67362362018646	0.00339576647339461	0.00106445401660152	0	0	0
"Parabacteroides.Otu1107"	41	0.90966796875	1	0.375	-0.25	0.0327523178593886	1.9876053970342	0.000945508131117307	0.00374967918593894	-0.399986702230008	0.000420146673202733	0
"Prevotella.Otu1319"	3	0.15625	0.366586538461538	0.375	-0.25	0.578813257811534	-2.71933258475076	0.00516690843418396	0.000784567093747941	0	0	0
"Prevotella.Otu1994"	1	0.125	0.323001783721301	0.40625	-0.1875	0.686079564570255	-2.45299846906408	0.0264586621413298	0.00483216507589518	0	0	0
"Sutterella.Otu1997"	24	0.76953125	0.948311237373737	0.375	-0.25	0.0926509713383716	0.843187192113828	0.00268698727291048	0.00482047956524698	0	0.000839394601824126	0
"Bacteroides.Otu2534"	15	0.0625	0.23828125	0.65625	0.3125	0.833039015881987	10.2572025091555	3.83036097321812e-06	0.00468775958718552	0	0	0
"Alistipes.Otu0529"	24	0.76953125	0.948311237373737	0.4375	-0.125	0.0926509713383716	-0.247644952300429	0.00254201731844354	0.00214106546333899	0	0.000387681949396053	0
"Bifidobacterium.Otu1244"	13	0.546875	0.833984375	0.375	-0.25	0.212998046827346	-4.25603642116162	0.0103324463257369	0.000540764947157453	0	0	0
"Bacteroides.Otu0480"	13	0.546875	0.833984375	0.375	-0.25	0.212998046827346	0.492185058207134	0.00920905412121234	0.012953212529064	0	0	0
"Bacteroides.Otu0786"	30	0.845703125	0.982626488095238	0.5	0	0.0615391261303583	1.26058979488252	0.00125331892452773	0.00300287281196366	0	0	0.000653665976685913
"Akkermansia.Otu1935"	20	0.84375	0.982626488095238	0.5	0	0.0696850495350836	2.11718152109026	0.00300173020943984	0.0130228728439358	0	0	0
"Bacteroides.Otu1624"	20	0.8203125	0.981158088235294	0.46875	-0.0625	0.0757143541675717	-0.769634476692937	0.00279974561255938	0.00164223577821704	0	0	0
"Bacteroides.Otu2065"	13	0.9375	1	0.40625	-0.1875	0.0296371062560528	2.06733099115327	0.00721689465672808	0.0302467701005254	0	0	0
"Prevotella.Otu0773"	4	0.21875	0.485227272727273	0.375	-0.25	0.50208773596218	-2.91546077352077	0.00334917473850214	0.000443911772701957	0	0	0
"Prevotella.Otu1633"	17	0.9453125	1	0.5	0	0.0242517722676958	0.413724353115359	0.00493288927831794	0.00657120185025127	0	0	0
"Prevotella.Otu2327"	4	0.21875	0.485227272727273	0.4375	-0.125	0.50208773596218	-3.41953519048283	0.00206708683098247	0.000193186180729874	0	0	0
"Ruminococcus.Otu0422"	0	0.125	0.323001783721301	0.375	-0.25	0.767060272176273	-52	0.00719953983316856	0	0	0	0
"Bacteroides.Otu2216"	13	0.9375	1	0.40625	-0.1875	0.0296371062560528	2.52660361214274	0.00119948904089467	0.00691161850620654	0	0	0
"Megamonas.Otu2657"	1	0.25	0.516949152542373	0.4375	-0.125	0.575174690188004	-2.7912362580352	0.00901546994542434	0.00130239443325842	0	0	0
"Sutterella.Otu0171"	13	0.9375	1	0.46875	-0.0625	0.0296371062560528	-1.7785321058071	0.00704925176326149	0.00205471461257627	0	0	0
"Phascolarctobacterium.Otu1814"	15	0.9375	1	0.59375	0.1875	0.0296371062560528	-0.610541535383805	0.00408773135914753	0.00267726296885275	0	0	0
"Bacteroides.Otu1726"	0	0.25	0.516949152542373	0.40625	-0.1875	0.664154524422207	-52	0.0118722056237999	0	0	0	0
"Unclassified_Prevotellaceae.Otu2503"	6	0.4375	0.711666666666667	0.4375	-0.125	0.316972856667583	-0.632385712572149	0.00212965559734614	0.00137385945765777	0	0	0
"Prevotella.Otu0882"	9	0.84375	0.982626488095238	0.4375	-0.125	0.0804653642151458	0.108047059804552	0.00200892157128292	0.0021651519879088	0	0	0
"Klebsiella.Otu1452"	11	0.4375	0.711666666666667	0.59375	0.1875	0.347226367427374	-3.3975399081089	0.00511707938571849	0.000485579932949658	0	0	0
"Unclassified_Ruminococcaceae.Otu1504"	2	0.375	0.653571428571429	0.4375	-0.125	0.443573279509438	-1.56361230156915	0.0068654428593357	0.00232259963006558	0	0	0
"Prevotella.Otu0738"	9	0.8125	0.981158088235294	0.46875	-0.0625	0.106080008173101	5.47335306862438	0.000157484002599249	0.00699648479690439	0	0	0
"Lactobacillus.Otu0959"	2	0.75	0.948311237373737	0.46875	-0.0625	0.183966522559243	-7.15485741240636	0.0101171820935506	7.09958349110186e-05	0	0	0
"Prevotella.Otu2501"	13	0.6875	0.942415730337079	0.5	0	0.164217901506572	3.47641300415628	0.000280912682038156	0.00312662602003844	0	0	0
"Unclassified_Ruminococcaceae.Otu2510"	0	0.25	0.516949152542373	0.40625	-0.1875	0.664154524422207	-52	0.00317704747878605	0	0	0	0
"Prevotella.Otu2666"	4	0.875	0.997663551401869	0.4375	-0.125	0.0786553423050853	2.55750850859957	0.000594244889699913	0.00349826118106256	0	0	0
"Streptococcus.Otu0749"	3	1	1	0.53125	0.0625	0	-5.36532615479532	0.00418275418275418	0.00010147013380517	0	0	0
"Catenibacterium.Otu2320"	2	0.75	0.948311237373737	0.46875	-0.0625	0.183966522559243	-2.93832204684504	0.00306920205535054	0.000400407687827606	0	0	0
"Prevotella.Otu2702"	2	0.75	0.948311237373737	0.46875	-0.0625	0.183966522559243	-6.09150269675322	0.0024821884621638	3.64006988934188e-05	0	0	0
"Prevotella.Otu2220"	9	0.8125	0.981158088235294	0.46875	-0.0625	0.106080008173101	3.33083715108595	0.000248299538595821	0.0024983760366392	0	0	0
"Bacteroides.Otu2277"	3	0.625	0.898110064338235	0.4375	-0.125	0.244388205557335	-4.09755145644911	0.00132581579864808	7.74456969936517e-05	0	0	0
"Megamonas.Otu1877"	0	1	1	0.46875	-0.0625	0	-1.67685581265634	0.00567659496230925	0.00177543186180422	0	0	0
"Unclassified_Lactobacillales.Otu0504"	1	1	1	0.53125	0.0625	0	45.2478412579481	0	0.00927678909503976	0	0	0
"Bacteroides.Otu0801"	0	1	1	0.46875	-0.0625	0	-52	0.00139734313387696	0	0	0	0
