".record.id"	"DietStatus"	"Drug.Before.Diet"	"feature"	"index"
"SM1"	"before.diet"	TRUE	"N1"	14.0696615293097
"SM11"	"after.diet"	TRUE	"N1"	18.3913125961665
"SM12"	"before.diet"	TRUE	"N1"	16.7090971857567
"SM13"	"before.diet"	FALSE	"N1"	10.0027354618494
"SM14"	"before.diet"	FALSE	"N1"	7.99766030200531
"SM17"	"before.diet"	TRUE	"N1"	10.1086310248625
"SM19"	"after.diet"	FALSE	"N1"	12.0954821912449
"SM2"	"before.diet"	FALSE	"N1"	7.90586950269016
"SM23"	"after.diet"	TRUE	"N1"	2.45261150800314
"SM3"	"after.diet"	TRUE	"N1"	17.5061273951803
"SM33"	"before.diet"	TRUE	"N1"	5.21221427564774
"SM38"	"after.diet"	TRUE	"N1"	12.611889252225
"SM41"	"before.diet"	TRUE	"N1"	15.2344012271777
"SM45"	"after.diet"	FALSE	"N1"	1.01945675030653
"SM49"	"before.diet"	TRUE	"N1"	12.6662754428894
"SM52"	"before.diet"	FALSE	"N1"	12.0144894829875
"SM53"	"after.diet"	TRUE	"N1"	15.6861017424405
"SM56"	"after.diet"	TRUE	"N1"	3.30608740597917
"SM57"	"before.diet"	TRUE	"N1"	7.67042512005538
"SM58"	"after.diet"	FALSE	"N1"	6.44899663212254
"SM62"	"before.diet"	TRUE	"N1"	6.03959507541785
"SM64"	"after.diet"	TRUE	"N1"	11.8813725006312
"SM77"	"after.diet"	TRUE	"N1"	21.9706645935883
"SM79"	"after.diet"	FALSE	"N1"	12.2415922489376
"SM8"	"before.diet"	FALSE	"N1"	11.870180301794
"SM83"	"before.diet"	TRUE	"N1"	10.4442008818662
"SM84"	"before.diet"	TRUE	"N1"	16.1133239499196
"SM86"	"after.diet"	TRUE	"N1"	5.68537057162844
"SM87"	"before.diet"	TRUE	"N1"	21.5804622626357
"SM88"	"after.diet"	TRUE	"N1"	13.8839546316434
"SM9"	"after.diet"	FALSE	"N1"	16.0421982398661
"SM90"	"after.diet"	FALSE	"N1"	12.2097674683992
"SM96"	"before.diet"	FALSE	"N1"	7.33130713044758
"SM1"	"before.diet"	TRUE	"N2"	9.26447477506846
"SM11"	"after.diet"	TRUE	"N2"	10.5336369797693
"SM12"	"before.diet"	TRUE	"N2"	9.47840439653974
"SM13"	"before.diet"	FALSE	"N2"	5.97363495207526
"SM14"	"before.diet"	FALSE	"N2"	4.55955395016868
"SM17"	"before.diet"	TRUE	"N2"	6.58160963373595
"SM19"	"after.diet"	FALSE	"N2"	6.28983709450404
"SM2"	"before.diet"	FALSE	"N2"	4.49030409304724
"SM23"	"after.diet"	TRUE	"N2"	1.80732814167235
"SM3"	"after.diet"	TRUE	"N2"	9.99536100957095
"SM33"	"before.diet"	TRUE	"N2"	3.49545350590153
"SM38"	"after.diet"	TRUE	"N2"	7.93499624759039
"SM41"	"before.diet"	TRUE	"N2"	7.82004047436507
"SM45"	"after.diet"	FALSE	"N2"	1.00567007194435
"SM49"	"before.diet"	TRUE	"N2"	8.95542843735298
"SM52"	"before.diet"	FALSE	"N2"	8.23201981791364
"SM53"	"after.diet"	TRUE	"N2"	8.69400903790807
"SM56"	"after.diet"	TRUE	"N2"	2.04897811260964
"SM57"	"before.diet"	TRUE	"N2"	4.81743753646938
"SM58"	"after.diet"	FALSE	"N2"	3.78228965515645
"SM62"	"before.diet"	TRUE	"N2"	3.21143812755913
"SM64"	"after.diet"	TRUE	"N2"	6.06997023675125
"SM77"	"after.diet"	TRUE	"N2"	12.0007538925039
"SM79"	"after.diet"	FALSE	"N2"	7.14775488368268
"SM8"	"before.diet"	FALSE	"N2"	7.0733002148275
"SM83"	"before.diet"	TRUE	"N2"	7.31480083712154
"SM84"	"before.diet"	TRUE	"N2"	7.74281964369722
"SM86"	"after.diet"	TRUE	"N2"	3.56794576436821
"SM87"	"before.diet"	TRUE	"N2"	13.1453356747842
"SM88"	"after.diet"	TRUE	"N2"	9.29938047256787
"SM9"	"after.diet"	FALSE	"N2"	10.028070881788
"SM90"	"after.diet"	FALSE	"N2"	5.29060111070307
"SM96"	"before.diet"	FALSE	"N2"	3.86434356734024
