".record.id"	"DietStatus"	"feature"	"index"
"SM1"	"before.diet"	"N1"	3.12674683187756
"SM11"	"after.diet"	"N1"	2.0349964558067
"SM12"	"before.diet"	"N1"	1.93808341629647
"SM13"	"before.diet"	"N1"	7.14989168920826
"SM14"	"before.diet"	"N1"	9.56643709208917
"SM17"	"before.diet"	"N1"	2.64655073809165
"SM19"	"after.diet"	"N1"	7.56098575948727
"SM2"	"before.diet"	"N1"	1.90646299771546
"SM23"	"after.diet"	"N1"	1.9299376421853
"SM3"	"after.diet"	"N1"	8.97746045513868
"SM33"	"before.diet"	"N1"	4.24656944546258
"SM38"	"after.diet"	"N1"	1.13563958006314
"SM41"	"before.diet"	"N1"	6.95747561945111
"SM45"	"after.diet"	"N1"	1.02042545784059
"SM49"	"before.diet"	"N1"	1.56200548754171
"SM52"	"before.diet"	"N1"	13.013873749651
"SM53"	"after.diet"	"N1"	4.59852933229555
"SM56"	"after.diet"	"N1"	3.66077391792546
"SM57"	"before.diet"	"N1"	1.9654580857769
"SM58"	"after.diet"	"N1"	4.1189084195979
"SM62"	"before.diet"	"N1"	1.22918766522498
"SM64"	"after.diet"	"N1"	3.01423930809919
"SM77"	"after.diet"	"N1"	3.79926542176598
"SM79"	"after.diet"	"N1"	3.7876952848887
"SM8"	"before.diet"	"N1"	3.06499761263401
"SM83"	"before.diet"	"N1"	2.50572783582064
"SM84"	"before.diet"	"N1"	4.98623305581328
"SM86"	"after.diet"	"N1"	7.0114492515122
"SM87"	"before.diet"	"N1"	4.6285351357411
"SM88"	"after.diet"	"N1"	2.76175412947192
"SM9"	"after.diet"	"N1"	3.71787838516571
"SM90"	"after.diet"	"N1"	9.66562330392171
"SM96"	"before.diet"	"N1"	4.39186184764801
"SM1"	"before.diet"	"N2"	1.65618555282543
"SM11"	"after.diet"	"N2"	1.35260570056923
"SM12"	"before.diet"	"N2"	1.32186243819586
"SM13"	"before.diet"	"N2"	3.92473796229633
"SM14"	"before.diet"	"N2"	5.27293043534811
"SM17"	"before.diet"	"N2"	1.50615381418259
"SM19"	"after.diet"	"N2"	4.89568553861317
"SM2"	"before.diet"	"N2"	1.33834973923005
"SM23"	"after.diet"	"N2"	1.71585305566157
"SM3"	"after.diet"	"N2"	6.68586109626036
"SM33"	"before.diet"	"N2"	3.06122136182251
"SM38"	"after.diet"	"N2"	1.03591400022757
"SM41"	"before.diet"	"N2"	3.42542089570983
"SM45"	"after.diet"	"N2"	1.0057877200482
"SM49"	"before.diet"	"N2"	1.15809060717054
"SM52"	"before.diet"	"N2"	9.23906844882853
"SM53"	"after.diet"	"N2"	3.04832084910896
"SM56"	"after.diet"	"N2"	1.95735777747153
"SM57"	"before.diet"	"N2"	1.32251525448356
"SM58"	"after.diet"	"N2"	2.2264511060535
"SM62"	"before.diet"	"N2"	1.07473103796892
"SM64"	"after.diet"	"N2"	1.92972235779378
"SM77"	"after.diet"	"N2"	1.97580794035428
"SM79"	"after.diet"	"N2"	2.09386153144584
"SM8"	"before.diet"	"N2"	1.65927116853787
"SM83"	"before.diet"	"N2"	1.47759694262899
"SM84"	"before.diet"	"N2"	3.36318504766386
"SM86"	"after.diet"	"N2"	4.82959621224825
"SM87"	"before.diet"	"N2"	2.92817578796792
"SM88"	"after.diet"	"N2"	1.57373757040215
"SM9"	"after.diet"	"N2"	2.37712373919445
"SM90"	"after.diet"	"N2"	4.95887568436612
"SM96"	"before.diet"	"N2"	2.35729034793936
