".record.id"	"feature"	"l2fc"
"SB11.before.diet"	"N1"	0.0351538909363227
"SB16.before.diet"	"N1"	-0.0935477385309307
"SB18.before.diet"	"N1"	-0.427099348160062
"SB28.before.diet"	"N1"	0.715118880910818
"SB29.before.diet"	"N1"	0.257354998335891
"SB34.before.diet"	"N1"	0.00476023728264563
"SB36.before.diet"	"N1"	0.307671554718327
"SB39.before.diet"	"N1"	-0.338756527240402
"SB4.before.diet"	"N1"	-0.14600463870691
"SB41.before.diet"	"N1"	-0.101542750505349
"SB43.before.diet"	"N1"	-0.104723211151514
"SB44.before.diet"	"N1"	0.265079185844257
"SB5.before.diet"	"N1"	0.283441834916618
"SB9.before.diet"	"N1"	-0.0129397696791917
"SB11.before.diet"	"N2"	0.497972454864162
"SB16.before.diet"	"N2"	0.256317149426712
"SB18.before.diet"	"N2"	-0.299836612266379
"SB28.before.diet"	"N2"	0.828922425080675
"SB29.before.diet"	"N2"	0.0267746818282637
"SB34.before.diet"	"N2"	-0.0198342469742636
"SB36.before.diet"	"N2"	0.443890131625087
"SB39.before.diet"	"N2"	-0.428387873750247
"SB4.before.diet"	"N2"	0.02232032304798
"SB41.before.diet"	"N2"	-0.115439611997069
"SB43.before.diet"	"N2"	-0.35351700645917
"SB44.before.diet"	"N2"	0.423428265011077
"SB5.before.diet"	"N2"	0.514214001826766
"SB9.before.diet"	"N2"	-0.0538102139179206
"SB11.before.diet"	"div.unb.simpson"	0.360818019019536
"SB16.before.diet"	"div.unb.simpson"	0.162271204850548
"SB18.before.diet"	"div.unb.simpson"	0.0716122682622613
"SB28.before.diet"	"div.unb.simpson"	0.538011667967847
"SB29.before.diet"	"div.unb.simpson"	-0.560550606598552
"SB34.before.diet"	"div.unb.simpson"	-0.0151460785583826
"SB36.before.diet"	"div.unb.simpson"	-0.0901880609580168
"SB39.before.diet"	"div.unb.simpson"	0.118080198345053
"SB4.before.diet"	"div.unb.simpson"	-0.129463767959214
"SB41.before.diet"	"div.unb.simpson"	0.0196694620046092
"SB43.before.diet"	"div.unb.simpson"	-0.0322510630194497
"SB44.before.diet"	"div.unb.simpson"	-0.350289755083822
"SB5.before.diet"	"div.unb.simpson"	0.341603216587258
"SB9.before.diet"	"div.unb.simpson"	-0.23711798412873
"SB11.before.diet"	"S.obs"	-0.0670744300702282
"SB16.before.diet"	"S.obs"	-0.0158768698123153
"SB18.before.diet"	"S.obs"	0.129815008447788
"SB28.before.diet"	"S.obs"	-0.254121377949959
"SB29.before.diet"	"S.obs"	-0.0350049580168366
"SB34.before.diet"	"S.obs"	0.00282082853446353
"SB36.before.diet"	"S.obs"	-0.196556616445349
"SB39.before.diet"	"S.obs"	0.170176831545983
"SB4.before.diet"	"S.obs"	0.0473025384913736
"SB41.before.diet"	"S.obs"	0.0590481541572333
"SB43.before.diet"	"S.obs"	0.0928297741688373
"SB44.before.diet"	"S.obs"	-0.124329273849681
"SB5.before.diet"	"S.obs"	-0.176972502995296
"SB9.before.diet"	"S.obs"	0.0134139227347196
