"name"	"statistic"	"pval"	"pval.adjusted"	"common.lang.eff.size"	"rank.biserial.corr.eff.size"	"r.eff.size"	"l2fc.before.diet.by.after.diet"	"mean.after.diet"	"mean.before.diet"	"l2fc.paired.median"	"median.paired.after.diet"	"median.paired.before.diet"
"Unclassified_Bacteria"	85	0.0418701171875	0.2093505859375	0.642857142857143	0.285714285714286	0.543825521864213	2.1893102384022	0.0022339964276511	0.0101889756859299	0.743632725465635	0.00205389448672318	0.00289406414977814
"Firmicutes"	36	0.3258056640625	0.625	0.428571428571429	-0.142857142857143	0.262610179983594	-0.866382951279924	0.376032720242011	0.206261599072148	-0.561036630513483	0.208285779752285	0.122719415074555
"Bacteroidetes"	58	0.7608642578125	0.855224609375	0.5	0	0.0813399058828937	0.282781108844746	0.601205810755227	0.731389574471753	-0.0227550771729049	0.768475421517679	0.822284013771207
"Proteobacteria"	49	0.855224609375	0.855224609375	0.428571428571429	-0.142857142857143	0.0487635098762773	0.898344004481995	0.0191537844602477	0.0357012225010684	-0.480726409302493	0.0152207501177768	0.0125582524064654
"Verrucomicrobia"	8	0.375	0.625	0.571428571428571	0.142857142857143	0.443573279509438	4.92991361418797	0.000414686752322764	0.0126407265164251	0	0	0
