".record.id"	"DietStatus"	"Drug.Before.Diet"	"feature"	"index"
"SM1"	"before.diet"	TRUE	"N1"	3.17830816927423
"SM11"	"after.diet"	TRUE	"N1"	2.09667676440805
"SM12"	"before.diet"	TRUE	"N1"	1.96033991713177
"SM13"	"before.diet"	FALSE	"N1"	7.96441369549967
"SM14"	"before.diet"	FALSE	"N1"	10.6726707792596
"SM17"	"before.diet"	TRUE	"N1"	2.77190998697372
"SM19"	"after.diet"	FALSE	"N1"	7.87154451914023
"SM2"	"before.diet"	FALSE	"N1"	1.91225563459707
"SM23"	"after.diet"	TRUE	"N1"	1.92917254092547
"SM3"	"after.diet"	TRUE	"N1"	9.20800819940867
"SM33"	"before.diet"	TRUE	"N1"	4.2793657629563
"SM38"	"after.diet"	TRUE	"N1"	1.13508708450533
"SM41"	"before.diet"	TRUE	"N1"	7.57477057571691
"SM45"	"after.diet"	FALSE	"N1"	1.02034993575663
"SM49"	"before.diet"	TRUE	"N1"	1.5770344601641
"SM52"	"before.diet"	FALSE	"N1"	14.1946169396296
"SM53"	"after.diet"	TRUE	"N1"	4.63727832304599
"SM56"	"after.diet"	TRUE	"N1"	3.83418712967438
"SM57"	"before.diet"	TRUE	"N1"	1.99426805012548
"SM58"	"after.diet"	FALSE	"N1"	4.28633613100788
"SM62"	"before.diet"	TRUE	"N1"	1.23662749034725
"SM64"	"after.diet"	TRUE	"N1"	3.03314631418693
"SM77"	"after.diet"	TRUE	"N1"	3.85172566780312
"SM79"	"after.diet"	FALSE	"N1"	3.9369370480819
"SM8"	"before.diet"	FALSE	"N1"	3.13608342865151
"SM83"	"before.diet"	TRUE	"N1"	2.53935857315406
"SM84"	"before.diet"	TRUE	"N1"	5.74657939618424
"SM86"	"after.diet"	TRUE	"N1"	7.47570861761132
"SM87"	"before.diet"	TRUE	"N1"	4.63779791569381
"SM88"	"after.diet"	TRUE	"N1"	2.78818529503793
"SM9"	"after.diet"	FALSE	"N1"	3.73288918102513
"SM90"	"after.diet"	FALSE	"N1"	10.3355219946071
"SM96"	"before.diet"	FALSE	"N1"	4.56596565693976
"SM1"	"before.diet"	TRUE	"N2"	1.66052008952495
"SM11"	"after.diet"	TRUE	"N2"	1.3533802282295
"SM12"	"before.diet"	TRUE	"N2"	1.32375053962978
"SM13"	"before.diet"	FALSE	"N2"	3.96391972895118
"SM14"	"before.diet"	FALSE	"N2"	5.34938790197864
"SM17"	"before.diet"	TRUE	"N2"	1.50749875444241
"SM19"	"after.diet"	FALSE	"N2"	4.90420981551665
"SM2"	"before.diet"	FALSE	"N2"	1.3374980280957
"SM23"	"after.diet"	TRUE	"N2"	1.71456108435379
"SM3"	"after.diet"	TRUE	"N2"	6.68969911378503
"SM33"	"before.diet"	TRUE	"N2"	3.06037302181008
"SM38"	"after.diet"	TRUE	"N2"	1.03553521229545
"SM41"	"before.diet"	TRUE	"N2"	3.44721478931155
"SM45"	"after.diet"	FALSE	"N2"	1.00578496113949
"SM49"	"before.diet"	TRUE	"N2"	1.15799175217181
"SM52"	"before.diet"	FALSE	"N2"	9.33829207361138
"SM53"	"after.diet"	TRUE	"N2"	3.04871131524661
"SM56"	"after.diet"	TRUE	"N2"	1.96256761761392
"SM57"	"before.diet"	TRUE	"N2"	1.32310537074373
"SM58"	"after.diet"	FALSE	"N2"	2.22832740202636
"SM62"	"before.diet"	TRUE	"N2"	1.07509163160526
"SM64"	"after.diet"	TRUE	"N2"	1.92508355031493
"SM77"	"after.diet"	TRUE	"N2"	1.97449071897228
"SM79"	"after.diet"	FALSE	"N2"	2.09202998336769
"SM8"	"before.diet"	FALSE	"N2"	1.65889513951681
"SM83"	"before.diet"	TRUE	"N2"	1.4784894651048
"SM84"	"before.diet"	TRUE	"N2"	3.4117899767142
"SM86"	"after.diet"	TRUE	"N2"	4.85591326951188
"SM87"	"before.diet"	TRUE	"N2"	2.92495565730375
"SM88"	"after.diet"	TRUE	"N2"	1.57524860812064
"SM9"	"after.diet"	FALSE	"N2"	2.37686137608487
"SM90"	"after.diet"	FALSE	"N2"	4.98241059505843
"SM96"	"before.diet"	FALSE	"N2"	2.35628553091951
