".record.id"	"feature"	"l2fc"
"SB11.before.diet"	"Bacteroidetes"	0.289693404879542
"SB16.before.diet"	"Bacteroidetes"	-0.0839451050489579
"SB18.before.diet"	"Bacteroidetes"	1.97669154077566
"SB28.before.diet"	"Bacteroidetes"	-0.0838629806935028
"SB29.before.diet"	"Bacteroidetes"	1.68351224325698
"SB34.before.diet"	"Bacteroidetes"	-0.0976933946621823
"SB36.before.diet"	"Bacteroidetes"	0.110448429134112
"SB39.before.diet"	"Bacteroidetes"	-0.45711262514782
"SB4.before.diet"	"Bacteroidetes"	-0.0787762785654634
"SB41.before.diet"	"Bacteroidetes"	0.0332661242196536
"SB43.before.diet"	"Bacteroidetes"	1.53119460252196
"SB44.before.diet"	"Bacteroidetes"	7.91787094135243
"SB5.before.diet"	"Bacteroidetes"	-3.11195795662734
"SB9.before.diet"	"Bacteroidetes"	-3.58677290022428
"SB11.before.diet"	"Firmicutes"	-0.801755558062999
"SB16.before.diet"	"Firmicutes"	0.955973825231974
"SB18.before.diet"	"Firmicutes"	-2.83286842676591
"SB28.before.diet"	"Firmicutes"	-1.88617435146939
"SB29.before.diet"	"Firmicutes"	-2.97964458841097
"SB34.before.diet"	"Firmicutes"	0.575019326288258
"SB36.before.diet"	"Firmicutes"	-1.13909321473595
"SB39.before.diet"	"Firmicutes"	0.150703514444071
"SB4.before.diet"	"Firmicutes"	2.0751928473042
"SB41.before.diet"	"Firmicutes"	-0.320317702963966
"SB43.before.diet"	"Firmicutes"	-3.11490706509677
"SB44.before.diet"	"Firmicutes"	-2.57220707794652
"SB5.before.diet"	"Firmicutes"	2.36199393067669
"SB9.before.diet"	"Firmicutes"	2.05391327416782
"SB11.before.diet"	"Proteobacteria"	-2.09910275680121
"SB16.before.diet"	"Proteobacteria"	-1.32873380195388
"SB18.before.diet"	"Proteobacteria"	-2.65905680062854
"SB28.before.diet"	"Proteobacteria"	3.55895888411356
"SB29.before.diet"	"Proteobacteria"	33.9163129263329
"SB34.before.diet"	"Proteobacteria"	-0.343299503742206
"SB36.before.diet"	"Proteobacteria"	0.655649830088567
"SB39.before.diet"	"Proteobacteria"	-0.833554396241974
"SB4.before.diet"	"Proteobacteria"	3.03813588519396
"SB41.before.diet"	"Proteobacteria"	-1.42379187097602
"SB43.before.diet"	"Proteobacteria"	2.2534347450973
"SB44.before.diet"	"Proteobacteria"	-2.3779605950681
"SB5.before.diet"	"Proteobacteria"	6.01367956126053
"SB9.before.diet"	"Proteobacteria"	-0.618153314862781
"SB11.before.diet"	"Verrucomicrobia"	3.39399888571068
"SB16.before.diet"	"Verrucomicrobia"	0
"SB18.before.diet"	"Verrucomicrobia"	0
"SB28.before.diet"	"Verrucomicrobia"	0
"SB29.before.diet"	"Verrucomicrobia"	0
"SB34.before.diet"	"Verrucomicrobia"	0
"SB36.before.diet"	"Verrucomicrobia"	0
"SB39.before.diet"	"Verrucomicrobia"	42.843229098368
"SB4.before.diet"	"Verrucomicrobia"	0
"SB41.before.diet"	"Verrucomicrobia"	-5.4035527836432
"SB43.before.diet"	"Verrucomicrobia"	32.025506985832
"SB44.before.diet"	"Verrucomicrobia"	0
"SB5.before.diet"	"Verrucomicrobia"	0
"SB9.before.diet"	"Verrucomicrobia"	0
"SB11.before.diet"	"Unclassified_Bacteria"	0.476461045911132
"SB16.before.diet"	"Unclassified_Bacteria"	2.74165552592442
"SB18.before.diet"	"Unclassified_Bacteria"	1.39761564848925
"SB28.before.diet"	"Unclassified_Bacteria"	-1.3155102337768
"SB29.before.diet"	"Unclassified_Bacteria"	36.7236678483142
"SB34.before.diet"	"Unclassified_Bacteria"	-1.74309967054278
"SB36.before.diet"	"Unclassified_Bacteria"	-0.181499694226599
"SB39.before.diet"	"Unclassified_Bacteria"	1.20881759056632
"SB4.before.diet"	"Unclassified_Bacteria"	3.13767155871623
"SB41.before.diet"	"Unclassified_Bacteria"	1.01080440502014
"SB43.before.diet"	"Unclassified_Bacteria"	-0.468896893910349
"SB44.before.diet"	"Unclassified_Bacteria"	0.289336838430625
"SB5.before.diet"	"Unclassified_Bacteria"	-0.46196741346441
"SB9.before.diet"	"Unclassified_Bacteria"	5.13201177686441
