"rownames"	"Df"	"SumsOfSqs"	"MeanSqs"	"F.Model"	"R2"	"Pr(>F)"
"DietStatus"	1	51.6639812926582	51.6639812926582	0.768335682312	0.0241855818320429	0.537365658585354
"Residuals"	31	2084.48397873739	67.241418668948	NA	0.975814418167957	NA
"Total"	32	2136.14796003005	NA	NA	1	NA
