"feature"	"Drug.Before.Diet"	"mean"	"sd"	"median"	"incidence"
"N1"	FALSE	0.00832644673204113	0.101117450922746	0.0191250267292788	0.5
"N1"	TRUE	-0.0129533726807255	0.0484243428908271	-0.00260935823021359	0.5
"N2"	FALSE	0.014834357925648	0.0712347194739397	0.0151980116269815	0.5
"N2"	TRUE	-0.0157957729298826	0.042947996594114	-0.00928158753269326	0.4
"div.unb.simpson"	FALSE	-0.00281693605070581	0.00471717016978012	-0.0012729314379922	0.25
"div.unb.simpson"	TRUE	-0.00182582095754324	0.00923142885694656	0.000618514845100888	0.7
"S.obs"	FALSE	-0.0203438686069833	0.174574602519029	-0.0344719899084298	0.5
"S.obs"	TRUE	0.0305749665681513	0.0976830112395487	0.00977255207873701	0.5
