"name"	"statistic"	"pval"	"pval.adjusted"	"common.lang.eff.size"	"rank.biserial.corr.eff.size"	"r.eff.size"	"l2fc.before.diet.by.after.diet"	"mean.after.diet"	"mean.before.diet"	"l2fc.paired.median"	"median.paired.after.diet"	"median.paired.before.diet"
"Unclassified_Bacteria"	85	0.0418701171875	0.4605712890625	0.642857142857143	0.285714285714286	0.543825521864213	2.1893102384022	0.0022339964276511	0.0101889756859299	0.743632725465635	0.00205389448672318	0.00289406414977814
"Erysipelotrichales"	72	0.2412109375	0.7646484375	0.571428571428571	0.142857142857143	0.313220935164611	2.55746280638834	0.00556559716919577	0.0327630848809616	1.13152526721257	0.00288014729059239	0.0102204150622865
"Clostridiales"	40	0.463134765625	0.7646484375	0.428571428571429	-0.142857142857143	0.196088184672886	-0.641885221983192	0.231076922421882	0.148091410368132	-0.146689973429049	0.145157580003338	0.0960203448515182
"Lactobacillales"	62	0.5830078125	0.7646484375	0.571428571428571	0.142857142857143	0.146725501683092	-2.61284216601166	0.108721661146011	0.0177734695057665	1.82652964450113	0.000768762116963538	0.000609859989035873
"Unclassified_Firmicutes"	41	0.5015869140625	0.7646484375	0.5	0	0.179598203716485	-0.946794018232837	0.00498883397563065	0.00258812740854324	0.352967314514064	0.000943846310763283	0.000854449891320058
"Bacteroidales"	58	0.7608642578125	0.7646484375	0.5	0	0.0813399058828937	0.283034926178959	0.600871460905696	0.731111440398882	-0.0240110925301473	0.766341654703691	0.821870277734799
"Selenomonadales"	45	0.6697998046875	0.7646484375	0.5	0	0.113966281923071	-2.44559777031958	0.0243319330956042	0.00446661301892235	0.883407887463846	0.00375323313000445	0.00209422540069974
"Enterobacteriales"	38	0.322265625	0.7646484375	0.571428571428571	0.142857142857143	0.313006291972843	3.68359179112568	0.00185353848767797	0.0238162417073719	0	0.000266481142680537	0.00018889658724395
"Burkholderiales"	29	0.7646484375	0.7646484375	0.535714285714286	0.0714285714285714	0.0902671314627153	-0.563768602720085	0.012778804781876	0.00864527824753814	0	0.00307742144476838	0.00147239839469364
"Rhizobiales"	19	0.431640625	0.7646484375	0.428571428571429	-0.142857142857143	0.248677497205275	-0.747914127761895	0.00287911998301177	0.00171441191831696	0	0.000388887621103096	0.000529383072093013
"Verrucomicrobiales"	8	0.375	0.7646484375	0.571428571428571	0.142857142857143	0.443573279509438	4.92991361418797	0.000414686752322764	0.0126407265164251	0	0	0
