".record.id"	"feature"	"l2fc"
"SB11.before.diet"	"Bacteroidales"	0.289693404879542
"SB16.before.diet"	"Bacteroidales"	-0.0854031092568189
"SB18.before.diet"	"Bacteroidales"	1.97669154077566
"SB28.before.diet"	"Bacteroidales"	-0.0838629806935028
"SB29.before.diet"	"Bacteroidales"	1.68351224325698
"SB34.before.diet"	"Bacteroidales"	-0.0975594619339704
"SB36.before.diet"	"Bacteroidales"	0.110448429134112
"SB39.before.diet"	"Bacteroidales"	-0.45784181473887
"SB4.before.diet"	"Bacteroidales"	-0.0787762785654634
"SB41.before.diet"	"Bacteroidales"	0.0307540935051689
"SB43.before.diet"	"Bacteroidales"	1.53056232682831
"SB44.before.diet"	"Bacteroidales"	8.20737755854533
"SB5.before.diet"	"Bacteroidales"	-3.11179175709477
"SB9.before.diet"	"Bacteroidales"	-3.59596943663108
"SB11.before.diet"	"Clostridiales"	-0.841051758486591
"SB16.before.diet"	"Clostridiales"	0.56370597834978
"SB18.before.diet"	"Clostridiales"	-4.66466676897481
"SB28.before.diet"	"Clostridiales"	-2.08837677947298
"SB29.before.diet"	"Clostridiales"	5.73222299060476
"SB34.before.diet"	"Clostridiales"	0.454627296112093
"SB36.before.diet"	"Clostridiales"	-1.08266013410079
"SB39.before.diet"	"Clostridiales"	-0.157105029517642
"SB4.before.diet"	"Clostridiales"	2.22578605332322
"SB41.before.diet"	"Clostridiales"	-0.136274917340456
"SB43.before.diet"	"Clostridiales"	-3.42754128432603
"SB44.before.diet"	"Clostridiales"	-2.50582804850929
"SB5.before.diet"	"Clostridiales"	2.19025469958909
"SB9.before.diet"	"Clostridiales"	1.33022736313251
"SB11.before.diet"	"Lactobacillales"	-34.11296982683
"SB16.before.diet"	"Lactobacillales"	1.30869611862242
"SB18.before.diet"	"Lactobacillales"	5.71218929222914
"SB28.before.diet"	"Lactobacillales"	35.044395495261
"SB29.before.diet"	"Lactobacillales"	-44.8630373107068
"SB34.before.diet"	"Lactobacillales"	2.34436317037984
"SB36.before.diet"	"Lactobacillales"	2.40346280613085
"SB39.before.diet"	"Lactobacillales"	4.10044142942127
"SB4.before.diet"	"Lactobacillales"	-0.0963837800070184
"SB41.before.diet"	"Lactobacillales"	-2.89110278274664
"SB43.before.diet"	"Lactobacillales"	-6.39089438158872
"SB44.before.diet"	"Lactobacillales"	-38.4023950553108
"SB5.before.diet"	"Lactobacillales"	4.71948856572994
"SB9.before.diet"	"Lactobacillales"	5.74010415260744
"SB11.before.diet"	"Erysipelotrichales"	-0.301146532750408
"SB16.before.diet"	"Erysipelotrichales"	4.98112146059722
"SB18.before.diet"	"Erysipelotrichales"	-0.841171211074416
"SB28.before.diet"	"Erysipelotrichales"	0.269452266919441
"SB29.before.diet"	"Erysipelotrichales"	-2.11130554397029
"SB34.before.diet"	"Erysipelotrichales"	2.05302339561953
"SB36.before.diet"	"Erysipelotrichales"	-37.6590206338753
"SB39.before.diet"	"Erysipelotrichales"	3.15933511857144
"SB4.before.diet"	"Erysipelotrichales"	4.55270905801385
"SB41.before.diet"	"Erysipelotrichales"	-2.85572845292114
"SB43.before.diet"	"Erysipelotrichales"	-1.97885562626302
"SB44.before.diet"	"Erysipelotrichales"	1.99359826750569
"SB5.before.diet"	"Erysipelotrichales"	6.92288827167717
"SB9.before.diet"	"Erysipelotrichales"	8.63874911043932
"SB11.before.diet"	"Selenomonadales"	2.30653604446153
"SB16.before.diet"	"Selenomonadales"	-0.276266382047115
"SB18.before.diet"	"Selenomonadales"	-6.70741982168292
"SB28.before.diet"	"Selenomonadales"	-2.7103698511347
"SB29.before.diet"	"Selenomonadales"	34.9163129262884
"SB34.before.diet"	"Selenomonadales"	3.82978999767719
"SB36.before.diet"	"Selenomonadales"	33.9963942499871
"SB39.before.diet"	"Selenomonadales"	1.93928663770868
"SB4.before.diet"	"Selenomonadales"	33.6604805135435
"SB41.before.diet"	"Selenomonadales"	-1.93383866492421
"SB43.before.diet"	"Selenomonadales"	-0.17247086278099
"SB44.before.diet"	"Selenomonadales"	-5.0092167480679
"SB5.before.diet"	"Selenomonadales"	5.47663204178877
"SB9.before.diet"	"Selenomonadales"	-41.049556261473
"SB11.before.diet"	"Enterobacteriales"	1.11389096648621
"SB16.before.diet"	"Enterobacteriales"	6.06358362068232
"SB18.before.diet"	"Enterobacteriales"	-35.2786604534004
"SB28.before.diet"	"Enterobacteriales"	3.55604728869363
"SB29.before.diet"	"Enterobacteriales"	0
"SB34.before.diet"	"Enterobacteriales"	-0.977564924023667
"SB36.before.diet"	"Enterobacteriales"	0
"SB39.before.diet"	"Enterobacteriales"	0
"SB4.before.diet"	"Enterobacteriales"	0
"SB41.before.diet"	"Enterobacteriales"	-36.3401155685548
"SB43.before.diet"	"Enterobacteriales"	-4.06227163435001
"SB44.before.diet"	"Enterobacteriales"	1.82367326600863
"SB5.before.diet"	"Enterobacteriales"	10.5448729028545
"SB9.before.diet"	"Enterobacteriales"	2.81008368211266
"SB11.before.diet"	"Burkholderiales"	-2.20803712835313
"SB16.before.diet"	"Burkholderiales"	-2.90795993312303
"SB18.before.diet"	"Burkholderiales"	-4.09270997804477
"SB28.before.diet"	"Burkholderiales"	0
"SB29.before.diet"	"Burkholderiales"	0
"SB34.before.diet"	"Burkholderiales"	0.184491833902908
"SB36.before.diet"	"Burkholderiales"	0.781025600351854
"SB39.before.diet"	"Burkholderiales"	-1.9561962855802
"SB4.before.diet"	"Burkholderiales"	36.2454430141761
"SB41.before.diet"	"Burkholderiales"	30.8926194376778
"SB43.before.diet"	"Burkholderiales"	40.3383899407874
"SB44.before.diet"	"Burkholderiales"	0
"SB5.before.diet"	"Burkholderiales"	32.192022537101
"SB9.before.diet"	"Burkholderiales"	-2.4378438312514
"SB11.before.diet"	"Verrucomicrobiales"	3.39399888571068
"SB16.before.diet"	"Verrucomicrobiales"	0
"SB18.before.diet"	"Verrucomicrobiales"	0
"SB28.before.diet"	"Verrucomicrobiales"	0
"SB29.before.diet"	"Verrucomicrobiales"	0
"SB34.before.diet"	"Verrucomicrobiales"	0
"SB36.before.diet"	"Verrucomicrobiales"	0
"SB39.before.diet"	"Verrucomicrobiales"	42.843229098368
"SB4.before.diet"	"Verrucomicrobiales"	0
"SB41.before.diet"	"Verrucomicrobiales"	-5.4035527836432
"SB43.before.diet"	"Verrucomicrobiales"	32.025506985832
"SB44.before.diet"	"Verrucomicrobiales"	0
"SB5.before.diet"	"Verrucomicrobiales"	0
"SB9.before.diet"	"Verrucomicrobiales"	0
"SB11.before.diet"	"Unclassified_Bacteria"	0.476461045911132
"SB16.before.diet"	"Unclassified_Bacteria"	2.74165552592442
"SB18.before.diet"	"Unclassified_Bacteria"	1.39761564848925
"SB28.before.diet"	"Unclassified_Bacteria"	-1.3155102337768
"SB29.before.diet"	"Unclassified_Bacteria"	36.7236678483142
"SB34.before.diet"	"Unclassified_Bacteria"	-1.74309967054278
"SB36.before.diet"	"Unclassified_Bacteria"	-0.181499694226599
"SB39.before.diet"	"Unclassified_Bacteria"	1.20881759056632
"SB4.before.diet"	"Unclassified_Bacteria"	3.13767155871623
"SB41.before.diet"	"Unclassified_Bacteria"	1.01080440502014
"SB43.before.diet"	"Unclassified_Bacteria"	-0.468896893910349
"SB44.before.diet"	"Unclassified_Bacteria"	0.289336838430625
"SB5.before.diet"	"Unclassified_Bacteria"	-0.46196741346441
"SB9.before.diet"	"Unclassified_Bacteria"	5.13201177686441
"SB11.before.diet"	"Unclassified_Firmicutes"	-2.3951226809554
"SB16.before.diet"	"Unclassified_Firmicutes"	3.33423121073066
"SB18.before.diet"	"Unclassified_Firmicutes"	-3.18017281929701
"SB28.before.diet"	"Unclassified_Firmicutes"	-33.7749432283985
"SB29.before.diet"	"Unclassified_Firmicutes"	34.9163129262884
"SB34.before.diet"	"Unclassified_Firmicutes"	2.47174247713415
"SB36.before.diet"	"Unclassified_Firmicutes"	-36.8408589568662
"SB39.before.diet"	"Unclassified_Firmicutes"	2.87804900812175
"SB4.before.diet"	"Unclassified_Firmicutes"	34.6604805134904
"SB41.before.diet"	"Unclassified_Firmicutes"	1.63693264949623
"SB43.before.diet"	"Unclassified_Firmicutes"	-3.06227163440501
"SB44.before.diet"	"Unclassified_Firmicutes"	-4.34625173524867
"SB5.before.diet"	"Unclassified_Firmicutes"	4.32462894811272
"SB9.before.diet"	"Unclassified_Firmicutes"	-0.9309980204681
"SB11.before.diet"	"Rhizobiales"	-34.11296982683
"SB16.before.diet"	"Rhizobiales"	0
"SB18.before.diet"	"Rhizobiales"	-1.59889536541154
"SB28.before.diet"	"Rhizobiales"	0
"SB29.before.diet"	"Rhizobiales"	0
"SB34.before.diet"	"Rhizobiales"	-1.04315326583111
"SB36.before.diet"	"Rhizobiales"	-0.362071939867169
"SB39.before.diet"	"Rhizobiales"	-0.0299552077272294
"SB4.before.diet"	"Rhizobiales"	1.55270905792776
"SB41.before.diet"	"Rhizobiales"	1.57487168138926
"SB43.before.diet"	"Rhizobiales"	-3.12785997593487
"SB44.before.diet"	"Rhizobiales"	0
"SB5.before.diet"	"Rhizobiales"	1.6141355655636
"SB9.before.diet"	"Rhizobiales"	2.22512118129255
