"MatchedGroupID"	"SubjectID"	"SampleID"	"Sample.type"	"Sample.type.1"	"DietStatus"	"Drug"	"Complaints"	"age"	"age.quant"	"visit"	"Drug.Before.Diet"	"Sample.type.Drug.Before"	"visit.max"	"visit.min"	"visit.1"	"visit.2"	"has.matched.subject"
"MG14"	"SB34"	"SM1"	"patient"	"patient.before.diet"	"before.diet"	TRUE	FALSE	16.5985524884884	"(15.3,26.4]"	1	TRUE	"patient TRUE ."	2	1	TRUE	TRUE	TRUE
"MG3"	"SB41"	"SM11"	"patient"	"patient.after.diet"	"after.diet"	FALSE	FALSE	9.49941286715322	"(8.71,15.3]"	2	TRUE	"patient TRUE ."	4	1	TRUE	TRUE	TRUE
"MG3"	"SB41"	"SM12"	"patient"	"patient.before.diet"	"before.diet"	TRUE	FALSE	8.6348181327907	"(6.27,8.71]"	1	TRUE	"patient TRUE ."	4	1	TRUE	TRUE	TRUE
"MG6"	"SB11"	"SM13"	"patient"	"patient.before.diet"	"before.diet"	FALSE	FALSE	12.6182191120582	"(8.71,15.3]"	1	FALSE	"patient FALSE ."	4	1	TRUE	TRUE	TRUE
"MG2"	"SB9"	"SM14"	"patient"	"patient.before.diet"	"before.diet"	FALSE	TRUE	15.3070150405978	"(8.71,15.3]"	1	FALSE	"patient FALSE ."	4	1	TRUE	TRUE	TRUE
"MG9"	"SB16"	"SM17"	"patient"	"patient.before.diet"	"before.diet"	TRUE	FALSE	23.6861407428201	"(15.3,26.4]"	1	TRUE	"patient TRUE ."	2	1	TRUE	TRUE	FALSE
"MG1"	"SB18"	"SM19"	"patient"	"patient.after.diet"	"after.diet"	TRUE	FALSE	20.3122352957726	"(15.3,26.4]"	2	FALSE	"patient FALSE ."	4	1	TRUE	TRUE	TRUE
"MG1"	"SB18"	"SM2"	"patient"	"patient.before.diet"	"before.diet"	FALSE	FALSE	19.5886028851663	"(15.3,26.4]"	1	FALSE	"patient FALSE ."	4	1	TRUE	TRUE	TRUE
"MG19"	"SB29"	"SM23"	"patient"	"patient.after.diet"	"after.diet"	TRUE	FALSE	8.5174831854052	"(6.27,8.71]"	2	TRUE	"patient TRUE ."	7	1	TRUE	TRUE	TRUE
"MG21"	"SB43"	"SM3"	"patient"	"patient.after.diet"	"after.diet"	TRUE	FALSE	23.1802488010728	"(15.3,26.4]"	2	TRUE	"patient TRUE ."	2	1	TRUE	TRUE	TRUE
"MG11"	"SB28"	"SM33"	"patient"	"patient.before.diet"	"before.diet"	TRUE	FALSE	7.09668589014662	"(6.27,8.71]"	1	TRUE	"patient TRUE ."	6	1	TRUE	TRUE	FALSE
"MG8"	"SB4"	"SM38"	"patient"	"patient.after.diet"	"after.diet"	TRUE	TRUE	4.59597834232965	"[3.18,6.27]"	2	TRUE	"patient TRUE ."	5	1	TRUE	TRUE	TRUE
"MG22"	"SB39"	"SM41"	"patient"	"patient.before.diet"	"before.diet"	TRUE	FALSE	9.60912673361345	"(8.71,15.3]"	1	TRUE	"patient TRUE ."	4	1	TRUE	TRUE	TRUE
"MG7"	"SB20"	"SM45"	"patient"	"patient.after.diet"	"after.diet"	TRUE	TRUE	7.22304378350278	"(6.27,8.71]"	2	FALSE	"patient FALSE ."	4	1	TRUE	TRUE	FALSE
"MG8"	"SB4"	"SM49"	"patient"	"patient.before.diet"	"before.diet"	TRUE	FALSE	3.97310367578462	"[3.18,6.27]"	1	TRUE	"patient TRUE ."	5	1	TRUE	TRUE	TRUE
"MG17"	"SB5"	"SM52"	"patient"	"patient.before.diet"	"before.diet"	FALSE	FALSE	21.5616391252835	"(15.3,26.4]"	1	FALSE	"patient FALSE ."	3	1	TRUE	TRUE	TRUE
"MG25"	"SB36"	"SM53"	"patient"	"patient.after.diet"	"after.diet"	TRUE	FALSE	5.16941182543715	"[3.18,6.27]"	2	TRUE	"patient TRUE ."	3	1	TRUE	TRUE	TRUE
"MG11"	"SB28"	"SM56"	"patient"	"patient.after.diet"	"after.diet"	FALSE	FALSE	7.40148808841708	"(6.27,8.71]"	2	TRUE	"patient TRUE ."	6	1	TRUE	TRUE	FALSE
"MG19"	"SB29"	"SM57"	"patient"	"patient.before.diet"	"before.diet"	TRUE	FALSE	7.57788439199252	"(6.27,8.71]"	1	TRUE	"patient TRUE ."	7	1	TRUE	TRUE	TRUE
"MG2"	"SB9"	"SM58"	"patient"	"patient.after.diet"	"after.diet"	FALSE	FALSE	14.724788506516	"(8.71,15.3]"	2	FALSE	"patient FALSE ."	4	1	TRUE	TRUE	TRUE
"MG10"	"SB35"	"SM62"	"patient"	"patient.before.diet"	"before.diet"	TRUE	TRUE	10.5594439775836	"(8.71,15.3]"	1	TRUE	"patient TRUE ."	6	1	TRUE	TRUE	TRUE
"MG9"	"SB16"	"SM64"	"patient"	"patient.after.diet"	"after.diet"	TRUE	FALSE	24.4999669283999	"(15.3,26.4]"	2	TRUE	"patient TRUE ."	2	1	TRUE	TRUE	FALSE
"MG22"	"SB39"	"SM77"	"patient"	"patient.after.diet"	"after.diet"	TRUE	FALSE	11.6844222494388	"(8.71,15.3]"	2	TRUE	"patient TRUE ."	4	1	TRUE	TRUE	TRUE
"MG17"	"SB5"	"SM79"	"patient"	"patient.after.diet"	"after.diet"	TRUE	FALSE	21.8602139160796	"(15.3,26.4]"	2	FALSE	"patient FALSE ."	3	1	TRUE	TRUE	TRUE
"MG23"	"SB6"	"SM8"	"patient"	"patient.before.diet"	"before.diet"	FALSE	FALSE	7.99000850447505	"(6.27,8.71]"	1	FALSE	"patient FALSE ."	5	1	TRUE	TRUE	TRUE
"MG20"	"SB44"	"SM83"	"patient"	"patient.before.diet"	"before.diet"	TRUE	FALSE	4.95750049341228	"[3.18,6.27]"	1	TRUE	"patient TRUE ."	5	1	TRUE	TRUE	FALSE
"MG21"	"SB43"	"SM84"	"patient"	"patient.before.diet"	"before.diet"	TRUE	FALSE	25.649674444254	"(15.3,26.4]"	1	TRUE	"patient TRUE ."	2	1	TRUE	TRUE	TRUE
"MG20"	"SB44"	"SM86"	"patient"	"patient.after.diet"	"after.diet"	FALSE	FALSE	5.93614846412411	"[3.18,6.27]"	2	TRUE	"patient TRUE ."	5	1	TRUE	TRUE	FALSE
"MG25"	"SB36"	"SM87"	"patient"	"patient.before.diet"	"before.diet"	TRUE	FALSE	5.49948329356027	"[3.18,6.27]"	1	TRUE	"patient TRUE ."	3	1	TRUE	TRUE	TRUE
"MG14"	"SB34"	"SM88"	"patient"	"patient.after.diet"	"after.diet"	TRUE	FALSE	17.7970204736783	"(15.3,26.4]"	2	TRUE	"patient TRUE ."	2	1	TRUE	TRUE	TRUE
"MG15"	"SB37"	"SM9"	"patient"	"patient.after.diet"	"after.diet"	TRUE	FALSE	5.68003274001729	"[3.18,6.27]"	2	FALSE	"patient FALSE ."	4	1	TRUE	TRUE	TRUE
"MG6"	"SB11"	"SM90"	"patient"	"patient.after.diet"	"after.diet"	FALSE	FALSE	10.966427034479	"(8.71,15.3]"	2	FALSE	"patient FALSE ."	4	1	TRUE	TRUE	TRUE
"MG24"	"SB42"	"SM96"	"patient"	"patient.before.diet"	"before.diet"	FALSE	TRUE	5.29354446703593	"[3.18,6.27]"	1	FALSE	"patient FALSE ."	3	1	TRUE	TRUE	FALSE
