"name"	"statistic"	"pval"	"pval.adjusted"	"common.lang.eff.size"	"rank.biserial.corr.eff.size"	"r.eff.size"	"l2fc.before.diet.by.after.diet"	"mean.after.diet"	"mean.before.diet"	"l2fc.paired.median"	"median.paired.after.diet"	"median.paired.before.diet"
"Lachnospiracea_incertae_sedis"	7	0.0023193359375	0.088134765625	0.214285714285714	-0.571428571428571	0.814068817761807	-2.26221941990642	0.0364427325249557	0.00759652604788301	-1.66830344007578	0.0284125507016879	0.00407522755322431
"Unclassified_Bacteria"	85	0.0418701171875	0.530354817708333	0.642857142857143	0.285714285714286	0.543825521864213	2.1893102384022	0.0022339964276511	0.0101889756859299	0.743632725465635	0.00205389448672318	0.00289406414977814
"Bacteroides"	79	0.10400390625	0.564592633928572	0.714285714285714	0.428571428571429	0.434498636053152	0.629653941850045	0.394147092632115	0.609821947797195	0.201553886521399	0.305016245187119	0.658623197459359
"Erysipelotrichaceae_incertae_sedis"	80	0.090576171875	0.564592633928572	0.642857142857143	0.285714285714286	0.452303893617304	4.27813883236451	0.00137455880437448	0.026669289029596	1.19521442901814	0.000462025102766031	0.0015600527976046
"Clostridium_XlVa"	81	0.0784912109375	0.564592633928572	0.714285714285714	0.428571428571429	0.470248374660053	1.36948266011505	0.00257878302441589	0.00666300534900073	0.890272710979608	0.00176535196091541	0.00443120297958581
"Clostridium_XVIII"	81	0.0784912109375	0.564592633928572	0.714285714285714	0.428571428571429	0.470248374660053	1.09203711048334	0.00137698135122204	0.00293537766348081	1.02444536033702	0.0004835116431104	0.00154407096708653
"Roseburia"	28	0.13525390625	0.6424560546875	0.428571428571429	-0.142857142857143	0.399208262483405	-1.85956098349906	0.0173555815740931	0.00478250614117307	-1.42427663865943	0.00689244641956161	0.00267212310812367
"Clostridium_XI"	74	0.1937255859375	0.77373046875	0.642857142857143	0.285714285714286	0.347342463184004	0.801805114915045	0.0123343012899913	0.021502152762956	1.44266475042603	0.00233401490769352	0.002992774276688
"Unclassified_Clostridiales"	33	0.2412109375	0.833274147727273	0.428571428571429	-0.142857142857143	0.313220935164611	-0.0342986310381916	0.00984901232619547	0.00961762333232894	-0.521294794121637	0.00757849434585903	0.00655744549257546
"Unclassified_Lachnospiraceae"	37	0.3575439453125	0.911241319444444	0.5	0	0.245895079341144	-0.978213564886478	0.0474326857045487	0.0240772061104348	0.043814056434138	0.0322761304263419	0.0110666878105157
"Clostridium_IV"	56	0.20361328125	0.77373046875	0.642857142857143	0.285714285714286	0.366999729388296	0.626029584638151	0.00186268493563459	0.00287470368307729	0.715476312528162	0.000275255216769744	0.000682782391535278
"Flavonifractor"	60	0.339599609375	0.911241319444444	0.678571428571429	0.357142857142857	0.264857326222714	0.431476135553122	0.00173481714182716	0.00233959650542605	1.4630673614217	0.00064862041746965	0.00176616341289359
"Prevotella"	33	0.414306640625	0.911241319444444	0.392857142857143	-0.214285714285714	0.2264115241573	-1.54190382946681	0.115761994821802	0.0397563677197492	-1.37136504018598	0.000328974108269992	0.000309866976162731
"Blautia"	41	0.5015869140625	0.914532001201923	0.357142857142857	-0.285714285714286	0.179598203716485	-0.928607181187713	0.0196022989082804	0.0102983676398616	-1.24059546919299	0.00835148130312863	0.00318165864935018
"Faecalibacterium"	44	0.625732421875	0.914532001201923	0.5	0	0.130354599248869	-1.06360526201382	0.0633381604278966	0.0303031906598579	-0.487409324111963	0.0159506665581414	0.0107292901204298
"Unclassified_Bacteroidales"	62	0.5830078125	0.914532001201923	0.571428571428571	0.142857142857143	0.146725501683092	-0.227930118950998	0.00927570194612042	0.00792014226039942	0.447052960543519	0.00200089573449332	0.00295666155466132
"Escherichia_Shigella"	33	0.0390625	0.530354817708333	0.642857142857143	0.285714285714286	0.72956728503352	8.74235252535956	4.42285982089896e-05	0.0189414629032943	0	0	0
"Unclassified_Firmicutes"	41	0.5015869140625	0.914532001201923	0.5	0	0.179598203716485	-0.946794018232837	0.00498883397563065	0.00258812740854324	0.352967314514064	0.000943846310763283	0.000854449891320058
"Unclassified_Ruminococcaceae"	61	0.625732421875	0.914532001201923	0.571428571428571	0.142857142857143	0.130354599248869	0.403884080953308	0.00615116897191357	0.0081383971676624	0.905238231294152	0.00355154725212704	0.00675666437392342
"Ruminococcus"	47	0.7608642578125	0.932672316028226	0.428571428571429	-0.142857142857143	0.0813399058828937	0.132922044579662	0.00524624147696423	0.00575256850449046	-0.747053334391341	0.00264342017652219	0.00260473594372364
"Dorea"	52	1	1	0.428571428571429	-0.142857142857143	0	1.56179648082066	0.00149168307248238	0.00440376513979512	-0.348512044129946	0.00105644955980652	0.000757058488722733
"Clostridium_sensu_stricto"	45	0.3203125	0.911241319444444	0.535714285714286	0.0714285714285714	0.299646770641906	1.55628729029056	0.0014118790040638	0.00415228004427733	0	0	0.000150738619234248
"Veillonella"	23	0.4130859375	0.911241319444444	0.392857142857143	-0.214285714285714	0.246779536854775	-2.35197935122291	0.00732164623768762	0.00143414283399219	-0.488782462011834	0.000183118001981359	3.09962184613477e-05
"Streptococcus"	52	0.684814453125	0.932672316028226	0.464285714285714	-0.0714285714285714	0.112577018160029	1.04124668964419	0.00121115437781114	0.00249256211486977	-1.1315357800801	0.00022432296928352	9.27977212818766e-05
"Parabacteroides"	35	0.791015625	0.9393310546875	0.428571428571429	-0.142857142857143	0.0764966011396255	-0.41752536440387	0.055984870818519	0.041916307895854	-0.000960144050643041	0.00109983122796532	0.00186997723224394
"Alistipes"	41	0.51953125	0.914532001201923	0.607142857142857	0.214285714285714	0.194193850469192	0.21191049409687	0.0221019796407412	0.0255989757912384	0.16864047124907	0	0.00708879373606117
"Gemmiger"	19	0.431640625	0.911241319444444	0.428571428571429	-0.142857142857143	0.248677497205275	-0.747914127761895	0.00287911998301177	0.00171441191831696	0	0.000388887621103096	0.000529383072093013
"Sutterella"	21	0.7421875	0.932672316028226	0.571428571428571	0.142857142857143	0.116304185376532	-0.355503816919141	0.00759788586938052	0.00593848211863914	0	0	7.66038927691519e-05
"Turicibacter"	21	0.7421875	0.932672316028226	0.571428571428571	0.142857142857143	0.116304185376532	-1.40568355555233	0.00238105739932098	0.000898704570327235	0	0	0
"Lactobacillus"	14	0.5625	0.914532001201923	0.5	0	0.236429715193471	-7.04615890583784	0.062457113823092	0.000472581510951837	0	0	0
"Enterococcus"	19	0.9453125	1	0.5	0	0.0242517722676958	-3.2882296210791	0.0447523172601056	0.00458099459414674	0	0	0
"Unclassified_Enterobacteriaceae"	17	0.6875	0.932672316028226	0.535714285714286	0.0714285714285714	0.152036233957253	1.34214814544727	0.00170845445126243	0.00433141957651166	0	0	0
"Akkermansia"	8	0.375	0.911241319444444	0.571428571428571	0.142857142857143	0.443573279509438	4.92991361418797	0.000414686752322764	0.0126407265164251	0	0	0
"Unclassified_Lactobacillales"	6	0.875	1	0.5	0	0.0786553423050853	5.17931869592891	0.000241133254877914	0.00873750410882846	0	0	0
"Unclassified_Burkholderiales"	1	1	1	0.5	0	0	-1.31452143004042	0.00349348624874736	0.00140458704262795	0	0	0
"Odoribacter"	7	0.625	0.914532001201923	0.5	0	0.244388205557335	0.97973403146302	0.0010126727554186	0.00199709377184293	0	0	0
"Megamonas"	1	1	1	0.535714285714286	0.0714285714285714	0	-10.9900918736426	0.0130347593582888	6.40848996750896e-06	0	0	0
"Parasutterella"	1	1	1	0.5	0	0	-0.373868823022391	0.00168743266374815	0.00130220908627104	0	0	0
