".record.id"	"DietStatus"	"feature"	"abundance"
"SM1"	"before.diet"	"Bacteroidetes"	0.783790804398649
"SM11"	"after.diet"	"Bacteroidetes"	0.908560611913776
"SM12"	"before.diet"	"Bacteroidetes"	0.929753895184136
"SM13"	"before.diet"	"Bacteroidetes"	0.754910714285714
"SM14"	"before.diet"	"Bacteroidetes"	0.0643695569859902
"SM17"	"before.diet"	"Bacteroidetes"	0.819197352089367
"SM19"	"after.diet"	"Bacteroidetes"	0.225358630263767
"SM2"	"before.diet"	"Bacteroidetes"	0.886987787489926
"SM23"	"after.diet"	"Bacteroidetes"	0.281625881377022
"SM3"	"after.diet"	"Bacteroidetes"	0.306595768752121
"SM33"	"before.diet"	"Bacteroidetes"	0.690401258851298
"SM38"	"after.diet"	"Bacteroidetes"	0.984482581440756
"SM41"	"before.diet"	"Bacteroidetes"	0.556199677938808
"SM45"	"after.diet"	"Bacteroidetes"	0
"SM49"	"before.diet"	"Bacteroidetes"	0.932167621344589
"SM52"	"before.diet"	"Bacteroidetes"	0.0982677851617823
"SM53"	"after.diet"	"Bacteroidetes"	0.802934407364787
"SM56"	"after.diet"	"Bacteroidetes"	0.731723237597911
"SM57"	"before.diet"	"Bacteroidetes"	0.904607631389489
"SM58"	"after.diet"	"Bacteroidetes"	0.773404599935212
"SM62"	"before.diet"	"Bacteroidetes"	0.971497390606182
"SM64"	"after.diet"	"Bacteroidetes"	0.868277474668745
"SM77"	"after.diet"	"Bacteroidetes"	0.763546243100146
"SM79"	"after.diet"	"Bacteroidetes"	0.849579174006655
"SM8"	"before.diet"	"Bacteroidetes"	0.824990730441231
"SM83"	"before.diet"	"Bacteroidetes"	0.825370675453048
"SM84"	"before.diet"	"Bacteroidetes"	0.886138613861386
"SM86"	"after.diet"	"Bacteroidetes"	0.00341296928327645
"SM87"	"before.diet"	"Bacteroidetes"	0.866818873668189
"SM88"	"after.diet"	"Bacteroidetes"	0.838704177323103
"SM9"	"after.diet"	"Bacteroidetes"	0.663512957630605
"SM90"	"after.diet"	"Bacteroidetes"	0.617574257425743
"SM96"	"before.diet"	"Bacteroidetes"	0.638152396870014
"SM1"	"before.diet"	"Firmicutes"	0.192657372932721
"SM11"	"after.diet"	"Firmicutes"	0.0832882639264467
"SM12"	"before.diet"	"Firmicutes"	0.0667050283286119
"SM13"	"before.diet"	"Firmicutes"	0.200446428571429
"SM14"	"before.diet"	"Firmicutes"	0.898523286633851
"SM17"	"before.diet"	"Firmicutes"	0.141911460488209
"SM19"	"after.diet"	"Firmicutes"	0.737621471540953
"SM2"	"before.diet"	"Firmicutes"	0.103527369660901
"SM23"	"after.diet"	"Firmicutes"	0.718374118622978
"SM3"	"after.diet"	"Firmicutes"	0.683674623826225
"SM33"	"before.diet"	"Firmicutes"	0.0664830841856806
"SM38"	"after.diet"	"Firmicutes"	0.0149522145719864
"SM41"	"before.diet"	"Firmicutes"	0.222222222222222
"SM45"	"after.diet"	"Firmicutes"	0.999807987711213
"SM49"	"before.diet"	"Firmicutes"	0.0630087428399156
"SM52"	"before.diet"	"Firmicutes"	0.73504739078331
"SM53"	"after.diet"	"Firmicutes"	0.15671749136939
"SM56"	"after.diet"	"Firmicutes"	0.245757180156658
"SM57"	"before.diet"	"Firmicutes"	0.0910727141828654
"SM58"	"after.diet"	"Firmicutes"	0.216391318432135
"SM62"	"before.diet"	"Firmicutes"	0.0272982737856283
"SM64"	"after.diet"	"Firmicutes"	0.0731544371450841
"SM77"	"after.diet"	"Firmicutes"	0.200180241072434
"SM79"	"after.diet"	"Firmicutes"	0.142982971227246
"SM8"	"before.diet"	"Firmicutes"	0.134593993325918
"SM83"	"before.diet"	"Firmicutes"	0.163920922570016
"SM84"	"before.diet"	"Firmicutes"	0.0789167152009319
"SM86"	"after.diet"	"Firmicutes"	0.974868135277692
"SM87"	"before.diet"	"Firmicutes"	0.0711567732115677
"SM88"	"after.diet"	"Firmicutes"	0.129326513213981
"SM9"	"after.diet"	"Firmicutes"	0.290004113533525
"SM90"	"after.diet"	"Firmicutes"	0.349422442244224
"SM96"	"before.diet"	"Firmicutes"	0.248955405302743
"SM1"	"before.diet"	"Proteobacteria"	0.0219066585851589
"SM11"	"after.diet"	"Proteobacteria"	0.00320636637564707
"SM12"	"before.diet"	"Proteobacteria"	0.00119511331444759
"SM13"	"before.diet"	"Proteobacteria"	0.00491071428571429
"SM14"	"before.diet"	"Proteobacteria"	0.00643695569859902
"SM17"	"before.diet"	"Proteobacteria"	0.0223417459660736
"SM19"	"after.diet"	"Proteobacteria"	0.035631652012957
"SM2"	"before.diet"	"Proteobacteria"	0.00564131175996528
"SM23"	"after.diet"	"Proteobacteria"	0
"SM3"	"after.diet"	"Proteobacteria"	0.00690123317117321
"SM33"	"before.diet"	"Proteobacteria"	0.242328874901652
"SM38"	"after.diet"	"Proteobacteria"	0.000256910903298736
"SM41"	"before.diet"	"Proteobacteria"	0.0186795491143317
"SM45"	"after.diet"	"Proteobacteria"	0.000192012288786482
"SM49"	"before.diet"	"Proteobacteria"	0.00211034066927947
"SM52"	"before.diet"	"Proteobacteria"	0.158078222028543
"SM53"	"after.diet"	"Proteobacteria"	0.0384062140391254
"SM56"	"after.diet"	"Proteobacteria"	0.0205613577023499
"SM57"	"before.diet"	"Proteobacteria"	0.000359971202303816
"SM58"	"after.diet"	"Proteobacteria"	0.00988014253320376
"SM62"	"before.diet"	"Proteobacteria"	0
"SM64"	"after.diet"	"Proteobacteria"	0.0561184723304754
"SM77"	"after.diet"	"Proteobacteria"	0.0332882730652247
"SM79"	"after.diet"	"Proteobacteria"	0.00244666275200626
"SM8"	"before.diet"	"Proteobacteria"	0.010752688172043
"SM83"	"before.diet"	"Proteobacteria"	0.0013728720483251
"SM84"	"before.diet"	"Proteobacteria"	0.0329062317996506
"SM86"	"after.diet"	"Proteobacteria"	0.00713620850139622
"SM87"	"before.diet"	"Proteobacteria"	0.0605022831050228
"SM88"	"after.diet"	"Proteobacteria"	0.0277919863597613
"SM9"	"after.diet"	"Proteobacteria"	0.0436034553681613
"SM90"	"after.diet"	"Proteobacteria"	0.021039603960396
"SM96"	"before.diet"	"Proteobacteria"	0.0173972498670516
"SM1"	"before.diet"	"Verrucomicrobia"	0
"SM11"	"after.diet"	"Verrucomicrobia"	0.00374719925828633
"SM12"	"before.diet"	"Verrucomicrobia"	8.85269121813031e-05
"SM13"	"before.diet"	"Verrucomicrobia"	0.0303571428571429
"SM14"	"before.diet"	"Verrucomicrobia"	0
"SM17"	"before.diet"	"Verrucomicrobia"	0
"SM19"	"after.diet"	"Verrucomicrobia"	0
"SM2"	"before.diet"	"Verrucomicrobia"	0
"SM23"	"after.diet"	"Verrucomicrobia"	0
"SM3"	"after.diet"	"Verrucomicrobia"	0
"SM33"	"before.diet"	"Verrucomicrobia"	0
"SM38"	"after.diet"	"Verrucomicrobia"	0
"SM41"	"before.diet"	"Verrucomicrobia"	0.175201288244766
"SM45"	"after.diet"	"Verrucomicrobia"	0
"SM49"	"before.diet"	"Verrucomicrobia"	0
"SM52"	"before.diet"	"Verrucomicrobia"	0
"SM53"	"after.diet"	"Verrucomicrobia"	0
"SM56"	"after.diet"	"Verrucomicrobia"	0
"SM57"	"before.diet"	"Verrucomicrobia"	0
"SM58"	"after.diet"	"Verrucomicrobia"	0
"SM62"	"before.diet"	"Verrucomicrobia"	0.000802890405459655
"SM64"	"after.diet"	"Verrucomicrobia"	0
"SM77"	"after.diet"	"Verrucomicrobia"	0
"SM79"	"after.diet"	"Verrucomicrobia"	0
"SM8"	"before.diet"	"Verrucomicrobia"	0.00667408231368187
"SM83"	"before.diet"	"Verrucomicrobia"	0
"SM84"	"before.diet"	"Verrucomicrobia"	9.706853038245e-05
"SM86"	"after.diet"	"Verrucomicrobia"	0
"SM87"	"before.diet"	"Verrucomicrobia"	0
"SM88"	"after.diet"	"Verrucomicrobia"	0
"SM9"	"after.diet"	"Verrucomicrobia"	0
"SM90"	"after.diet"	"Verrucomicrobia"	0.00288778877887789
"SM96"	"before.diet"	"Verrucomicrobia"	0.00167135151561194
"SM1"	"before.diet"	"Unclassified_Bacteria"	0.00086587583340549
"SM11"	"after.diet"	"Unclassified_Bacteria"	0.00112029668546705
"SM12"	"before.diet"	"Unclassified_Bacteria"	0.00225743626062323
"SM13"	"before.diet"	"Unclassified_Bacteria"	0.00803571428571428
"SM14"	"before.diet"	"Unclassified_Bacteria"	0.00567966679288148
"SM17"	"before.diet"	"Unclassified_Bacteria"	0.0148944973107158
"SM19"	"after.diet"	"Unclassified_Bacteria"	0.001388246182323
"SM2"	"before.diet"	"Unclassified_Bacteria"	0.00365755377843903
"SM23"	"after.diet"	"Unclassified_Bacteria"	0
"SM3"	"after.diet"	"Unclassified_Bacteria"	0.00214956443036543
"SM33"	"before.diet"	"Unclassified_Bacteria"	0.000786782061369001
"SM38"	"after.diet"	"Unclassified_Bacteria"	0.000205528722638989
"SM41"	"before.diet"	"Unclassified_Bacteria"	0.00611916264090177
"SM45"	"after.diet"	"Unclassified_Bacteria"	0
"SM49"	"before.diet"	"Unclassified_Bacteria"	0.00180886343081097
"SM52"	"before.diet"	"Unclassified_Bacteria"	0.00326832988342957
"SM53"	"after.diet"	"Unclassified_Bacteria"	0.00172612197928654
"SM56"	"after.diet"	"Unclassified_Bacteria"	0.00195822454308094
"SM57"	"before.diet"	"Unclassified_Bacteria"	0.00251979841612671
"SM58"	"after.diet"	"Unclassified_Bacteria"	0.000161969549724652
"SM62"	"before.diet"	"Unclassified_Bacteria"	0
"SM64"	"after.diet"	"Unclassified_Bacteria"	0.0022269235051776
"SM77"	"after.diet"	"Unclassified_Bacteria"	0.00264729075137997
"SM79"	"after.diet"	"Unclassified_Bacteria"	0.00450185946369152
"SM8"	"before.diet"	"Unclassified_Bacteria"	0.0218761586948461
"SM83"	"before.diet"	"Unclassified_Bacteria"	0.00796265788028556
"SM84"	"before.diet"	"Unclassified_Bacteria"	0.0015530964861192
"SM86"	"after.diet"	"Unclassified_Bacteria"	0.00651566863170959
"SM87"	"before.diet"	"Unclassified_Bacteria"	0.0015220700152207
"SM88"	"after.diet"	"Unclassified_Bacteria"	0.00289855072463768
"SM9"	"after.diet"	"Unclassified_Bacteria"	0.00246812011517894
"SM90"	"after.diet"	"Unclassified_Bacteria"	0.00577557755775578
"SM96"	"before.diet"	"Unclassified_Bacteria"	0.0904049228899187
