"feature"	"baseMean"	"log2FoldChange"	"lfcSE"	"stat"	"pvalue"	"padj"
"Firmicutes"	1000.9682698784	-0.985996592156786	0.311293483828766	-3.16741802632513	0.00153799063196969	0.00922794379181812
"Unclassified_Bacteria"	19.366592582011	1.3259940958384	0.513862342192546	2.58044613695694	0.00986727478349425	0.0276056226471118
"other"	6.41876616434053	1.47559422707094	0.599261458006923	2.46235463228122	0.0138028113235559	0.0276056226471118
"Verrucomicrobia"	3.93382338266575	1.77664160332011	1.03027122155737	1.72444067750869	0.0846283195408307	0.126942479311246
"Bacteroidetes"	3695.85284096201	0.379678537648227	0.522945070335799	0.726039041546799	0.467814836964241	0.561377804357089
"Proteobacteria"	81.2757511198349	-0.230624150562759	0.575333550324128	-0.400852949446163	0.688528392388863	0.688528392388863
