"Species"	"chao"	"chao.se"	"jack1"	"jack1.se"	"jack2"	"boot"	"boot.se"	"n"
91.1925	123.030785975296	15.4536637425009	119.71828125	9.25465644836546	134.49659375	104.167428146299	5.12449400158028	16
97.1325	119.234113372055	11.7149817475465	120.32859375	9.67664380360887	130.397947916667	108.167765513189	5.8356520253749	16
