".record.id"	"DietStatus"	"Drug.Before.Diet"	"feature"	"Richness.Estimate"
"SM1"	"before.diet"	TRUE	"S.obs"	46.75
"SM11"	"after.diet"	TRUE	"S.obs"	49.01
"SM12"	"before.diet"	TRUE	"S.obs"	49.77
"SM13"	"before.diet"	FALSE	"S.obs"	45.5725
"SM14"	"before.diet"	FALSE	"S.obs"	41.5875
"SM17"	"before.diet"	TRUE	"S.obs"	43.775
"SM19"	"after.diet"	FALSE	"S.obs"	45
"SM2"	"before.diet"	FALSE	"S.obs"	43.27
"SM23"	"after.diet"	TRUE	"S.obs"	15.39
"SM3"	"after.diet"	TRUE	"S.obs"	51.4275
"SM33"	"before.diet"	TRUE	"S.obs"	19.6625
"SM38"	"after.diet"	TRUE	"S.obs"	34.96
"SM41"	"before.diet"	TRUE	"S.obs"	59.92
"SM45"	"after.diet"	FALSE	"S.obs"	2
"SM49"	"before.diet"	TRUE	"S.obs"	40.145
"SM52"	"before.diet"	FALSE	"S.obs"	36.7525
"SM53"	"after.diet"	TRUE	"S.obs"	53.445
"SM56"	"after.diet"	TRUE	"S.obs"	24.4175
"SM57"	"before.diet"	TRUE	"S.obs"	39.3025
"SM58"	"after.diet"	FALSE	"S.obs"	32.9275
"SM62"	"before.diet"	TRUE	"S.obs"	24.295
"SM64"	"after.diet"	TRUE	"S.obs"	48.755
"SM77"	"after.diet"	TRUE	"S.obs"	60.7275
"SM79"	"after.diet"	FALSE	"S.obs"	51.525
"SM8"	"before.diet"	FALSE	"S.obs"	44.13
"SM83"	"before.diet"	TRUE	"S.obs"	37.5125
"SM84"	"before.diet"	TRUE	"S.obs"	54.2825
"SM86"	"after.diet"	TRUE	"S.obs"	26.7475
"SM87"	"before.diet"	TRUE	"S.obs"	51.84
"SM88"	"after.diet"	TRUE	"S.obs"	46.195
"SM9"	"after.diet"	FALSE	"S.obs"	42.42
"SM90"	"after.diet"	FALSE	"S.obs"	59.7125
"SM96"	"before.diet"	FALSE	"S.obs"	35.6925
