"rownames"	"Df"	"SumsOfSqs"	"MeanSqs"	"F.Model"	"R2"	"Pr(>F)"
"DietStatus"	1	0.266867980011888	0.266867980011888	0.943470714286	0.0295356357086091	0.0529867533116721
"Residuals"	31	8.76858948041788	0.28285772517477	NA	0.970464364291391	NA
"Total"	32	9.03545746042977	NA	NA	1	NA
