"rownames"	"Df"	"SumsOfSqs"	"MeanSqs"	"F.Model"	"R2"	"Pr(>F)"
"Drug.Before.Diet"	1	79.0197151125154	79.0197151125154	1.172955524686	0.0369916862460238	0.296675831042239
"DietStatus"	1	50.5686916318411	50.5686916318411	0.750633258311	0.0236728412909796	0.641339665083729
"Drug.Before.Diet:DietStatus"	1	52.8863832175354	52.8863832175354	0.785036687203	0.0247578277381083	0.604598850287428
"Residuals"	29	1953.67317006816	67.3680403471778	NA	0.914577644724888	NA
"Total"	32	2136.14796003005	NA	NA	1	NA
