"feature"	"DietStatus"	"Drug.Before.Diet"	"mean"	"sd"	"median"	"incidence"
"S.obs"	"after.diet"	FALSE	38.9308333333333	20.1961691086866	43.71	1
"S.obs"	"after.diet"	TRUE	41.1075	14.8114984893494	47.475	1
"S.obs"	"before.diet"	FALSE	41.1675	4.05574130092145	42.42875	1
"S.obs"	"before.diet"	TRUE	42.4777272727273	12.2297730689568	43.775	1
