"N1"	"N2"	"div.unb.simpson"	"S.obs"
3.10799446271507	1.65845492724794	0.396894178066161	24.84
8.67785052019454	6.06396623820102	0.835348505377972	25.55
5.51755200668716	3.06335942439568	0.673031612952833	24.1575
2.06269398961921	1.35249117249814	0.260676987139259	24.65
1.94926938655939	1.32278914808069	0.243731541447203	21.8
7.65018672921943	3.95820774242905	0.747604160020331	31.8825
8.86938605831626	4.953726942861	0.798323637740554	28.91
6.92761206214752	4.53046088340893	0.779104981988719	24.4475
2.6448463591757	1.50532708168199	0.335905027029886	23.7125
4.15253779848902	2.22527767319048	0.550144346550047	31.0125
7.54189100833811	4.89168556509349	0.795939808387796	27
1.90442435917158	1.33877564155702	0.252455694143737	19.4575
7.96598980524964	4.17112170719744	0.761331836310976	29.6375
5.86607528883124	2.77600843376839	0.640317421005979	30.16
1.92996779714803	1.71521640939589	0.417180935924749	8.5625
3.62524321269318	2.04182412059342	0.510506040003241	30.9325
7.5520716477712	4.18438702221471	0.761169971760717	26.6425
1.76085897020261	1.23240925697591	0.188627649357363	19.595
8.85148259516343	6.66637809982895	0.850413603170477	25.2975
9.35813614130118	6.05426614123078	0.83498657698526	24.8675
4.19970119915677	3.05639685987562	0.673044214922517	18.045
10.2125249201724	7.30807002897027	0.863476755538799	24.3075
1.13249944081024	1.03498762895526	0.034098684128909	13.395
4.24014147996315	2.93410490462618	0.659239100455135	25.7425
3.71165207910538	2.03267813229369	0.50831846242877	25.505
7.39541221756378	3.44554375636055	0.709905249265381	33.3675
4.06710692880107	2.05309418038792	0.512547318737213	28.7925
4.97111045685508	2.26396040228162	0.557408622028477	27.2625
1.02018177092547	1.0057269653903	0.00574591335012808	2.4225
1.56430591623916	1.15837980837307	0.136315169905488	21.2925
5.63986437709625	3.12517241663273	0.679657969996332	29.7425
12.9383490339726	8.99342510059341	0.889227931712618	22.8025
3.59895288253244	1.93208410515394	0.482167498158243	26.1425
13.2750703524948	9.25478379484313	0.89262628265688	32.885
4.62044576363488	3.04809042866323	0.672020921795298	24.5
3.79822051402374	2.33835092998139	0.572504286692446	22.185
3.52260802355388	1.9527068092811	0.487678678133435	19.2025
1.97570542441676	1.3235601635607	0.24382455597279	21.935
4.11914445943711	2.22808305260128	0.551094925176308	22.3825
10.9908168056784	6.76263259994062	0.852301427262301	30.41
2.06367590982671	1.39485868438772	0.283328616628749	20.4175
1.2293875237956	1.07493154468166	0.069737964301984	12.3275
3.01730483888334	1.92600822209229	0.481177440827189	22.1825
8.54544512519499	5.25641411257925	0.810343034340454	25.9975
2.90717814212952	2.24321105265874	0.554769567188045	15.4825
11.0721002125005	8.39594943204051	0.881203232181383	26.0725
2.28669741353576	1.51483487080123	0.338810447625371	20.41
2.22171809277359	1.41210360823287	0.291507524037785	24.7325
2.48011714822146	1.50767261906203	0.337378072369906	21.5525
7.56356838503242	4.86031785798131	0.794544456337194	19.66
3.83105266994946	1.97770390008277	0.494018819229338	26.11
3.87473869008693	2.09203913573332	0.522054927355912	24.0975
3.02202687124788	1.66038823675263	0.397321895192921	24.8625
1.86609000577589	1.32969992249152	0.248196505556412	23.68
2.51464260197186	1.47883547792134	0.324354953749178	22.9575
5.21414681484187	3.38547232974798	0.704213595923035	22.965
7.29741011389679	4.83402504945834	0.794098438577534	24.09
4.63983633754061	2.93089361711371	0.6588538181246	20.105
2.74921102808176	1.5730549190026	0.364465457009719	23.1875
3.71886275760255	2.37613168101574	0.579433348060719	20.545
10.0541265916001	4.97503713164015	0.799445018789881	35.235
4.91261129747906	2.29092357582595	0.563417334873516	28.98
2.43503053782872	1.56570867910289	0.361480171051858	18.9775
4.44515352181975	2.34294606555593	0.573098682394637	23.8575
4.4282269413195	2.35493715518411	0.575474798744358	24.325
4.5666349248787	2.85461492809802	0.649686168108362	25.6925
4.92238794778529	2.30836228925055	0.567073824101588	26.8575
