"N1"	"N2"	"div.unb.simpson"	"S.obs"
29.0225235953078	12.9759695452161	0.923374127671205	152.4875
59.4380080747547	29.2843721576508	0.966109156790436	209.7575
19.8333789360182	5.88597622890736	0.829893593983536	158.315
27.8079172338213	11.6911120076708	0.914817222618442	141.8375
27.2196290207791	10.8332373916632	0.90800563158353	146.7725
24.4336906173732	8.85308275298637	0.887454938428687	146.8075
19.4241599036202	5.66213702265613	0.823560864227374	162.7875
26.0893222685282	9.42994317578786	0.894052067681561	143.2425
20.3715059596684	8.51102722028427	0.883040795469607	135.48
13.5894762960451	5.87949215615372	0.830001286362963	121.01
33.1403936580699	9.96443256184139	0.900059557475344	167
10.8150113565846	4.64542785783398	0.784680081553776	101.8475
72.7601955550631	31.5019776183046	0.968682154862366	260.565
51.5163151615643	18.7285559315205	0.946993994180215	209.1725
2.53352911102622	1.80853076561936	0.447102577914895	26.8225
16.7031024671307	4.35836785120119	0.770810443254618	169.4025
26.6916929985456	8.75286927988762	0.886269686137062	156.1575
7.62286206501324	3.27447136776866	0.694804988512327	84.9925
50.9661312734203	23.223495166578	0.957257203814166	198.83
32.2642232368435	14.8874647205456	0.93327646899912	152.9675
6.63106354972599	3.63767857293388	0.725243999974113	50.5325
20.07040182806	9.88969955703094	0.899555476893805	106.02
15.3812835677077	8.15756279161062	0.877776696502594	79.77
38.3340415820197	17.8489154515152	0.944349212054954	167.845
34.2753976096308	17.7476094764724	0.943848228724628	143.25
43.435156263471	16.0714840116741	0.938261160084214	191.1325
32.0178311247978	11.0288792238309	0.90933123452145	184.1725
40.8397277583477	14.8053030781022	0.9324872683312	185.2075
1.02002374325815	1.00565724429432	0.00574591335012808	2.4175
17.2144081652767	9.48799487221749	0.895106831677599	107.2975
27.3252422200277	9.90361549582238	0.89963427912065	152.725
19.1119958503193	10.4388426968209	0.904458439259351	69.645
22.410257492757	9.38403210288338	0.893671894308508	121.5925
36.7764891080799	17.1610761610556	0.942158798955256	184.4775
22.7811683970115	9.48074652652416	0.894908300210497	122.6775
16.2821655061895	6.83196220287023	0.853853785683141	119.9125
6.05647393405092	2.20700759542828	0.546773202265045	76.36
11.3603497261623	5.10762764135651	0.804564284478806	108.95
10.1501020273724	4.100361949835	0.756340440105145	88.105
46.5236766561519	20.4052077728903	0.951418632291673	190.56
15.6605628394253	7.37626183225766	0.864694551081814	101.2625
7.0236850635241	3.2655522815243	0.693780178925165	45.1975
16.1485877916769	6.29815478092062	0.841371871917979	123.9125
47.0769146874878	25.6648141443803	0.96143921155245	162.115
17.6542482262155	9.24901743523139	0.892331835151175	96.195
22.7039643980664	11.1820346574098	0.910915683680081	139.1975
33.582278404821	17.7433728509382	0.944001440737137	124.875
27.7309756916525	10.2576913712535	0.902671720539052	133.3275
17.1633325391035	8.41871497646696	0.881576160209081	99.01
23.7464429688857	10.6777598395396	0.906696593341681	113.28
40.9590166882714	15.5863206357785	0.936115330883243	187.4325
25.4586513075238	9.42666404783532	0.894393232712686	164.4875
21.3752341293783	9.00458683762869	0.889396559975943	108.27
14.2975600725958	6.07032032078366	0.835286848927518	97.39
15.7550098247085	7.9890708170236	0.875209739103835	112.345
52.366971606285	25.0923442969599	0.96048838710547	169.765
29.4097168071657	9.85832308036803	0.898935972495315	157.0275
33.9640555178972	16.2478480093684	0.938904271820236	133.1025
24.4854541895788	11.2747060141472	0.911485270839335	140.0425
28.3868047930129	14.064824962023	0.929358948966311	114.0775
58.4899401061713	26.8126219812282	0.963135531464124	206.3275
48.7826444345149	22.5202601370573	0.955964131954857	195.75
7.79060652591828	3.7267265186779	0.731857444705775	64.7225
26.6429394682356	8.68395887972654	0.884722896988229	160.835
15.4368152921679	4.42523399481604	0.774493778135896	140.725
23.6692382262499	11.2021865467272	0.910821022652631	128.43
26.6299930774633	7.72101344069864	0.870751219272087	168.955
