".record.id"	"visit"	"Drug.Before.Diet"	"feature"	"Richness.Estimate"
"SM1"	1	TRUE	"S.obs"	24.84
"SM10"	3	TRUE	"S.obs"	25.55
"SM100"	4	TRUE	"S.obs"	24.1575
"SM11"	2	TRUE	"S.obs"	24.65
"SM12"	1	TRUE	"S.obs"	21.8
"SM13"	1	FALSE	"S.obs"	31.8825
"SM14"	1	FALSE	"S.obs"	28.91
"SM16"	4	FALSE	"S.obs"	24.4475
"SM17"	1	TRUE	"S.obs"	23.7125
"SM18"	2	FALSE	"S.obs"	31.0125
"SM19"	2	FALSE	"S.obs"	27
"SM2"	1	FALSE	"S.obs"	19.4575
"SM21"	1	FALSE	"S.obs"	29.6375
"SM22"	1	TRUE	"S.obs"	30.16
"SM23"	2	TRUE	"S.obs"	8.5625
"SM24"	1	FALSE	"S.obs"	30.9325
"SM25"	4	FALSE	"S.obs"	26.6425
"SM29"	3	TRUE	"S.obs"	19.595
"SM3"	2	TRUE	"S.obs"	25.2975
"SM30"	4	TRUE	"S.obs"	24.8675
"SM33"	1	TRUE	"S.obs"	18.045
"SM36"	4	FALSE	"S.obs"	24.3075
"SM38"	2	TRUE	"S.obs"	13.395
"SM39"	1	FALSE	"S.obs"	25.7425
"SM40"	4	FALSE	"S.obs"	25.505
"SM41"	1	TRUE	"S.obs"	33.3675
"SM42"	4	FALSE	"S.obs"	28.7925
"SM43"	4	TRUE	"S.obs"	27.2625
"SM45"	2	FALSE	"S.obs"	2.4225
"SM49"	1	TRUE	"S.obs"	21.2925
"SM5"	3	TRUE	"S.obs"	29.7425
"SM50"	3	FALSE	"S.obs"	22.8025
"SM51"	4	TRUE	"S.obs"	26.1425
"SM52"	1	FALSE	"S.obs"	32.885
"SM53"	2	TRUE	"S.obs"	24.5
"SM54"	3	TRUE	"S.obs"	22.185
"SM56"	2	TRUE	"S.obs"	19.2025
"SM57"	1	TRUE	"S.obs"	21.935
"SM58"	2	FALSE	"S.obs"	22.3825
"SM59"	3	FALSE	"S.obs"	30.41
"SM60"	3	TRUE	"S.obs"	20.4175
"SM62"	1	TRUE	"S.obs"	12.3275
"SM64"	2	TRUE	"S.obs"	22.1825
"SM65"	3	TRUE	"S.obs"	25.9975
"SM67"	4	TRUE	"S.obs"	15.4825
"SM68"	4	FALSE	"S.obs"	26.0725
"SM69"	4	TRUE	"S.obs"	20.41
"SM71"	3	TRUE	"S.obs"	24.7325
"SM73"	1	FALSE	"S.obs"	21.5525
"SM75"	3	FALSE	"S.obs"	19.66
"SM77"	2	TRUE	"S.obs"	26.11
"SM79"	2	FALSE	"S.obs"	24.0975
"SM8"	1	FALSE	"S.obs"	24.8625
"SM82"	4	TRUE	"S.obs"	23.68
"SM83"	1	TRUE	"S.obs"	22.9575
"SM84"	1	TRUE	"S.obs"	22.965
"SM86"	2	TRUE	"S.obs"	24.09
"SM87"	1	TRUE	"S.obs"	20.105
"SM88"	2	TRUE	"S.obs"	23.1875
"SM9"	2	FALSE	"S.obs"	20.545
"SM90"	2	FALSE	"S.obs"	35.235
"SM91"	3	TRUE	"S.obs"	28.98
"SM92"	3	FALSE	"S.obs"	18.9775
"SM93"	1	TRUE	"S.obs"	23.8575
"SM96"	1	FALSE	"S.obs"	24.325
"SM98"	3	FALSE	"S.obs"	25.6925
"SM99"	3	FALSE	"S.obs"	26.8575
