"N1"	"N2"	"div.unb.simpson"	"S.obs"
3.18217362423402	1.66125657280758	0.397061009875012	31.625
8.81946515047179	6.0643508861006	0.835410884514233	34.05
5.57294150688367	3.06188043484072	0.673094827025088	28.67
2.09146184590214	1.35152615978607	0.260758666500395	29.9575
1.96214046168032	1.32391280876878	0.243745985703711	24.8975
7.96457849127971	3.96424173127562	0.748025665156514	43.5925
10.6704706488136	5.34847520574176	0.813348077518867	41.3775
7.05971733462376	4.51700030536727	0.779224562942007	31.775
2.76691159795651	1.50619308484026	0.336527343568132	34.24
4.21327571140835	2.22284720804007	0.550233072863004	37.92
7.87154451914023	4.90420981551665	0.796462114590358	34
1.91115327646805	1.3376756560444	0.252470513910457	23.5625
8.32911576745561	4.19692676627538	0.761622836004295	42.8725
6.04840646169426	2.77980884032428	0.640481055278956	41.6925
1.92996315837783	1.714958757325	0.417180935924749	8.5825
3.6742991787336	2.04318889440743	0.510540585032201	38.0025
7.59160212226567	4.1865701334296	0.761181048999068	30.2225
1.76671492091298	1.23224552901691	0.188649643331016	21.3175
9.21923195286798	6.68758509001208	0.850793433542646	35.3175
9.67214220702663	6.05783183193138	0.835196054927302	35.97
4.28386038620106	3.06365526486698	0.673641500477967	20.805
10.4785997796133	7.32191521809859	0.863669702068561	31.6675
1.13480348526804	1.03541094568448	0.0340997243930161	13.885
4.30500415103056	2.93400930256904	0.659289361516391	33.25
3.73926650001596	2.03530834316278	0.508328114433775	29.39
7.56022972786576	3.44222137889564	0.710013156365666	43.8425
4.13986577947845	2.05555190546221	0.512648518468135	35.2275
5.0613145950336	2.26651299404682	0.557492473652898	33.58
1.01994190945026	1.00563148542779	0.00574591335012808	2.385
1.57613632363085	1.15765600822895	0.136343353845149	25.6425
5.65450607328137	3.12052917596183	0.679665111775462	33.4275
13.4351718316582	9.05195483097754	0.889857020600212	28.515
3.76148953631635	1.93535841448835	0.48274969658286	34.2425
14.1967683822931	9.34860263205261	0.893388631819626	48.7275
4.6303146765617	3.04515985030051	0.672027615799746	27.4675
3.82303701576667	2.34004322753746	0.572534986998882	25.0375
3.83668775091949	1.96303457391648	0.490523633803262	24.435
1.99205533729284	1.32247531965551	0.243858777217783	27.0675
4.28965320630445	2.22930479031872	0.551714256012507	28
11.7532498794568	6.80271686678966	0.853363138714175	42.14
2.11153698988602	1.39689205439371	0.283953493061507	24.615
1.23610116396875	1.07493057812741	0.0697463478965585	16.665
3.03367616625591	1.92612029162886	0.481191947260572	26.905
8.69160236410417	5.27465260340419	0.810466371902469	30.7225
2.91920943888299	2.2446194431407	0.554787877529646	16.7425
11.7440004794046	8.40950765724686	0.881645994083189	46.24
2.30766317780736	1.51250264030416	0.338872540035209	25.1075
2.26264180927416	1.41319307380948	0.291581910688492	32.78
2.49990482665955	1.50835971978262	0.337393211395719	25.705
8.43712444913884	4.93492951265825	0.797519054034102	31.7275
3.86087596569322	1.97761030117352	0.494037366962588	30.0125
3.93970679608337	2.09086746462455	0.522144565684221	31.74
3.13875298505663	1.66006004007645	0.397784547948093	33.72
1.87055796006476	1.32928905837029	0.248199482960048	25.8725
2.54773038845349	1.48084251269951	0.324405178016381	28.24
5.73922121842218	3.40708234550012	0.706574978038024	33.705
7.46208461557595	4.85114153884719	0.794179906102286	33.265
4.64360257166142	2.92814055173673	0.658854687216744	21.5125
2.77926080852755	1.57334365618998	0.364541237728789	28.14
3.73026912016749	2.37436051823207	0.57943910362202	23.315
10.3431703038852	4.98779940587647	0.799612214626226	43.8125
5.09012717931516	2.29048586946932	0.563630740935962	41.5825
2.48831960955104	1.56466732858925	0.361723959681937	23.635
4.450799734628	2.34299113544541	0.573100563499414	25.8375
4.56147552727853	2.35726977262876	0.575689908109845	33.2275
4.78655296078104	2.85788868880294	0.650340047485801	37.97
5.33063069473516	2.31472915723612	0.568433995156628	38.38
