"feature"	"visit"	"Drug.Before.Diet"	"mean"	"sd"	"median"	"incidence"
"N1"	1	FALSE	27.3222072550521	18.2910484225817	20.3996970164993	1
"N1"	1	TRUE	26.3479702248158	15.509606696026	26.6429394682356	1
"N1"	2	FALSE	24.3193417044934	18.8061985225365	25.4586513075238	1
"N1"	2	TRUE	23.6529278993731	14.8240376304084	23.6333112932951	1
"N1"	3	FALSE	24.5786588841647	12.6414754910726	23.7078405975678	1
"N1"	3	TRUE	31.2399219398832	18.5377736342656	27.5281089558401	1
"N1"	4	FALSE	26.9747683712715	5.39455020590339	26.3905076335369	1
"N1"	4	TRUE	25.8402391610855	9.78333986403014	22.410257492757	1
"N2"	1	FALSE	11.1879520524465	8.66865671043409	8.63589886472666	1
"N2"	1	TRUE	11.2794114978053	6.36499767559568	9.48799487221749	1
"N2"	2	FALSE	10.1791507004587	8.48503476538949	9.42666404783532	1
"N2"	2	TRUE	9.95859593646455	6.2871493557549	9.66953480344609	1
"N2"	3	FALSE	10.6952894692257	5.513850158204	10.5583012681803	1
"N2"	3	TRUE	14.3891810886326	9.87160383710481	10.0806534335379	1
"N2"	4	FALSE	11.3385058950699	3.27487797651302	10.4592893904309	1
"N2"	4	TRUE	11.1464981053417	4.67346823515479	9.38403210288338	1
