"rownames"	"Df"	"SumsOfSqs"	"MeanSqs"	"F.Model"	"R2"	"Pr(>F)"
"visit"	1	192.531761928048	192.531761928048	2.5568195512	0.0378469496963527	0.0107473131717071
"Residuals"	65	4894.5826151284	75.3012710019753	NA	0.962153050303647	NA
"Total"	66	5087.11437705644	NA	NA	1	NA
